<?xml version="1.0" encoding="utf-8"?>
<!-- Generator: Adobe Illustrator 18.0.0, SVG Export Plug-In . SVG Version: 6.00 Build 0)  -->
<!DOCTYPE svg PUBLIC "-//W3C//DTD SVG 1.1//EN" "http://www.w3.org/Graphics/SVG/1.1/DTD/svg11.dtd">
<svg xmlns:cc="http://creativecommons.org/ns#" xmlns:dc="http://purl.org/dc/elements/1.1/" xmlns="http://www.w3.org/2000/svg" xmlns:svg="http://www.w3.org/2000/svg" xmlns:rdf="http://www.w3.org/1999/02/22-rdf-syntax-ns#" xmlns:inkscape="http://www.inkscape.org/namespaces/inkscape" xmlns:sodipodi="http://sodipodi.sourceforge.net/DTD/sodipodi-0.dtd" xmlns:xlink="http://www.w3.org/1999/xlink" version="1.1" id="mapsvg_0_1_3_0_1" x="0px" y="0px" viewBox="0 0 9600 6716" xml:space="preserve">





<g id="Z_1_3">
	<g id="Z_1_3_B">
		
			<path id="Z_1_3_B18" d="    M2616.8,2305.6H1926v63.2h-62.9v665.3h220.8v-507.6h586.9l38.8,38.2v12.6l120.7,120.3h190.1l135.4-135.1V2372l-121.1-121.4    l-19.9,0.2l-9.8-9.5l13.1-13.4l-0.3-11.7l138-141.4h494.4v507.9h220.6V1918h-62.7v-63.9H3068L2616.8,2305.6z" class="P1_3_0"/>
		
			<rect id="Z_1_3_B17" x="1987.6" y="2881.1" width="26.6" height="43.5" class="P1_3_1"/>
		
			<rect id="Z_1_3_B14" x="2014.2" y="2881.1" width="64.6" height="64.7" class="P1_3_1"/>
		
			<rect id="Z_1_3_B13" x="3654.7" y="2430.5" width="64.8" height="64.4" class="P1_3_1"/>
		<polygon id="Z_1_3_B12" points="2894.2,2571.1     3029.1,2436.1 3034.5,2441.4 3034.5,2517.2 2975.3,2576.7 2899.8,2576.7   " class="P1_3_1"/>
		<path id="Z_1_3_B19" d="M3697.3,2006.3v-27.4h-106.3    v40.8h59.8v50.8h95.9v-64.1H3697.3z" class="P1_3_1"/>
		
			<rect id="Z_1_3_B20" x="3719.5" y="2430.5" width="27.2" height="42.1" class="P1_3_1"/>
		<rect id="Z_1_3_B21" x="1931" y="2308" width="102.8" height="63.7" class="P1_3_2"/>
		<polygon id="Z_1_3_B22" points="1864.5,2925.5 1927.5,2925.5 1927.5,3031.8 1864.5,3031.7   " class="P1_3_2"/>
		<path id="Z_1_3_B23" d="M1987.8,2457.2h39.2v-27.5    h51.2v91.8H2027v64.7h-39.2V2457.2z" class="P1_3_1"/>
		<rect id="Z_1_3_B24" x="3698.9" y="1857.2" width="106.2" height="62.2" class="P1_3_2"/>
		<rect id="Z_1_3_B25" x="3806.5" y="2475.7" width="62.8" height="102.6" class="P1_3_2"/>
		<polygon id="Z_1_3_B26" points="2974.6,2382.3 2923.4,2433.4 2903.8,2413.8 2955,2362.6 2864.7,2272.3     2813.5,2323.5 2797.7,2307.7 2764.9,2340.4 2780.7,2356.3 2729.7,2407.3 2820.2,2497.7 2871,2446.5 2890.7,2466.2 2839.7,2517.2     2865.8,2543.5 3000.8,2408.5   " class="P1_3_2"/>
		<polygon id="Z_1_3_B27" points="2671.7,2430.2 2693.1,2408.8 2755,2472.8     2688.7,2539 2671.7,2522.4   " class="P1_3_3"/>
		<polygon id="Z_1_3_B28" points="3034.7,2257.9     3012.9,2257.9 2998,2241.9 3006.5,2232.4 2936.1,2163 2866.5,2233.5 2990.3,2357.1 3062.1,2285.3   " class="P1_3_4"/>
	</g>
	<g id="Z_1_3_A">
		<polygon id="Z_1_3_A44" points="2565,2401.9     2036.2,2401.9 2036.2,2310.6 2565.2,2310.6   " class="P1_3_5"/>
		
			<rect id="Z_1_3_A37" x="2078.6" y="2430.2" width="485.9" height="92.2" class="P1_3_5"/>
		
			<rect id="Z_1_3_A36" x="2564.5" y="2430.2" width="107.2" height="92.2" class="P1_3_6"/>
		<polygon id="Z_1_3_A35" points="1930.3,2964.3     1959.3,2964.3 1959.3,2945.8 2078.8,2945.8 2078.8,3029.7 1930.3,3029.7   " class="P1_3_6"/>
		<polygon id="Z_1_3_A31" points="1958.7,2401.9     1927.9,2401.9 1927.9,2374.1 1867.3,2374.1 1867.3,2924.6 1958.7,2924.6   " class="P1_3_5"/>
		<polygon id="Z_1_3_A30" points="2078.6,2522.4     2027.6,2522.4 2027.6,2586.6 1987.6,2586.6 1987.6,2881.1 2078.8,2881.1   " class="P1_3_5"/>
		<polygon id="Z_1_3_A28" points="3775,1923     3775,1979.3 3866.5,1979.3 3866.5,1933.9 3866.5,1923   " class="P1_3_6"/>
		<polygon id="Z_1_3_A27" points="2910.6,2018.4     3069.7,1859.4 3697.3,1859.4 3697.3,1949.7 3108.6,1949.7 2975.1,2083.2   " class="P1_3_5"/>
		<polygon id="Z_1_3_A26" points="2910.6,2018.4     2618.7,2310.3 2565.2,2310.6 2565,2401.9 2656.5,2401.9 2975.1,2083.2   " class="P1_3_5"/>
		<polygon id="Z_1_3_A20" points="3590.9,2019.6     3590.9,1978.8 3121,1978.8 2937.7,2161.6 3008.1,2231 3012.9,2225.8 3012.9,2214.1 3153.7,2070.4 3650.7,2070.4 3650.7,2019.6       " class="P1_3_5"/>
		
			<rect id="Z_1_3_A12" x="3654.7" y="2073.4" width="91.9" height="357.1" class="P1_3_5"/>
		
			<rect id="Z_1_3_A10" x="3774.9" y="2070.4" width="91.6" height="402.2" class="P1_3_5"/>
		<polygon id="Z_1_3_A6" points="2873.7,2591.5     2894.2,2571.1 2899.8,2576.7 2975.3,2576.7 3034.5,2517.2 3034.5,2441.4 3029.1,2436.1 3049.2,2416 3064.9,2431.7 3136.7,2359.9     3150.7,2373.9 3151,2559.8 3018.5,2692.3 2831.9,2692.3 2818,2678.4 2889.3,2607.1   " class="P1_3_7"/>
		<polygon id="Z_1_3_A11" points="3773.6,2515.9     3773.6,2502.4 3720.7,2502.4 3720.7,2494.9 3654.7,2494.9 3654.7,2577.6 3746.7,2577.6 3776.6,2577.6 3803.4,2577.6     3803.4,2515.9   " class="P1_3_6"/>
		<polygon id="Z_1_3_A8" points="2755,2472.8     2814.8,2532.6 2743.5,2603.9 2713.4,2573.7 2713.4,2563.6 2688.7,2539   " class="P1_3_6"/>
		
			<rect id="Z_1_3_A7" x="2766" y="2552.8" transform="matrix(-0.7071 0.7071 -0.7071 -0.7071 6650.2529 2456.3657)" width="100.8" height="105.3" class="P1_3_6"/>
		
			<rect id="Z_1_3_A5" x="3775" y="2007.3" width="91.5" height="60.5" class="P1_3_6"/>
		
			<rect id="Z_1_3_A2" x="3012.8" y="2305.7" transform="matrix(-0.7071 0.7071 -0.7071 -0.7071 6897.479 1859.9883)" width="101.5" height="105.5" class="P1_3_6"/>
	</g>
	<g id="Z_1_3_I">
		
			<use xlink:href="#escalier" width="132.7" height="132.6" id="sZ_1_3_I13" x="-66.4" y="-66.3" transform="matrix(0.3767 0 0 -0.3767 1896.11 2974.6377)" style="overflow:visible;"/>
		
			<use xlink:href="#WC" width="132.7" height="132.6" id="sZ_1_3_I12" x="-66.4" y="-66.3" transform="matrix(0.3767 0 0 -0.3767 2044.8273 2490.8184)" style="overflow:visible;"/>
		
			<use xlink:href="#escalier" width="132.7" height="132.6" id="sZ_1_3_I11" x="-66.4" y="-66.3" transform="matrix(0.3767 0 0 -0.3767 1982.8322 2342.0012)" style="overflow:visible;"/>
		
			<use xlink:href="#WC" width="132.7" height="132.6" id="sZ_1_3_I10" x="-66.4" y="-66.3" transform="matrix(0.3767 0 0 -0.3767 2044.1012 2916.0247)" style="overflow:visible;"/>
		
			<use xlink:href="#escalier" width="132.7" height="132.6" id="sZ_1_3_I9" x="-66.4" y="-66.3" transform="matrix(0.3767 0 0 -0.3767 2865.0586 2403.1367)" style="overflow:visible;"/>
		
			<use xlink:href="#WC" width="132.7" height="132.6" id="sZ_1_3_I8" x="-66.4" y="-66.3" transform="matrix(0.3767 0 0 -0.3767 2825.7593 2361.7935)" style="overflow:visible;"/>
		
			<use xlink:href="#WC" width="132.7" height="132.6" id="sZ_1_3_I7" x="-66.4" y="-66.3" transform="matrix(0.3767 0 0 -0.3767 2987.1367 2526.1272)" style="overflow:visible;"/>
		
			<use xlink:href="#cafe" width="132.7" height="132.6" id="sZ_1_3_A6" x="-66.4" y="-66.3" transform="matrix(0.3767 0 0 -0.3767 3044.2324 2583.5701)" style="overflow:visible;"/>
		
			<use xlink:href="#escalier" width="132.7" height="132.6" id="sZ_1_3_I5" x="-66.4" y="-66.3" transform="matrix(0.3767 0 0 -0.3767 3756.199 1892.6093)" style="overflow:visible;"/>
		
			<use xlink:href="#WC" width="132.7" height="132.6" id="sZ_1_3_I4" x="-66.4" y="-66.3" transform="matrix(0.3767 0 0 -0.3767 3688.0869 2040.4866)" style="overflow:visible;"/>
		
			<use xlink:href="#escalier" width="132.7" height="132.6" id="sZ_1_3_I3" x="-66.4" y="-66.3" transform="matrix(0.3767 0 0 -0.3767 3835.3965 2527.0178)" style="overflow:visible;"/>
		
			<use xlink:href="#WC" width="132.7" height="132.6" id="sZ_1_3_I2" x="-66.4" y="-66.3" transform="matrix(0.3767 0 0 -0.3767 3687.9009 2463.7778)" style="overflow:visible;"/>
		
			<use xlink:href="#ascenseur" width="132.7" height="132.6" id="sZ_1_3_I1" x="-66.4" y="-66.3" transform="matrix(0.3767 0 0 -0.3767 2947.7605 2489.5195)" style="overflow:visible;"/>
	</g>
	<g id="Z_1_3_R">
		
		
	</g>
</g>
<symbol id="WC" viewBox="-61 -61 122 122">
	<path style="fill:#009393;" d="M61,0c0-33.7-27.3-61-61-61S-61-33.7-61,0s27.3,61,61,61S61,33.7,61,0z"/>
	<path style="fill:#009393;" d="M0,61c-33.7,0-61-27.3-61-61s27.3-61,61-61c33.7,0,61,27.3,61,61S33.7,61,0,61z M0-52.1   c-28.8,0-52.1,23.3-52.1,52.1S-28.8,52.1,0,52.1c28.8,0,52.1-23.3,52.1-52.1S28.8-52.1,0-52.1z"/>
	<path style="fill:#009393;stroke:#FFFFFF;stroke-width:8;stroke-miterlimit:10;" d="M52.1,0c0-28.8-23.3-52.1-52.1-52.1   S-52.1-28.8-52.1,0S-28.8,52.1,0,52.1S52.1,28.8,52.1,0z"/>
	<g>
		<polygon style="fill:#FFFFFF;" points="4.8,32.5 4.8,-32.7 -1.3,-32.7 -1.3,32.5   "/>
		<path style="fill:#FFFFFF;" d="M1.7-0.1"/>
		<path style="fill:#FFFFFF;" d="M-20.7,22.3c3,0,5.4,2.4,5.4,5.4c0,3-2.4,5.4-5.4,5.4c-3,0-5.4-2.4-5.4-5.4    C-26,24.7-23.6,22.3-20.7,22.3L-20.7,22.3z"/>
		<path style="fill:#FFFFFF;" d="M-20.7,27.7"/>
		<path style="fill:#FFFFFF;" d="M-21.5-11.8v-18.8c0-3.4-5-3.4-5,0v18.8h-6.7l7.2,24.9h-1.2l-4.2-14.2c-1-3.1-5.3-1.8-4.3,1.5    l4.7,15.5c0.5,1.8,2.7,4.9,6.6,4.9h3.5l0,0h3.9c3.8,0,6.1-3.1,6.6-4.9l4.7-15.4C-4.7-2.9-9-4.2-10-1l-4.2,14.2h-1.2l7.2-24.9h-6.7    v-18.8c0-3.3-5-3.3-5,0v18.8L-21.5-11.8L-21.5-11.8z"/>
		<path style="fill:#FFFFFF;" d="M17.7,20.8c-3.8,0-6.8-3.1-6.8-7V-2.8c0-3.2,4.6-3.2,4.7,0v15.2h1.1v-42.1c0-4.3,6.2-4.2,6.2,0    v24.6h1.1v-24.6c0-4.2,6.2-4.3,6.2,0v42.1h1.1V-2.8c0-3.3,4.6-3.3,4.6,0v16.5c0,3.6-2.7,7.1-6.9,7.1L17.7,20.8L17.7,20.8z"/>
		<path style="fill:#FFFFFF;" d="M23.3,22.3c2.9,0,5.4,2.4,5.4,5.4c0,3-2.4,5.4-5.4,5.4c-3,0-5.4-2.4-5.4-5.4    C18,24.7,20.4,22.3,23.3,22.3L23.3,22.3z"/>
		<path style="fill:#FFFFFF;" d="M23.3,27.7"/>
	</g>
</symbol>
<symbol id="ascenseur" viewBox="-61 -61 122 122">
	<path style="fill:#009393;" d="M61,0c0-33.7-27.3-61-61-61S-61-33.7-61,0s27.3,61,61,61S61,33.7,61,0z"/>
	<path style="fill:#009393;" d="M0,61c-33.7,0-61-27.3-61-61s27.3-61,61-61c33.7,0,61,27.3,61,61S33.7,61,0,61z M0-52.1   c-28.8,0-52.1,23.3-52.1,52.1S-28.8,52.1,0,52.1c28.8,0,52.1-23.3,52.1-52.1S28.8-52.1,0-52.1z"/>
	<path style="fill:#009393;stroke:#FFFFFF;stroke-width:8;stroke-miterlimit:10;" d="M52.1,0c0-28.8-23.3-52.1-52.1-52.1   S-52.1-28.8-52.1,0S-28.8,52.1,0,52.1S52.1,28.8,52.1,0z"/>
	<g>
		<path style="fill:#FFFFFF;" d="M18.6,10.1H-18c-3.1,0-5.6-2.5-5.6-5.6v-33.6c0-3.1,2.5-5.6,5.6-5.6h36.6c3.1,0,5.6,2.5,5.6,5.6    V4.5C24.2,7.5,21.7,10.1,18.6,10.1z M19.7-29.2c0-0.6-0.5-1.1-1.1-1.1H-18c-0.6,0-1.1,0.5-1.1,1.1V4.5c0,0.6,0.5,1.1,1.1,1.1h36.6    c0.6,0,1.1-0.5,1.1-1.1V-29.2z"/>
		<path style="fill:#FFFFFF;" d="M-10.2,1.1c1.2,0,2.2-1,2.2-2.2s-1-2.2-2.2-2.2s-2.2,1-2.2,2.2S-11.4,1.1-10.2,1.1z"/>
		<path style="fill:#FFFFFF;" d="M0.3,1.1c1.2,0,2.2-1,2.2-2.2s-1-2.2-2.2-2.2s-2.2,1-2.2,2.2S-0.9,1.1,0.3,1.1z"/>
		<path style="fill:#FFFFFF;" d="M10.8,1.1c1.2,0,2.2-1,2.2-2.2s-1-2.2-2.2-2.2s-2.2,1-2.2,2.2S9.5,1.1,10.8,1.1z"/>
		<path style="fill:#FFFFFF;" d="M-7.2-4.1h-6c-0.8,0-1.5-0.7-1.5-1.6v-8c0-0.7,0.5-1.4,1.1-1.5V-25c0-0.8,0.7-1.5,1.5-1.5    s1.5,0.7,1.5,1.5v9.7h0.7V-25c0-0.8,0.7-1.5,1.5-1.5c0.8,0,1.5,0.7,1.5,1.5v9.8c0.6,0.2,1.1,0.8,1.1,1.5v8    C-5.7-4.9-6.3-4.1-7.2-4.1z"/>
		<path style="fill:#FFFFFF;" d="M3.3-4.1h-6c-0.8,0-1.5-0.7-1.5-1.6v-8c0-0.7,0.5-1.4,1.1-1.5V-25c0-0.8,0.7-1.5,1.5-1.5    s1.5,0.7,1.5,1.5v9.7h0.7V-25c0-0.8,0.7-1.5,1.5-1.5s1.5,0.7,1.5,1.5v9.8c0.6,0.2,1.1,0.8,1.1,1.5v8C4.8-4.9,4.1-4.1,3.3-4.1z"/>
		<path style="fill:#FFFFFF;" d="M13.7-4.1h-6c-0.8,0-1.5-0.7-1.5-1.6v-8c0-0.7,0.5-1.4,1.1-1.5V-25c0-0.8,0.7-1.5,1.5-1.5    s1.5,0.7,1.5,1.5v9.7h0.7V-25c0-0.8,0.7-1.5,1.5-1.5c0.8,0,1.5,0.7,1.5,1.5v9.8c0.6,0.2,1.1,0.8,1.1,1.5v8    C15.2-4.9,14.6-4.1,13.7-4.1z"/>
		<path style="fill:#FFFFFF;" d="M-2.1,28.6l-7.5,7.5c-1.2,1.2-3.1,1.2-4.2,0c0,0,0,0,0,0l-7.5-7.5c-1.2-1.2-1.2-3.1,0-4.2    c1.2-1.2,3.1-1.2,4.2,0l2.4,2.4V16c0-1.6,1.3-3,3-3c1.6,0,3,1.3,3,3v10.7l2.4-2.4c1.2-1.2,3.1-1.2,4.2,0S-0.9,27.4-2.1,28.6z"/>
		<path style="fill:#FFFFFF;" d="M21.8,25.6c-1.2,1.2-3.1,1.2-4.2,0l-2.4-2.4v10.7c0,1.6-1.3,3-3,3c-1.6,0-3-1.3-3-3V23.2l-2.4,2.4    c-1.2,1.2-3.1,1.2-4.2,0c-1.2-1.2-1.2-3.1,0-4.2l7.5-7.5l0,0c0.2-0.2,0.5-0.4,0.7-0.5c1.1-0.6,2.6-0.4,3.5,0.5l0,0l7.5,7.5    C23,22.5,23,24.4,21.8,25.6z"/>
	</g>
</symbol>
<symbol id="cafe" viewBox="-61 -61 122 122">
	<path style="fill:#009393;" d="M61,0c0-33.7-27.3-61-61-61S-61-33.7-61,0s27.3,61,61,61S61,33.7,61,0z"/>
	<path style="fill:#009393;" d="M0,61c-33.7,0-61-27.3-61-61s27.3-61,61-61S61-33.7,61,0S33.7,61,0,61z M0-52.1   c-28.8,0-52.1,23.3-52.1,52.1S-28.8,52.1,0,52.1c28.8,0,52.1-23.3,52.1-52.1S28.8-52.1,0-52.1z"/>
	<path style="fill:none;stroke:#FFFFFF;stroke-width:8;stroke-miterlimit:10;" d="M52.1,0c0-28.8-23.3-52.1-52.1-52.1   S-52.1-28.8-52.1,0S-28.8,52.1,0,52.1S52.1,28.8,52.1,0z"/>
	<g>
		<g>
			<g>
				<path style="fill:#FFFFFF;" d="M-7.8,11.2c-0.3,0-0.6,0.1-0.9,0.4c-0.5,0.5-0.5,1.3,0,1.8c1.6,1.5,1.8,3.6,0.5,5.4      c-2.1,3.3-2,6.4,0.4,8.8c0.5,0.5,1.3,0.5,1.8,0c0.5-0.5,0.5-1.3,0-1.8c-0.6-0.6-2.3-2.3-0.1-5.8c1.8-2.8,1.5-6.2-0.9-8.5      C-7.2,11.3-7.5,11.2-7.8,11.2L-7.8,11.2z"/>
			</g>
		</g>
		<g>
			<g>
				<path style="fill:#FFFFFF;" d="M-1.9,11.2c-0.3,0-0.6,0.1-0.9,0.4c-0.5,0.5-0.5,1.3,0,1.8c1.6,1.5,1.8,3.6,0.5,5.4      c-2.1,3.3-2,6.4,0.4,8.8c0.5,0.5,1.3,0.5,1.8,0c0.5-0.5,0.5-1.3,0-1.8c-0.6-0.6-2.3-2.3-0.1-5.8c1.8-2.8,1.5-6.2-0.9-8.5      C-1.3,11.3-1.6,11.2-1.9,11.2L-1.9,11.2z"/>
			</g>
		</g>
		<g>
			<g>
				<path style="fill:#FFFFFF;" d="M4,11.2c-0.3,0-0.6,0.1-0.9,0.4c-0.5,0.5-0.5,1.3,0,1.8c1.6,1.5,1.8,3.6,0.5,5.4      c-2.1,3.3-2,6.4,0.4,8.8c0.5,0.5,1.3,0.5,1.8,0s0.5-1.3,0-1.8c-0.6-0.6-2.3-2.3-0.1-5.8c1.8-2.8,1.5-6.2-0.9-8.5      C4.6,11.3,4.3,11.2,4,11.2L4,11.2z"/>
			</g>
		</g>
		<path style="fill:#FFFFFF;" d="M-26.6-23.1v-0.8c0-2.1,1.7-3.7,3.7-3.7h42.9c2.1,0,3.7,1.7,3.7,3.7v0.8H-26.6z"/>
		<path style="fill:#FFFFFF;" d="M24.8,6.6h-7.2c-0.1,0-0.1,0-0.2,0c-0.1,0-0.1,0-0.2,0h-38.6c-1.4,0-2.5-1.1-2.5-2.5v-7.8    c0-8.9,6-15.3,14.5-18.1H5.2C13-19.2,18.7-13.7,19.6-6h5.2c2.4,0,4.3,1.9,4.3,4.3v4C29.1,4.7,27.1,6.6,24.8,6.6z M25.8-1.6    c0-0.6-0.5-1.1-1.1-1.1h-5v6.1h5c0.6,0,1.1-0.5,1.1-1.1V-1.6z"/>
	</g>
</symbol>
<symbol id="escalier" viewBox="-61 -61 122 122">
	<path style="fill:#009393;" d="M61,0c0-33.7-27.3-61-61-61S-61-33.7-61,0s27.3,61,61,61S61,33.7,61,0z"/>
	<path style="fill:#009393;" d="M0,61c-33.7,0-61-27.3-61-61s27.3-61,61-61S61-33.7,61,0S33.7,61,0,61z M0-52.1   c-28.8,0-52.1,23.3-52.1,52.1S-28.8,52.1,0,52.1c28.8,0,52.1-23.3,52.1-52.1S28.8-52.1,0-52.1z"/>
	<path style="fill:#009393;stroke:#FFFFFF;stroke-width:8;stroke-miterlimit:10;" d="M52.1,0c0-28.8-23.3-52.1-52.1-52.1   S-52.1-28.8-52.1,0S-28.8,52.1,0,52.1S52.1,28.8,52.1,0z"/>
	<path style="fill:#FFFFFF;" d="M31.1,21.8c0-1.1-0.9-2-2-2h-9.4v-9.4c0-1.1-0.9-2-2-2H8.3l0-9.3C8.3-2,7.3-3,6.2-3h-9.3v-9.4   c0-1.1-0.9-2-2-2h-9.4v-9.4c0-1.1-0.9-2-2-2h-13.1c-1.1,0-2,0.9-2,2v1.7c0,1.1,0.9,2,2,2h9.4v9.4c0,1.1,0.9,2,2,2h9.4v9.4   c0,1.1,0.9,2,2,2h9.4v9.4c0,1.1,0.9,2,2,2H14v9.4c0,1.1,0.9,2,2,2h13.1c1.1,0,2-0.9,2-2V21.8z"/>
</symbol>
<defs id="defs_1_3">
<style type="text/css" id="polygons_css_1_3">.P1_3_0{fill:#6CAFBC;stroke:#888888;stroke-width:10;stroke-linecap:square;}
.P1_3_1{fill:#C0C0C0;stroke:#C0C0C0;stroke-width:5;stroke-linecap:square;}
.P1_3_2{fill:#C0C0C0;}
.P1_3_3{fill:#C0C0C0;stroke:#C0C0C0;stroke-width:5;}
.P1_3_4{fill:#C0C0C0;stroke:#C0C0C0;stroke-width:5;stroke-miterlimit:10;}
.P1_3_5{fill:#DAEBEE;stroke:#DAEBEE;stroke-width:5;stroke-linecap:square;}
.P1_3_6{fill:#E260E6;stroke:#D931DF;stroke-width:5;stroke-linecap:square;}
.P1_3_7{fill:#FFED47;stroke:#DFCE31;stroke-width:5;stroke-linecap:square;}
.P1_3_8{fill:#E53225;}
</style>
</defs>
</svg>
