<?xml version="1.0" encoding="utf-8"?>
<!-- Generator: Adobe Illustrator 20.0.0, SVG Export Plug-In . SVG Version: 6.00 Build 0)  -->
<svg xmlns:cc="http://creativecommons.org/ns#" xmlns:dc="http://purl.org/dc/elements/1.1/" xmlns:inkscape="http://www.inkscape.org/namespaces/inkscape" xmlns:rdf="http://www.w3.org/1999/02/22-rdf-syntax-ns#" xmlns:sodipodi="http://sodipodi.sourceforge.net/DTD/sodipodi-0.dtd" xmlns="http://www.w3.org/2000/svg" xmlns:svg="http://www.w3.org/2000/svg" xmlns:xlink="http://www.w3.org/1999/xlink" version="1.1" id="mapsvg_0_2_-2_0_1" x="0px" y="0px" viewBox="0 0 9600 6716" xml:space="preserve">





<g id="Z_2_-2">
	<g id="Z_2_-2_B">
		<path id="Z_2_-2_B100" d="M7162.9,3523.7h703.6     M7945.1,3523.7h80.7V2134.6h-566v-252.5l-692.4,0.6v645.5v122.1l178.6,0.4l125.1,125.5v747.5h12.7" class="P2_-2_0"/>
		<path id="Z_2_-2_B24" d="M7547.5,2139.8h-92.6v-251.5    h-683.8l-0.3,631.7h211V2507h103.9v-37.1h-76.9v-133.2H7249v16.1h15.5v45.7H7516h71.4v-61.9h255.4v-65.1h84.7v56.5h93.7v-56.5    v-131.8H7547.5z" class="P2_-2_1"/>
		
			<rect id="Z_2_-2_B23" x="7951.1" y="2937.3" width="70" height="56.3" class="P2_-2_1"/>
		
			<rect id="Z_2_-2_B22" x="7202.8" y="3287.1" width="128.5" height="56.2" class="P2_-2_1"/>
		
			<rect id="Z_2_-2_B21" x="7957.9" y="3467.2" width="63.6" height="51.6" class="P2_-2_1"/>
		
			<rect id="Z_2_-2_B20" x="7951.1" y="2993.6" width="70" height="420.5" class="P2_-2_2"/>
		
			<rect id="Z_2_-2_B19" x="7164.7" y="3443.1" width="701.3" height="75.6" class="P2_-2_2"/>
		
			<rect id="Z_2_-2_B18" x="7951.1" y="2333.1" width="70" height="604.3" class="P2_-2_2"/>
		
			<rect id="Z_2_-2_B17" x="7847.8" y="2271.6" width="79.7" height="56.5" class="P2_-2_2"/>
		<polygon id="Z_2_-2_B16" points="7331.3,2646 7267,2646 7267,2890.8     7195.2,2890.8 7196.8,3287.1 7331.3,3287.1 7331.3,3042.4 7331.3,3042.4   " class="P2_-2_2"/>
		
			<rect id="Z_2_-2_B15" x="7453.9" y="3277.2" width="382.2" height="75.2" class="P2_-2_2"/>
		
			<rect id="Z_2_-2_B14" x="7456.8" y="3068.2" width="376.5" height="73.4" class="P2_-2_2"/>
		
			<rect id="Z_2_-2_B13" x="7453.9" y="2641.9" width="129.2" height="324.6" class="P2_-2_2"/>
		
			<rect id="Z_2_-2_B12" x="7700.4" y="2641.9" width="129.2" height="324.6" class="P2_-2_2"/>
		
			<rect id="Z_2_-2_B10" x="7446.4" y="3208.9" width="392" height="4.4" class="P2_-2_1"/>
		
			<polygon id="Z_2_-2_B6" points="    7447.2,3270.1 7447.2,3352.4 7451.6,3352.4 7451.6,3274.6 7836.2,3274.6 7836.2,3352.4 7840.6,3352.4 7840.6,3270.1   " class="P2_-2_1"/>
		
			<polygon id="Z_2_-2_B5" points="    7836.2,3068.2 7836.2,3146.1 7451.6,3146.1 7451.6,3068.2 7447.2,3068.2 7447.2,3150.5 7840.6,3150.5 7840.6,3068.2   " class="P2_-2_1"/>
		<polygon id="Z_2_-2_B1" points="7587.4,2336.7 7587.4,2398.6     7516,2398.6 7516,2520 7844.2,2520 7844.2,2398.6 7844.2,2336.7   " class="P2_-2_2"/>
		<rect id="Z_2_-2_B26" x="6760.5" y="2522.6" width="16.5" height="123" class="P2_-2_3"/>
		<path id="Z_2_-2_B28" d="M7255.5,2650v2.8h3.8    c0,0-0.3,20,0.3,21c0.7,1-32,0-32,0v67.8h31.7v31.2h-59.2v-120h29.5v-2.8h-34.5v127.2l9.8,0v113.5h58.4V2650H7255.5z" class="P2_-2_1"/>
		<path id="Z_2_-2_B27" d="M7229.7,2652.9h-29.5v120h59.2v-31.2h-31.7v-67.8c0,0,32.7,1,32,0    c-0.7-1-0.3-21-0.3-21h-3.8v-5.2h-25.8V2652.9z" class="P2_-2_4"/>
	</g>
	<g id="Z_2_-2_A">
		<rect id="Z_2_-2_A1" x="7243.4" y="2570.5" width="8" height="8" class="P2_-2_3"/>
	</g>
	<g id="Z_2_-2_L">
	</g>
	<g id="Z_2_-2_I">
		
			<use xlink:href="#parking_voiture_handicape" width="132.7" height="132.6" id="sZ_2_-2_I12" x="-66.4" y="-66.3" transform="matrix(0.3767 0 0 -0.3767 7233.6191 2933.0383)" style="overflow:visible;"/>
		
			<use xlink:href="#parking_voiture_handicape" width="132.7" height="132.6" id="sZ_2_-2_I11" x="-66.4" y="-66.3" transform="matrix(0.3767 0 0 -0.3767 7488.1719 2672.3835)" style="overflow:visible;"/>
		
			<use xlink:href="#escalier" width="132.7" height="132.6" id="sZ_2_-2_I9" x="-66.4" y="-66.3" transform="matrix(0.3767 0 0 -0.3767 7266.5273 3315.1128)" style="overflow:visible;"/>
		
			<use xlink:href="#escalier" width="132.7" height="132.6" id="sZ_2_-2_I8" x="-66.4" y="-66.3" transform="matrix(0.3767 0 0 -0.3767 7991.2876 2966.9438)" style="overflow:visible;"/>
		
			<use xlink:href="#escalier" width="132.7" height="132.6" id="sZ_2_-2_I7" x="-66.4" y="-66.3" transform="matrix(0.3767 0 0 -0.3767 7234.0122 2831.8977)" style="overflow:visible;"/>
		
			<use xlink:href="#escalier" width="132.7" height="132.6" id="sZ_2_-2_I6" x="-66.4" y="-66.3" transform="matrix(0.3767 0 0 -0.3767 7304.2427 2374.2964)" style="overflow:visible;"/>
		
			<use xlink:href="#escalier" width="132.7" height="132.6" id="sZ_2_-2_I4" x="-66.4" y="-66.3" transform="matrix(0.3767 0 0 -0.3767 7742.9629 2303.0854)" style="overflow:visible;"/>
		
			<use xlink:href="#escalier" width="132.7" height="132.6" id="sZ_2_-2_I3" x="-66.4" y="-66.3" transform="matrix(0.3767 0 0 -0.3767 7994.0122 2297.6216)" style="overflow:visible;"/>
		
			<use xlink:href="#escalier" width="132.7" height="132.6" id="sZ_2_-2_I2" x="-66.4" y="-66.3" transform="matrix(0.3767 0 0 -0.3767 7992.5659 3492.5469)" style="overflow:visible;"/>
		
			<use xlink:href="#ascenseur" width="132.7" height="132.6" id="sZ_2_-2_I1" x="-66.4" y="-66.3" transform="matrix(0.3767 0 0 -0.3767 7259.8882 2707.4619)" style="overflow:visible;"/>
	</g>
	<g id="Z_2_-2_D">
		<g id="Z_2_-2_D11">
			<g>
				
					<line style="fill:none;stroke:#5E5656;stroke-width:3;stroke-linecap:square;" x1="6771.3" y1="2610.8" x2="6947.5" y2="2610.8"/>
				<g>
					<polygon style="fill:#5E5656;" points="6937.6,2623.1 6935.5,2620.9 6946.4,2610.8 6935.5,2600.7 6937.6,2598.5 6950.8,2610.8             "/>
				</g>
			</g>
		</g>
		<g id="Z_2_-2_D10">
			<g>
				<line style="fill:none;stroke:#5E5656;stroke-width:3;stroke-linecap:square;" x1="6945.3" y1="2566.3" x2="6769" y2="2566.3"/>
				<g>
					<polygon style="fill:#5E5656;" points="6779,2554 6781,2556.2 6770.2,2566.3 6781,2576.4 6779,2578.6 6765.8,2566.3      "/>
				</g>
			</g>
		</g>
		
			<rect id="Z_2_-2_D9" x="7260.3" y="2893.3" style="opacity:0.872;fill:#78D6D9;" width="4.3" height="396.5"/>
		
			<rect id="Z_2_-2_D8" x="7517.3" y="2640.6" style="opacity:0.872;fill:#78D6D9;" width="4.3" height="327.7"/>
		
			<rect id="Z_2_-2_D7" x="7762.6" y="2640.9" style="opacity:0.872;fill:#78D6D9;" width="4.3" height="327.7"/>
		<g id="Z_2_-2_D6">
			<g>
				<line style="fill:none;stroke:#5E5656;stroke-width:3;stroke-linecap:square;" x1="7608.8" y1="3243.5" x2="7433" y2="3243.5"/>
				<g>
					<polygon style="fill:#5E5656;" points="7598.8,3231.3 7596.8,3233.5 7607.6,3243.5 7596.8,3253.6 7598.8,3255.8 7612,3243.5             "/>
				</g>
			</g>
		</g>
		<g id="Z_2_-2_D5">
			<g>
				<line style="fill:none;stroke:#5E5656;stroke-width:3;stroke-linecap:square;" x1="7602" y1="3179.3" x2="7425.7" y2="3179.3"/>
				<g>
					<polygon style="fill:#5E5656;" points="7435.7,3167 7437.7,3169.2 7426.9,3179.3 7437.7,3189.4 7435.7,3191.6 7422.5,3179.3             "/>
				</g>
			</g>
		</g>
		<g id="Z_2_-2_D4">
			<g>
				<line style="fill:none;stroke:#5E5656;stroke-width:3;stroke-linecap:square;" x1="7855" y1="3243.5" x2="7679.2" y2="3243.5"/>
				<g>
					<polygon style="fill:#5E5656;" points="7845.1,3231.3 7843,3233.5 7853.9,3243.5 7843,3253.6 7845.1,3255.8 7858.3,3243.5             "/>
				</g>
			</g>
		</g>
		<g id="Z_2_-2_D3">
			<g>
				<line style="fill:none;stroke:#5E5656;stroke-width:3;stroke-linecap:square;" x1="7847.3" y1="3179.3" x2="7671" y2="3179.3"/>
				<g>
					<polygon style="fill:#5E5656;" points="7680.9,3167 7683,3169.2 7672.2,3179.3 7683,3189.4 7680.9,3191.6 7667.7,3179.3             "/>
				</g>
			</g>
		</g>
		
			<line id="Z_2_-2_D2" style="fill:none;stroke:#5E5656;stroke-width:3;stroke-linecap:square;" x1="7629.4" y1="3202" x2="7655.3" y2="3157.5"/>
		
			<line id="Z_2_-2_D1" style="fill:none;stroke:#5E5656;stroke-width:3;stroke-linecap:square;" x1="7629.4" y1="3265.3" x2="7655.3" y2="3220.9"/>
	</g>
	<g id="Z_2_-2_R">
		
		
	</g>
</g>
<symbol id="ascenseur" viewBox="-61 -61 122 122">
	<path style="fill:#009393;" d="M61,0c0-33.7-27.3-61-61-61S-61-33.7-61,0s27.3,61,61,61S61,33.7,61,0z"/>
	<path style="fill:#009393;" d="M0,61c-33.7,0-61-27.3-61-61s27.3-61,61-61c33.7,0,61,27.3,61,61S33.7,61,0,61z M0-52.1   c-28.8,0-52.1,23.3-52.1,52.1S-28.8,52.1,0,52.1c28.8,0,52.1-23.3,52.1-52.1S28.8-52.1,0-52.1z"/>
	<path style="fill:#009393;stroke:#FFFFFF;stroke-width:8;stroke-miterlimit:10;" d="M52.1,0c0-28.8-23.3-52.1-52.1-52.1   S-52.1-28.8-52.1,0S-28.8,52.1,0,52.1S52.1,28.8,52.1,0z"/>
	<g>
		<path style="fill:#FFFFFF;" d="M18.6,10.1H-18c-3.1,0-5.6-2.5-5.6-5.6v-33.6c0-3.1,2.5-5.6,5.6-5.6h36.6c3.1,0,5.6,2.5,5.6,5.6    V4.5C24.2,7.5,21.7,10.1,18.6,10.1z M19.7-29.2c0-0.6-0.5-1.1-1.1-1.1H-18c-0.6,0-1.1,0.5-1.1,1.1V4.5c0,0.6,0.5,1.1,1.1,1.1h36.6    c0.6,0,1.1-0.5,1.1-1.1V-29.2z"/>
		<path style="fill:#FFFFFF;" d="M-10.2,1.1c1.2,0,2.2-1,2.2-2.2s-1-2.2-2.2-2.2s-2.2,1-2.2,2.2S-11.4,1.1-10.2,1.1z"/>
		<path style="fill:#FFFFFF;" d="M0.3,1.1c1.2,0,2.2-1,2.2-2.2s-1-2.2-2.2-2.2s-2.2,1-2.2,2.2S-0.9,1.1,0.3,1.1z"/>
		<path style="fill:#FFFFFF;" d="M10.8,1.1c1.2,0,2.2-1,2.2-2.2s-1-2.2-2.2-2.2s-2.2,1-2.2,2.2S9.5,1.1,10.8,1.1z"/>
		<path style="fill:#FFFFFF;" d="M-7.2-4.1h-6c-0.8,0-1.5-0.7-1.5-1.6v-8c0-0.7,0.5-1.4,1.1-1.5V-25c0-0.8,0.7-1.5,1.5-1.5    s1.5,0.7,1.5,1.5v9.7h0.7V-25c0-0.8,0.7-1.5,1.5-1.5c0.8,0,1.5,0.7,1.5,1.5v9.8c0.6,0.2,1.1,0.8,1.1,1.5v8    C-5.7-4.9-6.3-4.1-7.2-4.1z"/>
		<path style="fill:#FFFFFF;" d="M3.3-4.1h-6c-0.8,0-1.5-0.7-1.5-1.6v-8c0-0.7,0.5-1.4,1.1-1.5V-25c0-0.8,0.7-1.5,1.5-1.5    s1.5,0.7,1.5,1.5v9.7h0.7V-25c0-0.8,0.7-1.5,1.5-1.5s1.5,0.7,1.5,1.5v9.8c0.6,0.2,1.1,0.8,1.1,1.5v8C4.8-4.9,4.1-4.1,3.3-4.1z"/>
		<path style="fill:#FFFFFF;" d="M13.7-4.1h-6c-0.8,0-1.5-0.7-1.5-1.6v-8c0-0.7,0.5-1.4,1.1-1.5V-25c0-0.8,0.7-1.5,1.5-1.5    s1.5,0.7,1.5,1.5v9.7h0.7V-25c0-0.8,0.7-1.5,1.5-1.5c0.8,0,1.5,0.7,1.5,1.5v9.8c0.6,0.2,1.1,0.8,1.1,1.5v8    C15.2-4.9,14.6-4.1,13.7-4.1z"/>
		<path style="fill:#FFFFFF;" d="M-2.1,28.6l-7.5,7.5c-1.2,1.2-3.1,1.2-4.2,0c0,0,0,0,0,0l-7.5-7.5c-1.2-1.2-1.2-3.1,0-4.2    c1.2-1.2,3.1-1.2,4.2,0l2.4,2.4V16c0-1.6,1.3-3,3-3c1.6,0,3,1.3,3,3v10.7l2.4-2.4c1.2-1.2,3.1-1.2,4.2,0S-0.9,27.4-2.1,28.6z"/>
		<path style="fill:#FFFFFF;" d="M21.8,25.6c-1.2,1.2-3.1,1.2-4.2,0l-2.4-2.4v10.7c0,1.6-1.3,3-3,3c-1.6,0-3-1.3-3-3V23.2l-2.4,2.4    c-1.2,1.2-3.1,1.2-4.2,0c-1.2-1.2-1.2-3.1,0-4.2l7.5-7.5l0,0c0.2-0.2,0.5-0.4,0.7-0.5c1.1-0.6,2.6-0.4,3.5,0.5l0,0l7.5,7.5    C23,22.5,23,24.4,21.8,25.6z"/>
	</g>
</symbol>
<symbol id="escalier" viewBox="-61 -61 122 122">
	<path style="fill:#009393;" d="M61,0c0-33.7-27.3-61-61-61S-61-33.7-61,0s27.3,61,61,61S61,33.7,61,0z"/>
	<path style="fill:#009393;" d="M0,61c-33.7,0-61-27.3-61-61s27.3-61,61-61S61-33.7,61,0S33.7,61,0,61z M0-52.1   c-28.8,0-52.1,23.3-52.1,52.1S-28.8,52.1,0,52.1c28.8,0,52.1-23.3,52.1-52.1S28.8-52.1,0-52.1z"/>
	<path style="fill:#009393;stroke:#FFFFFF;stroke-width:8;stroke-miterlimit:10;" d="M52.1,0c0-28.8-23.3-52.1-52.1-52.1   S-52.1-28.8-52.1,0S-28.8,52.1,0,52.1S52.1,28.8,52.1,0z"/>
	<path style="fill:#FFFFFF;" d="M31.1,21.8c0-1.1-0.9-2-2-2h-9.4v-9.4c0-1.1-0.9-2-2-2H8.3l0-9.3C8.3-2,7.3-3,6.2-3h-9.3v-9.4   c0-1.1-0.9-2-2-2h-9.4v-9.4c0-1.1-0.9-2-2-2h-13.1c-1.1,0-2,0.9-2,2v1.7c0,1.1,0.9,2,2,2h9.4v9.4c0,1.1,0.9,2,2,2h9.4v9.4   c0,1.1,0.9,2,2,2h9.4v9.4c0,1.1,0.9,2,2,2H14v9.4c0,1.1,0.9,2,2,2h13.1c1.1,0,2-0.9,2-2V21.8z"/>
</symbol>
<symbol id="parking_voiture_handicape" viewBox="-61 -61 122 122">
	<path style="fill:#009393;" d="M61,0c0-33.7-27.3-61-61-61S-61-33.7-61,0s27.3,61,61,61S61,33.7,61,0z"/>
	<path style="fill:#009393;" d="M0,61c-33.7,0-61-27.3-61-61s27.3-61,61-61S61-33.7,61,0S33.7,61,0,61z M0-52.1   c-28.8,0-52.1,23.3-52.1,52.1S-28.8,52.1,0,52.1c28.8,0,52.1-23.3,52.1-52.1S28.8-52.1,0-52.1z"/>
	<path style="fill:#009393;stroke:#FFFFFF;stroke-width:8;stroke-miterlimit:10;" d="M52.1,0c0-28.8-23.3-52.1-52.1-52.1   S-52.1-28.8-52.1,0S-28.8,52.1,0,52.1S52.1,28.8,52.1,0z"/>
	<g>
		<g>
			<path style="fill:#FFFFFF;" d="M-12.1,31h-12.5c-2.6,0-4-1.4-4-4v-40c0-2.5,1.4-4,3.8-4c2.4,0,3.8,1.5,3.8,4V0.4h9.3     c9.5,0,16.1,6.3,16.1,15.2C4.4,24.6-2.4,31-12.1,31z M-12.3,6.8l-8.6,0v17.8h8.6c5,0,8.7-3.7,8.7-8.9C-3.6,10.5-7.3,6.8-12.3,6.8     z"/>
		</g>
		<g>
			<path style="fill:#FFFFFF;" d="M14.3-7.8c0-1.1,0-2,0-3.1c0.5,0,0.8,0,1.2,0c2.8,0,5.6,0,8.4,0c1.2,0,2.1-0.5,2.7-1.5     c2.1-3.7,4.2-7.3,6.3-11c0.2-0.4,0.4-0.9,0.5-1.4c0.1-1-0.3-1.8-1.2-2.3c-0.8-0.4-1.9-0.2-2.6,0.5c-0.3,0.3-0.6,0.7-0.8,1     c-1.5,2.6-3.1,5.2-4.5,7.9c-0.3,0.6-0.7,0.8-1.3,0.8c-3.9,0-7.7,0-11.6,0c-3,0-4.4,1.3-4.7,4.3C6.4-8.9,6.2-5.1,6-1.4     C5.9,0.9,7.4,2.7,9.5,2.9c2.3,0.1,4-1.4,4.2-3.8C13.8-2,13.9-3,14-4.2c2.2,0,4.4,0,6.5,0c0.4,0,0.9,0,1.3-0.1     c1-0.2,1.6-1,1.5-1.8c-0.1-0.9-0.7-1.6-1.7-1.6c-1.6-0.1-3.1,0-4.7,0C16-7.8,15.1-7.8,14.3-7.8z"/>
			<path style="fill:#FFFFFF;" d="M23.8-21.5c0.7-1.2,1.3-2.2,1.8-3.2c0.1-0.2,0.1-0.6-0.1-0.9c-3-6.3-10.4-9.7-17.2-7.9     c-7,1.8-11.7,8.2-11.3,15.3c0.3,4.9,2.5,8.8,6.4,11.6c0.2,0.1,0.3,0.2,0.6,0.3c0.1-1.1,0.2-2.2,0.2-3.2c0-0.3-0.3-0.7-0.5-1     c-6.3-6.3-3.9-17,4.6-19.8c6.2-2.1,13.1,1.4,15.1,7.7C23.5-22.3,23.6-22,23.8-21.5z"/>
			<path style="fill:#FFFFFF;" d="M9.5,11.6c2.2,0,4-1.7,4-4c0-2.2-1.8-4-4-4c-2.1,0-4,1.8-4,3.9C5.5,9.8,7.3,11.6,9.5,11.6z"/>
		</g>
	</g>
</symbol>
<defs id="defs_2_-2">
<style type="text/css" id="polygons_css_2_-2">.P2_-2_0{fill:#FFFFFF;stroke:#888888;stroke-width:10;stroke-linecap:square;}
.P2_-2_1{fill:#C0C0C0;stroke:#C0C0C0;stroke-width:5;stroke-linecap:square;}
.P2_-2_2{fill:#CAEFF0;stroke:#CAEFF0;stroke-width:5.0591;}
.P2_-2_3{fill:#FFFFFF;}
.P2_-2_4{fill:#95B5B7;}
.P2_-2_5{fill:#FF0000;}
</style>
</defs>
</svg>
