<?xml version="1.0" encoding="utf-8"?>
<!-- Generator: Adobe Illustrator 18.0.0, SVG Export Plug-In . SVG Version: 6.00 Build 0)  -->
<!DOCTYPE svg PUBLIC "-//W3C//DTD SVG 1.1//EN" "http://www.w3.org/Graphics/SVG/1.1/DTD/svg11.dtd">
<svg xmlns="http://www.w3.org/2000/svg" xmlns:svg="http://www.w3.org/2000/svg" xmlns:dc="http://purl.org/dc/elements/1.1/" xmlns:inkscape="http://www.inkscape.org/namespaces/inkscape" xmlns:rdf="http://www.w3.org/1999/02/22-rdf-syntax-ns#" xmlns:cc="http://creativecommons.org/ns#" xmlns:sodipodi="http://sodipodi.sourceforge.net/DTD/sodipodi-0.dtd" xmlns:xlink="http://www.w3.org/1999/xlink" version="1.1" id="mapsvg_0_4_0_0_1" x="0px" y="0px" viewBox="0 0 9600 6716" xml:space="preserve">













<g id="Z_4_0">
	<g id="Z_4_0_B">
		<polygon id="Z_4_0_B21" points="2473,3534.1     2776.2,3534.1 2776.2,3880.8 2952.1,4056.7 3043.2,3965.6 3054.7,3977.3 3302.1,3728.4 3495.5,3921.2 3243.2,4171 3348.2,4275.4     3189.3,4435.7 3092.5,4344.4 2982.8,4452.1 3077.7,4546.6 3015.6,4608.4 2922.9,4515.7 2713.8,4724.9 2650.7,4659.4     2590.2,4719.9 2502.3,4632.1 2562.9,4571.5 2498.8,4510 2708,4300.8 2614.8,4207.6 2526.8,4295.6 2473,4241.8   " class="P4_0_0"/>
		<polygon id="Z_4_0_B48" points="2725.5,4282.7     2792.4,4215 2856.7,4279.4 2789.7,4347   " class="P4_0_1"/>
		<polyline id="Z_4_0_B47" points="4149.3,4758.5     4232.5,4758.5 4232.5,4752.9 4293.6,4752.9 4293.6,4633 4232,4633 4232.5,4270 4153.7,4270 4153.7,4164.4 3669,4164.4 3669,4273     3349.3,4273.6 3189.3,4435.7 3092.5,4344.4 2982.8,4452.1 3075.3,4543.2 3015.9,4609.8 2924.1,4701.5 2974.5,4750.3     2966.4,4758.5 3189.6,4758.5   " class="P4_0_2"/>
		
			<rect id="Z_4_0_B46" x="2470.2" y="3462.4" width="119.9" height="64.8" class="P4_0_1"/>
		
			<line id="Z_4_0_B45" style="fill:#FFFFFF;stroke:#888888;stroke-width:10;stroke-linecap:square;" x1="3263.3" y1="4758.5" x2="4067.9" y2="4758.5"/>
		
			<rect id="Z_4_0_B44" x="3399.1" y="4428.3" width="247.3" height="158.2" class="P4_0_3"/>
		
			<rect id="Z_4_0_B43" x="3321.2" y="4660.4" width="325.2" height="91.5" class="P4_0_3"/>
		
			<rect id="Z_4_0_B42" x="3156.7" y="4627.9" width="31.4" height="122.9" class="P4_0_3"/>
		
			<rect id="Z_4_0_B41" x="3117.4" y="4627.9" width="31.4" height="122.9" class="P4_0_3"/>
		
			<rect id="Z_4_0_B40" x="3056.3" y="4689.4" width="31.4" height="61.4" class="P4_0_3"/>
		
			<rect id="Z_4_0_B39" x="3024.9" y="4689.4" width="31.4" height="61.4" class="P4_0_3"/>
		
			<rect id="Z_4_0_B38" x="2965.6" y="4639.9" transform="matrix(-0.7071 0.7071 -0.7071 -0.7071 8415.1338 5822.9893)" width="72.1" height="28.8" class="P4_0_3"/>
		
			<rect id="Z_4_0_B37" x="3654.9" y="4660.4" width="413.8" height="91.5" class="P4_0_3"/>
		
			<rect id="Z_4_0_B36" x="4147.3" y="4275.1" width="80.5" height="369.1" class="P4_0_3"/>
		
			<rect id="Z_4_0_B35" x="4147.3" y="4663.8" width="80.2" height="88.2" class="P4_0_3"/>
		
			<rect id="Z_4_0_B34" x="3402.4" y="4278.1" width="657.9" height="78.4" class="P4_0_4"/>
		
			<rect id="Z_4_0_B33" x="3654" y="4428.3" width="405.3" height="158.2" class="P4_0_3"/>
		<polygon id="Z_4_0_B31" points="2962.9,4672.6     2977.6,4687.2 2949,4716.4 2934.1,4701.5   " class="P4_0_1"/>
		
			<rect id="Z_4_0_B30" x="3646.4" y="4660.4" width="8.5" height="91.5" class="P4_0_1"/>
		
			<rect id="Z_4_0_B29" x="3646.4" y="4428.3" width="8.5" height="158.2" class="P4_0_1"/>
		
			<rect id="Z_4_0_B28" x="3567.7" y="4504.6" width="78.8" height="3.8" class="P4_0_1"/>
		
			<rect id="Z_4_0_B27" x="3654.9" y="4504.6" width="78.2" height="3.8" class="P4_0_1"/>
		
			<rect id="Z_4_0_B26" x="3986.3" y="4504.6" width="78.2" height="3.8" class="P4_0_1"/>
		
			<rect id="Z_4_0_B25" x="4060.2" y="4428.3" width="8.5" height="158.2" class="P4_0_1"/>
		<polygon id="Z_4_0_B24" points="3343.8,4319.5     3380.6,4355.5 3282.8,4455.9 3246,4418.9   " class="P4_0_1"/>
		
			<path id="Z_4_0_B23" d="    M3399.1,4506.5h171.7" class="P4_0_5"/>
		
			<path id="Z_4_0_B22" d="    M3733.2,4506.5h253.1" class="P4_0_5"/>
		
			<rect id="Z_4_0_B20" x="3673.7" y="4265.5" width="386.5" height="8.1" class="P4_0_1"/>
		<polygon id="Z_4_0_B19" points="3070.8,4354.1     2976.8,4447.1 2918.5,4390.8 3012.5,4296.8   " class="P4_0_1"/>
		
			<rect id="Z_4_0_B17" x="2728.4" y="4534.7" transform="matrix(0.7071 -0.7071 0.7071 0.7071 -2437.092 3296.1877)" width="63.7" height="110.4" class="P4_0_1"/>
		<polygon id="Z_4_0_B16" points="3048,4526.4     2996.5,4578.1 2926.2,4507.7 2976.6,4456   " class="P4_0_1"/>
		
			<rect id="Z_4_0_B14" x="2809.9" y="4166.5" transform="matrix(0.7071 -0.7071 0.7071 0.7071 -2141.0667 3255.4717)" width="98.5" height="91.5" class="P4_0_1"/>
		<polygon id="Z_4_0_B12" points="2730.4,4013     2580.7,4162.8 2693.3,4275.4 2843.3,4125.8   " class="P4_0_1"/>
		
			<rect id="Z_4_0_B11" x="2909.4" y="4074.7" transform="matrix(-0.7071 0.7071 -0.7071 -0.7071 7967.3066 4965.3564)" width="91.7" height="116.2" class="P4_0_1"/>
		
			<rect id="Z_4_0_B10" x="2586.3" y="3779" width="75.7" height="124.7" class="P4_0_1"/>
		<polygon id="Z_4_0_B9" points="3082.5,4191.4     3230.1,4337.9 3164.3,4403.7 3016,4257.9   " class="P4_0_1"/>
		<polygon id="Z_4_0_B8" points="3278.7,3995.9     3217,4057.1 3165.6,4005.7 3226.9,3944.6   " class="P4_0_1"/>
		
			<rect id="Z_4_0_B7" x="2755" y="4360.4" transform="matrix(-0.7071 -0.7071 0.7071 -0.7071 1632.8555 9538.498)" width="73.8" height="141.3" class="P4_0_1"/>
		
			<rect id="Z_4_0_B6" x="2909.2" y="4238.2" transform="matrix(-0.7071 0.7071 -0.7071 -0.7071 8050.6045 5215.479)" width="71.9" height="73.8" class="P4_0_1"/>
		
			<rect id="Z_4_0_B5" x="3360.5" y="4280" transform="matrix(0.7071 -0.7071 0.7071 0.7071 -2058.2317 3638.5176)" width="5" height="47.5" class="P4_0_6"/>
		
			<rect id="Z_4_0_B4" x="3399.1" y="4275.1" width="3.2" height="61.1" class="P4_0_1"/>
		<polygon id="Z_4_0_B50" points="3303.5,4553     3318,4567.5 3318,4751.9 3321.2,4751.9 3321.2,4567.1 3321.2,4567.1 3305.4,4551.1   " class="P4_0_1"/>
		
			<rect id="Z_4_0_B51" x="3173.4" y="4489.7" transform="matrix(0.7074 0.7068 -0.7068 0.7074 4123.3257 -978.3808)" width="140" height="2.6" class="P4_0_1"/>
		
			<rect id="Z_4_0_B2" x="3216.8" y="4410.2" transform="matrix(0.7071 -0.7071 0.7071 0.7071 -2195.2146 3593.7119)" width="47.1" height="73" class="P4_0_3"/>
		
			<rect id="Z_4_0_B1" x="4232.5" y="4637.8" width="56" height="110.3" class="P4_0_1"/>
		<polygon id="Z_4_0_B32" points="3058.2,4523     3115.4,4579.6 3050.5,4644.4 2993.3,4587.9   " class="P4_0_7"/>
	</g>
	<g id="Z_4_0_A">
		
			<rect id="Z_4_0_A24" x="3111.4" y="4086.2" width="23" height="23" class="P4_0_8"/>
		<polygon id="Z_4_0_A22" points="2585.7,3539.2     2585.7,3583.3 2686.1,3583.3 2686.1,3696.6 2771.3,3696.6 2771.3,3539.2   " class="P4_0_9"/>
		
			<rect id="Z_4_0_A21" x="2585.7" y="3700.5" width="76.2" height="78.6" class="P4_0_9"/>
		
			<rect id="Z_4_0_A20" x="2478.5" y="3737.6" width="82.2" height="270" class="P4_0_9"/>
		<polygon id="Z_4_0_A19" points="2594.9,4019.9     2583.2,4008.3 2583.2,3941.8 2657.7,3941.8 2665.3,3949.4   " class="P4_0_9"/>
		<path id="Z_4_0_A18" d="M3253.1,3839.1" class="P4_0_0"/>
		<polygon id="Z_4_0_A17" points="2729.5,4013.6     2659.3,4084.4 2594.9,4019.9 2665.3,3949.4   " class="P4_0_10"/>
		<polygon id="Z_4_0_A16" points="2560.7,3696.6     2478.5,3696.5 2478.5,3539.2 2560.7,3539.2   " class="P4_0_9"/>
		<polygon id="Z_4_0_A15" points="2560.7,4007.6     2560.7,4016.3 2614.9,4070.5 2546.8,4139.6 2579.5,4172.3 2496.9,4254.9 2478.5,4236.4 2478.5,4007.6   " class="P4_0_9"/>
		
			<rect id="Z_4_0_A14" x="2585.7" y="3610.1" width="37.8" height="44.2" class="P4_0_10"/>
		
			<rect id="Z_4_0_A13" x="2623.6" y="3610.1" width="37.8" height="44.2" class="P4_0_10"/>
		<polygon id="Z_4_0_A12" points="2771.3,3883.9     2771.3,3737.6 2686.1,3737.6 2686.1,3883.9 2686.1,3928.4 2881.8,4124.1 2946.7,4059.2   " class="P4_0_9"/>
		
			<rect id="Z_4_0_A11" x="2585.7" y="3654.2" width="75.7" height="46.2" class="P4_0_10"/>
		<polygon id="Z_4_0_A10" points="2560.7,3737.6     2478.5,3737.6 2478.5,3696.5 2560.7,3696.6   " class="P4_0_11"/>
		
			<rect id="Z_4_0_A9" x="2654.4" y="4491" transform="matrix(0.7071 0.7071 -0.7071 0.7071 3992.6648 -575.7148)" width="73.8" height="81.5" class="P4_0_1"/>
		<polygon id="Z_4_0_A8" points="2815.8,4355     2859.4,4311.4 2885.2,4337.2 2841.5,4380.7   " class="P4_0_10"/>
		<polygon id="Z_4_0_A6" points="2911.6,4363.6     2867.9,4407.2 2841.5,4380.7 2885.2,4337.2   " class="P4_0_10"/>
		
			<rect id="Z_4_0_A4" x="2686.1" y="3696.6" width="85.2" height="41" class="P4_0_11"/>
		
			<rect id="Z_4_0_A3" x="3268" y="3893" transform="matrix(-0.7071 0.7071 -0.7071 -0.7071 8402.7246 4380.2871)" width="52.4" height="74.8" class="P4_0_9"/>
		<polygon id="Z_4_0_A2" points="3302.3,3735.3     3242.2,3795.5 3242.2,3795.5 3100.9,3936.7 3148,3983.9 3284.5,3847.4 3375.9,3938.8 3238.5,4076.2 3284.9,4122.7 3487.3,3920.3       " class="P4_0_9"/>
		
			<rect id="Z_4_0_A1" x="2628.4" y="4543.1" transform="matrix(-0.7071 0.7071 -0.7071 -0.7071 7749.1333 5954.2749)" width="25.9" height="77.9" class="P4_0_1"/>
		<polygon id="Z_4_0_A25" points="2923,4508.9 2824.9,4607.2 2764,4544.9 2860.8,4448   " class="P4_0_12"/>
	</g>
	<g id="Z_4_0_L">
		<text transform="matrix(1 0 0 1 3624 4408.8896)" style="fill:#029498; font-family:'Arial';font-weight:bold; font-size:50;">PARKING</text>
	</g>
	<g id="Z_4_0_I">
		
			<use xlink:href="#restaurant" width="50" height="50" id="sZ_4_0_A25" x="-25" y="-25" transform="matrix(1 0 0 -1 2845.3438 4527.6162)" style="overflow:visible;"/>
		
			<use xlink:href="#parking_velo_electrique" width="50" height="50" id="sZ_4_0_I50" x="-25" y="-25" transform="matrix(1 0 0 -1 3152.9998 4711.8896)" style="overflow:visible;"/>
		
			<use xlink:href="#defibrillateur" width="50" height="50" id="sZ_4_0_I49" x="-25" y="-25" transform="matrix(1 0 0 -1 2716.063 4685.335)" style="overflow:visible;"/>
		
			<use xlink:href="#entree" width="50" height="50" id="sZ_4_0_I48" x="-25" y="-25" transform="matrix(1 0 0 -1 3176.8123 4419.4756)" style="overflow:visible;"/>
		
			<use xlink:href="#parking_voiture" width="50" height="50" id="sZ_4_0_I47" x="-25" y="-25" transform="matrix(1 0 0 -1 3333.6187 4293.7251)" style="overflow:visible;"/>
		
			<use xlink:href="#entree" width="50" height="50" id="sZ_4_0_I46" x="-25" y="-25" transform="matrix(1 0 0 -1 2545.0002 4673.8896)" style="overflow:visible;"/>
		
			<use xlink:href="#entree" width="50" height="50" id="sZ_4_0_I45" x="-25" y="-25" transform="matrix(1 0 0 -1 3262.9995 4150.8896)" style="overflow:visible;"/>
		
			<use xlink:href="#entree" width="50" height="50" id="sZ_4_0_I44" x="-25" y="-25" transform="matrix(1 0 0 -1 3072.9995 3959.8894)" style="overflow:visible;"/>
		
			<use xlink:href="#entree" width="50" height="50" id="sZ_4_0_I43" x="-25" y="-25" transform="matrix(1 0 0 -1 3004 4599.8896)" style="overflow:visible;"/>
		
			<use xlink:href="#ascenseur" width="50" height="50" id="sZ_4_0_I42" x="-25" y="-25" transform="matrix(1 0 0 -1 3341.635 4363.4287)" style="overflow:visible;"/>
		
			<use xlink:href="#escalier" width="50" height="50" id="sZ_4_0_I36" x="-25" y="-25" transform="matrix(1 0 0 -1 2529.0464 3494.5806)" style="overflow:visible;"/>
		
			<use xlink:href="#escalier" width="50" height="50" id="sZ_4_0_I32" x="-25" y="-25" transform="matrix(1 0 0 -1 2626.8206 4155.9922)" style="overflow:visible;"/>
		
			<use xlink:href="#escalier" width="50" height="50" id="sZ_4_0_I31" x="-25" y="-25" transform="matrix(1 0 0 -1 2874.7852 4225.8218)" style="overflow:visible;"/>
		
			<use xlink:href="#escalier" width="50" height="50" id="sZ_4_0_I30" x="-25" y="-25" transform="matrix(1 0 0 -1 2998.0232 4349.0596)" style="overflow:visible;"/>
		
			<use xlink:href="#escalier" width="50" height="50" id="sZ_4_0_I29" x="-25" y="-25" transform="matrix(1 0 0 -1 3290.979 4415.2231)" style="overflow:visible;"/>
		
			<use xlink:href="#ascenseur" width="50" height="50" id="sZ_4_0_I28" x="-25" y="-25" transform="matrix(1 0 0 -1 2978.7395 4155.9922)" style="overflow:visible;"/>
		
			<use xlink:href="#ascenseur" width="50" height="50" id="sZ_4_0_I27" x="-25" y="-25" transform="matrix(1 0 0 -1 3063.5466 4240.7993)" style="overflow:visible;"/>
		
			<use xlink:href="#WC" width="50" height="50" id="sZ_4_0_I26" x="-25" y="-25" transform="matrix(1 0 0 -1 3168.719 4345.269)" style="overflow:visible;"/>
		
			<use xlink:href="#WC" width="50" height="50" id="sZ_4_0_I25" x="-25" y="-25" transform="matrix(1 0 0 -1 3222.1272 4000.845)" style="overflow:visible;"/>
		
			<use xlink:href="#WC" width="50" height="50" id="sZ_4_0_I24" x="-25" y="-25" transform="matrix(1 0 0 -1 2791.9385 4431.0337)" style="overflow:visible;"/>
		
			<use xlink:href="#WC" width="50" height="50" id="sZ_4_0_I23" x="-25" y="-25" transform="matrix(1 0 0 -1 2792.5049 4281.022)" style="overflow:visible;"/>
		
			<use xlink:href="#WC" width="50" height="50" id="sZ_4_0_I22" x="-25" y="-25" transform="matrix(1 0 0 -1 2622.52 3844.1838)" style="overflow:visible;"/>
		
			<use xlink:href="#WC" width="50" height="50" id="sZ_4_0_I21" x="-25" y="-25" transform="matrix(1 0 0 -1 2693.7874 4529.1846)" style="overflow:visible;"/>
		
			<use xlink:href="#parking_velo" width="50" height="50" id="sZ_4_0_I19" x="-25" y="-25" transform="matrix(1 0 0 -1 3155.3982 4660.1636)" style="overflow:visible;"/>
		
			<use xlink:href="#escalier" width="50" height="50" id="sZ_4_0_I17" x="-25" y="-25" transform="matrix(1 0 0 -1 3066.0068 4591.6201)" style="overflow:visible;"/>
		
			<use xlink:href="#parking_voiture_handicape" width="50" height="50" id="sZ_4_0_I16" x="-25" y="-25" transform="matrix(1 0 0 -1 3235.6663 4445.9199)" style="overflow:visible;"/>
		
			<use xlink:href="#parking_voiture_electrique" width="50" height="50" id="sZ_4_0_I15" x="-25" y="-25" transform="matrix(1 0 0 -1 3609.7883 4466.5498)" style="overflow:visible;"/>
		
			<use xlink:href="#parking_voiture_electrique" width="50" height="50" id="sZ_4_0_I14" x="-25" y="-25" transform="matrix(1 0 0 -1 3694.0571 4466.5498)" style="overflow:visible;"/>
		
			<use xlink:href="#parking_voiture_electrique" width="50" height="50" id="sZ_4_0_I13" x="-25" y="-25" transform="matrix(1 0 0 -1 3609.7883 4548.4512)" style="overflow:visible;"/>
		
			<use xlink:href="#parking_voiture_electrique" width="50" height="50" id="sZ_4_0_I12" x="-25" y="-25" transform="matrix(1 0 0 -1 3694.0571 4548.4512)" style="overflow:visible;"/>
		
			<use xlink:href="#parking_voiture_electrique" width="50" height="50" id="sZ_4_0_I11" x="-25" y="-25" transform="matrix(1 0 0 -1 4025.3684 4466.5498)" style="overflow:visible;"/>
		
			<use xlink:href="#parking_voiture_electrique" width="50" height="50" id="sZ_4_0_I10" x="-25" y="-25" transform="matrix(1 0 0 -1 4025.3684 4548.4512)" style="overflow:visible;"/>
		
			<use xlink:href="#escalier" width="50" height="50" id="sZ_4_0_I1" x="-25" y="-25" transform="matrix(1 0 0 -1 4263.5405 4706.2266)" style="overflow:visible;"/>
	</g>
	<g id="Z_4_0_D">
		<g id="Z_4_0_D6">
			<g>
				<polyline style="fill:none;stroke:#5E5656;stroke-width:3;stroke-linecap:square;" points="4123.4,4743.2 4123.4,4826.3       3949,4826.3     "/>
				<g>
					<polygon style="fill:#5E5656;" points="4111.1,4753.2 4113.3,4755.2 4123.4,4744.4 4133.5,4755.2 4135.7,4753.2 4123.4,4740             "/>
				</g>
			</g>
		</g>
		<g id="Z_4_0_D5">
			<g>
				
					<line style="fill:none;stroke:#5E5656;stroke-width:3;stroke-linecap:square;" x1="4129.3" y1="4797.8" x2="4273.9" y2="4797.8"/>
				<g>
					<polygon style="fill:#5E5656;" points="4264,4810.1 4262,4807.9 4272.8,4797.8 4262,4787.8 4264,4785.6 4277.2,4797.8      "/>
				</g>
			</g>
		</g>
		<polyline id="Z_4_0_D4" style="fill:none;stroke:#5E5656;stroke-width:3;stroke-linecap:square;" points="4090.3,4743     4090.5,4797.8 4117.7,4797.8   "/>
		
			<line id="Z_4_0_D3" style="fill:none;stroke:#5E5656;stroke-width:3;stroke-linecap:square;" x1="3902.9" y1="4259.7" x2="3954.3" y2="4171.7"/>
		<g id="Z_4_0_D2">
			<g>
				<polyline style="fill:none;stroke:#5E5656;stroke-width:3;stroke-linecap:square;" points="4126.3,4391 4126.3,4191.3       4067.2,4191.3     "/>
				<g>
					<polygon style="fill:#5E5656;" points="4077.2,4179 4079.2,4181.2 4068.4,4191.3 4079.2,4201.4 4077.2,4203.6 4064,4191.3             "/>
				</g>
			</g>
		</g>
		<g id="Z_4_0_D1">
			<g>
				<polyline style="fill:none;stroke:#5E5656;stroke-width:3;stroke-linecap:square;" points="4064.7,4243.3 4085.2,4243.3       4085.2,4387.7     "/>
				<g>
					<polygon style="fill:#5E5656;" points="4072.9,4377.8 4075.1,4375.8 4085.2,4386.6 4095.3,4375.8 4097.5,4377.8 4085.2,4391             "/>
				</g>
			</g>
		</g>
	</g>
	<g id="Z_4_0_R">
		
		
		
	</g>
</g>
<defs id="defs_4_0">
<style type="text/css" id="css-common_4_0">image,text,tspan,use {pointer-events:none;}</style>
<style type="text/css" id="polygons_css_4_0">.P4_0_0{fill:#6CAFBC;stroke:#888888;stroke-width:10;stroke-linecap:square;}
.P4_0_1{fill:#C0C0C0;stroke:#C0C0C0;stroke-width:5;stroke-linecap:square;}
.P4_0_2{fill:#FFFFFF;stroke:#888888;stroke-width:10;stroke-linecap:square;}
.P4_0_3{fill:#CAEFF0;stroke:#CAEFF0;stroke-width:5;}
.P4_0_4{fill:#CAEFF0;stroke:#CAEFF0;stroke-width:4.907;}
.P4_0_5{fill:none;stroke:#78D6D9;stroke-width:5;}
.P4_0_6{fill:#C0C0C0;stroke:#C0C0C0;stroke-width:2.1836;stroke-linecap:square;}
.P4_0_7{fill:#C0C0C0;stroke:#888888;stroke-width:5;stroke-linecap:square;}
.P4_0_8{fill:#6CAFBC;stroke:#6CAFBC;stroke-width:10;stroke-linecap:square;}
.P4_0_9{fill:#DAEBEE;stroke:#DAEBEE;stroke-width:5;stroke-linecap:square;}
.P4_0_10{fill:#E260E6;stroke:#D931DF;stroke-width:5;stroke-linecap:square;}
.P4_0_11{fill:#B6D7DD;stroke:#B8C5C7;stroke-width:5;stroke-linecap:square;}
.P4_0_12{fill:#FFFFFF;}
.P4_0_13{fill:#E53225;}
</style>
</defs>
<symbol id="WC" viewBox="-61 -61 122 122">
	<path style="fill:#009393;" d="M61,0c0-33.7-27.3-61-61-61S-61-33.7-61,0s27.3,61,61,61S61,33.7,61,0z"/>
	<path style="fill:#009393;" d="M0,61c-33.7,0-61-27.3-61-61s27.3-61,61-61c33.7,0,61,27.3,61,61S33.7,61,0,61z M0-52.1   c-28.8,0-52.1,23.3-52.1,52.1S-28.8,52.1,0,52.1c28.8,0,52.1-23.3,52.1-52.1S28.8-52.1,0-52.1z"/>
	<path style="fill:#009393;stroke:#FFFFFF;stroke-width:8;stroke-miterlimit:10;" d="M52.1,0c0-28.8-23.3-52.1-52.1-52.1   S-52.1-28.8-52.1,0S-28.8,52.1,0,52.1S52.1,28.8,52.1,0z"/>
	<g>
		<polygon style="fill:#FFFFFF;" points="4.8,32.5 4.8,-32.7 -1.3,-32.7 -1.3,32.5   "/>
		<path style="fill:#FFFFFF;" d="M1.7-0.1"/>
		<path style="fill:#FFFFFF;" d="M-20.7,22.3c3,0,5.4,2.4,5.4,5.4c0,3-2.4,5.4-5.4,5.4c-3,0-5.4-2.4-5.4-5.4    C-26,24.7-23.6,22.3-20.7,22.3L-20.7,22.3z"/>
		<path style="fill:#FFFFFF;" d="M-20.7,27.7"/>
		<path style="fill:#FFFFFF;" d="M-21.5-11.8v-18.8c0-3.4-5-3.4-5,0v18.8h-6.7l7.2,24.9h-1.2l-4.2-14.2c-1-3.1-5.3-1.8-4.3,1.5    l4.7,15.5c0.5,1.8,2.7,4.9,6.6,4.9h3.5l0,0h3.9c3.8,0,6.1-3.1,6.6-4.9l4.7-15.4C-4.7-2.9-9-4.2-10-1l-4.2,14.2h-1.2l7.2-24.9h-6.7    v-18.8c0-3.3-5-3.3-5,0v18.8L-21.5-11.8L-21.5-11.8z"/>
		<path style="fill:#FFFFFF;" d="M17.7,20.8c-3.8,0-6.8-3.1-6.8-7V-2.8c0-3.2,4.6-3.2,4.7,0v15.2h1.1v-42.1c0-4.3,6.2-4.2,6.2,0    v24.6h1.1v-24.6c0-4.2,6.2-4.3,6.2,0v42.1h1.1V-2.8c0-3.3,4.6-3.3,4.6,0v16.5c0,3.6-2.7,7.1-6.9,7.1L17.7,20.8L17.7,20.8z"/>
		<path style="fill:#FFFFFF;" d="M23.3,22.3c2.9,0,5.4,2.4,5.4,5.4c0,3-2.4,5.4-5.4,5.4c-3,0-5.4-2.4-5.4-5.4    C18,24.7,20.4,22.3,23.3,22.3L23.3,22.3z"/>
		<path style="fill:#FFFFFF;" d="M23.3,27.7"/>
	</g>
</symbol>
<symbol id="ascenseur" viewBox="-61 -61 122 122">
	<path style="fill:#009393;" d="M61,0c0-33.7-27.3-61-61-61S-61-33.7-61,0s27.3,61,61,61S61,33.7,61,0z"/>
	<path style="fill:#009393;" d="M0,61c-33.7,0-61-27.3-61-61s27.3-61,61-61c33.7,0,61,27.3,61,61S33.7,61,0,61z M0-52.1   c-28.8,0-52.1,23.3-52.1,52.1S-28.8,52.1,0,52.1c28.8,0,52.1-23.3,52.1-52.1S28.8-52.1,0-52.1z"/>
	<path style="fill:#009393;stroke:#FFFFFF;stroke-width:8;stroke-miterlimit:10;" d="M52.1,0c0-28.8-23.3-52.1-52.1-52.1   S-52.1-28.8-52.1,0S-28.8,52.1,0,52.1S52.1,28.8,52.1,0z"/>
	<g>
		<path style="fill:#FFFFFF;" d="M18.6,10.1H-18c-3.1,0-5.6-2.5-5.6-5.6v-33.6c0-3.1,2.5-5.6,5.6-5.6h36.6c3.1,0,5.6,2.5,5.6,5.6    V4.5C24.2,7.5,21.7,10.1,18.6,10.1z M19.7-29.2c0-0.6-0.5-1.1-1.1-1.1H-18c-0.6,0-1.1,0.5-1.1,1.1V4.5c0,0.6,0.5,1.1,1.1,1.1h36.6    c0.6,0,1.1-0.5,1.1-1.1V-29.2z"/>
		<path style="fill:#FFFFFF;" d="M-10.2,1.1c1.2,0,2.2-1,2.2-2.2s-1-2.2-2.2-2.2s-2.2,1-2.2,2.2S-11.4,1.1-10.2,1.1z"/>
		<path style="fill:#FFFFFF;" d="M0.3,1.1c1.2,0,2.2-1,2.2-2.2s-1-2.2-2.2-2.2s-2.2,1-2.2,2.2S-0.9,1.1,0.3,1.1z"/>
		<path style="fill:#FFFFFF;" d="M10.8,1.1c1.2,0,2.2-1,2.2-2.2s-1-2.2-2.2-2.2s-2.2,1-2.2,2.2S9.5,1.1,10.8,1.1z"/>
		<path style="fill:#FFFFFF;" d="M-7.2-4.1h-6c-0.8,0-1.5-0.7-1.5-1.6v-8c0-0.7,0.5-1.4,1.1-1.5V-25c0-0.8,0.7-1.5,1.5-1.5    s1.5,0.7,1.5,1.5v9.7h0.7V-25c0-0.8,0.7-1.5,1.5-1.5c0.8,0,1.5,0.7,1.5,1.5v9.8c0.6,0.2,1.1,0.8,1.1,1.5v8    C-5.7-4.9-6.3-4.1-7.2-4.1z"/>
		<path style="fill:#FFFFFF;" d="M3.3-4.1h-6c-0.8,0-1.5-0.7-1.5-1.6v-8c0-0.7,0.5-1.4,1.1-1.5V-25c0-0.8,0.7-1.5,1.5-1.5    s1.5,0.7,1.5,1.5v9.7h0.7V-25c0-0.8,0.7-1.5,1.5-1.5s1.5,0.7,1.5,1.5v9.8c0.6,0.2,1.1,0.8,1.1,1.5v8C4.8-4.9,4.1-4.1,3.3-4.1z"/>
		<path style="fill:#FFFFFF;" d="M13.7-4.1h-6c-0.8,0-1.5-0.7-1.5-1.6v-8c0-0.7,0.5-1.4,1.1-1.5V-25c0-0.8,0.7-1.5,1.5-1.5    s1.5,0.7,1.5,1.5v9.7h0.7V-25c0-0.8,0.7-1.5,1.5-1.5c0.8,0,1.5,0.7,1.5,1.5v9.8c0.6,0.2,1.1,0.8,1.1,1.5v8    C15.2-4.9,14.6-4.1,13.7-4.1z"/>
		<path style="fill:#FFFFFF;" d="M-2.1,28.6l-7.5,7.5c-1.2,1.2-3.1,1.2-4.2,0c0,0,0,0,0,0l-7.5-7.5c-1.2-1.2-1.2-3.1,0-4.2    c1.2-1.2,3.1-1.2,4.2,0l2.4,2.4V16c0-1.6,1.3-3,3-3c1.6,0,3,1.3,3,3v10.7l2.4-2.4c1.2-1.2,3.1-1.2,4.2,0S-0.9,27.4-2.1,28.6z"/>
		<path style="fill:#FFFFFF;" d="M21.8,25.6c-1.2,1.2-3.1,1.2-4.2,0l-2.4-2.4v10.7c0,1.6-1.3,3-3,3c-1.6,0-3-1.3-3-3V23.2l-2.4,2.4    c-1.2,1.2-3.1,1.2-4.2,0c-1.2-1.2-1.2-3.1,0-4.2l7.5-7.5l0,0c0.2-0.2,0.5-0.4,0.7-0.5c1.1-0.6,2.6-0.4,3.5,0.5l0,0l7.5,7.5    C23,22.5,23,24.4,21.8,25.6z"/>
	</g>
</symbol>
<symbol id="defibrillateur" viewBox="-61 -61 122 122">
	<path style="fill:#E53433;" d="M61,0c0-33.7-27.3-61-61-61S-61-33.7-61,0s27.3,61,61,61S61,33.7,61,0z"/>
	<path style="fill:#E53433;" d="M0,61c-33.7,0-61-27.3-61-61s27.3-61,61-61c33.7,0,61,27.3,61,61S33.7,61,0,61z M0-52.1   c-28.8,0-52.1,23.3-52.1,52.1S-28.8,52.1,0,52.1c28.8,0,52.1-23.3,52.1-52.1S28.8-52.1,0-52.1z"/>
	<path style="fill:#E53433;stroke:#FFFFFF;stroke-width:8;stroke-miterlimit:10;" d="M52.1,0c0-28.8-23.3-52.1-52.1-52.1   S-52.1-28.8-52.1,0S-28.8,52.1,0,52.1S52.1,28.8,52.1,0z"/>
	<path style="fill:#FFFFFF;" d="M28.3,8.3c0,9.1-7.4,16.4-16.6,16.4c-4.4,0-8.5-1.7-11.4-4.5c-3,2.8-7,4.5-11.4,4.5   c-9.2,0-16.6-7.3-16.6-16.4c0,0-0.5-8.5,8.1-20c4.5-6,19.9-19.7,19.9-19.7s15.4,13.7,19.9,19.7C28.8-0.2,28.3,8.3,28.3,8.3z    M3.2-15.9c0,0-1.9-1.2-3.7-2.8c-1.8-1.7-3.2-3.3-3.2-3.3s-0.1,2.2-0.5,4.9c-0.3,1.8-1.1,4.1-1.1,4.1l3.3-2.6L1.6-1.2L-8.5-4.5   l5.8,20.9h8.1L-0.4,3.3l9.5,3.2l-10-22.5H3.2z"/>
</symbol>
<symbol id="entree" viewBox="-61 -61 122 122">
	<path style="fill:#009393;" d="M61,0c0-33.7-27.3-61-61-61S-61-33.7-61,0s27.3,61,61,61S61,33.7,61,0z"/>
	<path style="fill:#009393;" d="M0,61c-33.7,0-61-27.3-61-61s27.3-61,61-61c33.7,0,61,27.3,61,61S33.7,61,0,61z M0-52.1   c-28.8,0-52.1,23.3-52.1,52.1S-28.8,52.1,0,52.1c28.8,0,52.1-23.3,52.1-52.1S28.8-52.1,0-52.1z"/>
	<path style="fill:#009393;stroke:#FFFFFF;stroke-width:8;stroke-miterlimit:10;" d="M52.1,0c0-28.8-23.3-52.1-52.1-52.1   S-52.1-28.8-52.1,0S-28.8,52.1,0,52.1S52.1,28.8,52.1,0z"/>
	<g>
		<path style="fill:#FFFFFF;" d="M4.9,24.2V-28l12.9-4.4H21v60.8L4.9,24.2z M7.2-5c-0.5,0-1,0.7-1,1.7s0.4,1.7,1,1.7s1-0.7,1-1.7    S7.7-5,7.2-5z"/>
		<path style="fill:#FFFFFF;" d="M-21.1,28.4v-60.8h3.3L-4.9-28v52.3L-21.1,28.4z M-8.2-3.4c0,0.9,0.4,1.7,1,1.7s1-0.7,1-1.7    S-6.7-5-7.3-5S-8.2-4.3-8.2-3.4z"/>
		<path style="fill:#FFFFFF;" d="M-25.4,32v-64.4c1.3,0,2.3,0,3.6,0l0,61.4h43.6v-61.4h3.6V32H-25.4z"/>
	</g>
</symbol>
<symbol id="escalier" viewBox="-61 -61 122 122">
	<path style="fill:#009393;" d="M61,0c0-33.7-27.3-61-61-61S-61-33.7-61,0s27.3,61,61,61S61,33.7,61,0z"/>
	<path style="fill:#009393;" d="M0,61c-33.7,0-61-27.3-61-61s27.3-61,61-61S61-33.7,61,0S33.7,61,0,61z M0-52.1   c-28.8,0-52.1,23.3-52.1,52.1S-28.8,52.1,0,52.1c28.8,0,52.1-23.3,52.1-52.1S28.8-52.1,0-52.1z"/>
	<path style="fill:#009393;stroke:#FFFFFF;stroke-width:8;stroke-miterlimit:10;" d="M52.1,0c0-28.8-23.3-52.1-52.1-52.1   S-52.1-28.8-52.1,0S-28.8,52.1,0,52.1S52.1,28.8,52.1,0z"/>
	<path style="fill:#FFFFFF;" d="M31.1,21.8c0-1.1-0.9-2-2-2h-9.4v-9.4c0-1.1-0.9-2-2-2H8.3l0-9.3C8.3-2,7.3-3,6.2-3h-9.3v-9.4   c0-1.1-0.9-2-2-2h-9.4v-9.4c0-1.1-0.9-2-2-2h-13.1c-1.1,0-2,0.9-2,2v1.7c0,1.1,0.9,2,2,2h9.4v9.4c0,1.1,0.9,2,2,2h9.4v9.4   c0,1.1,0.9,2,2,2h9.4v9.4c0,1.1,0.9,2,2,2H14v9.4c0,1.1,0.9,2,2,2h13.1c1.1,0,2-0.9,2-2V21.8z"/>
</symbol>
<symbol id="parking_velo" viewBox="-61 -61 122 122">
	<path style="fill:#009393;" d="M61,0c0-33.7-27.3-61-61-61S-61-33.7-61,0s27.3,61,61,61S61,33.7,61,0z"/>
	<path style="fill:#009393;" d="M0,61c-33.7,0-61-27.3-61-61s27.3-61,61-61S61-33.7,61,0S33.7,61,0,61z M0-52.1   c-28.8,0-52.1,23.3-52.1,52.1S-28.8,52.1,0,52.1c28.8,0,52.1-23.3,52.1-52.1S28.8-52.1,0-52.1z"/>
	<path style="fill:#009393;stroke:#FFFFFF;stroke-width:8;stroke-miterlimit:10;" d="M52.1,0c0-28.8-23.3-52.1-52.1-52.1   S-52.1-28.8-52.1,0S-28.8,52.1,0,52.1S52.1,28.8,52.1,0z"/>
	<g>
		<g>
			<path style="fill:#FFFFFF;" d="M-14.6,30.7h-12.5c-2.6,0-4.1-1.4-4.1-4.1v-40.2c0-2.5,1.4-4.1,3.8-4.1c2.4,0,3.9,1.5,3.9,4.1     v13.5h9.3C-4.7-0.1,2,6.2,2,15.2C2,24.3-4.8,30.7-14.6,30.7z M-14.9,6.4l-8.7,0v17.9h8.7c5.1,0,8.7-3.8,8.7-9     C-6.1,10.1-9.8,6.4-14.9,6.4z"/>
		</g>
		<g>
			<g>
				<path style="fill:#FFFFFF;" d="M-9.8-34.3c-5.6,0-10.1,4.5-10.1,10.1s4.5,10.1,10.1,10.1c5.6,0,10.1-4.5,10.1-10.1      S-4.2-34.3-9.8-34.3z"/>
			</g>
			<g>
				<path style="fill:#FFFFFF;" d="M21.7-34.3c-5.6,0-10.1,4.5-10.1,10.1s4.5,10.1,10.1,10.1s10.1-4.5,10.1-10.1      S27.3-34.3,21.7-34.3z"/>
			</g>
			<g>
				<path style="fill:#FFFFFF;" d="M21.7-22.4c1,0,1.8-0.8,1.8-1.8s-0.8-1.8-1.8-1.8s-1.8,0.8-1.8,1.8S20.7-22.4,21.7-22.4z"/>
			</g>
			<g>
				<path style="fill:#FFFFFF;" d="M-9.8-22.4c1,0,1.8-0.8,1.8-1.8s-0.8-1.8-1.8-1.8s-1.8,0.8-1.8,1.8S-10.8-22.4-9.8-22.4z"/>
			</g>
			<g>
				<path style="fill:#FFFFFF;" d="M21.7-25.4c-0.5,0-0.9,0.3-1.1,0.8l-5.1,13.9L5.1-25c-0.2-0.3-0.6-0.5-1-0.5h-14      c-0.5,0-0.9,0.3-1.1,0.7c-0.2,0.4-0.2,0.9,0.1,1.2l8.5,10.9c0.2,0.2,0.4,0.3,0.6,0.4l17.1,5.1c0,0,0,0,0.1,0c0.1,0,0.3,0,0.4,0      c0.2,0,0.3-0.1,0.5-0.2c0.1-0.1,0.2-0.1,0.3-0.2l0,0c0,0,0,0,0,0c0.1-0.1,0.2-0.2,0.2-0.4l5.9-16c0.2-0.6-0.1-1.3-0.7-1.5      C22-25.4,21.8-25.4,21.7-25.4z M-7.4-23.1h11l9.2,12.7l-13.4-4L-7.4-23.1z"/>
			</g>
			<g>
				<path style="fill:#FFFFFF;" d="M4.2-25.4c-0.4,0-0.9,0.3-1.1,0.7l-6.5,13.9c-0.3,0.6,0,1.3,0.6,1.6c0.6,0.3,1.3,0,1.6-0.6      l6.5-13.9c0.3-0.6,0-1.3-0.6-1.6C4.5-25.4,4.4-25.4,4.2-25.4z"/>
			</g>
			<g>
				<path style="fill:#FFFFFF;" d="M-5-11.5c-0.5,0-0.9,0.3-1.1,0.7c-0.2,0.6,0,1.3,0.7,1.5l5.3,2.2c0.6,0.2,1.3,0,1.5-0.7      c0.2-0.6,0-1.3-0.6-1.5l-5.3-2.2C-4.7-11.5-4.8-11.5-5-11.5z"/>
			</g>
			<g>
				<path style="fill:#FFFFFF;" d="M15.5-9.7c-0.2,0-0.4,0.1-0.6,0.2c-0.6,0.4-0.7,1.1-0.4,1.6L16-5.5l-0.4,1.6L12-4.3      c-0.6-0.1-1.2,0.4-1.3,1.1c-0.1,0.6,0.4,1.2,1.1,1.3l4.7,0.5c0.6,0.1,1.1-0.3,1.3-0.9l0.7-3.1c0.1-0.3,0-0.6-0.2-0.9l-1.8-2.8      C16.3-9.5,15.9-9.7,15.5-9.7z"/>
			</g>
		</g>
	</g>
</symbol>
<symbol id="parking_velo_electrique" viewBox="-61 -61 122 122">
	<path style="fill:#009393;" d="M61,0c0-33.7-27.3-61-61-61S-61-33.7-61,0s27.3,61,61,61S61,33.7,61,0z"/>
	<path style="fill:#009393;" d="M0,61c-33.7,0-61-27.3-61-61s27.3-61,61-61c33.7,0,61,27.3,61,61S33.7,61,0,61z M0-52.1   c-28.8,0-52.1,23.3-52.1,52.1S-28.8,52.1,0,52.1c28.8,0,52.1-23.3,52.1-52.1S28.8-52.1,0-52.1z"/>
	<path style="fill:#009393;stroke:#FFFFFF;stroke-width:8;stroke-miterlimit:10;" d="M52.1,0c0-28.8-23.3-52.1-52.1-52.1   S-52.1-28.8-52.1,0S-28.8,52.1,0,52.1S52.1,28.8,52.1,0z"/>
	<g>
		<path style="fill:#FFFFFF;" d="M-14.6,30.7h-12.5c-2.6,0-4.1-1.4-4.1-4.1v-40.2c0-2.5,1.4-4.1,3.8-4.1c2.4,0,3.9,1.5,3.9,4.1v13.5    h9.3C-4.7-0.1,2,6.2,2,15.2C2,24.3-4.8,30.7-14.6,30.7z M-14.9,6.4l-8.7,0v17.9h8.7c5.1,0,8.7-3.8,8.7-9    C-6.1,10.1-9.8,6.4-14.9,6.4z"/>
	</g>
	<g>
		<g>
			<path style="fill:#FFFFFF;" d="M11.6-24.3c0,5.6,4.5,10.1,10.1,10.1c5.6,0,10.1-4.5,10.1-10.1s-4.5-10.1-10.1-10.1     C16.1-34.3,11.6-29.8,11.6-24.3z"/>
		</g>
		<g>
			<path style="fill:#FFFFFF;" d="M-19.9-24.3c0,5.6,4.5,10.1,10.1,10.1S0.3-18.7,0.3-24.3S-4.3-34.3-9.8-34.3     C-15.4-34.3-19.9-29.8-19.9-24.3z"/>
		</g>
		<g>
			<path style="fill:#FFFFFF;" d="M-9.8-22.4c-1,0-1.8-0.8-1.8-1.8c0-1,0.8-1.8,1.8-1.8S-8-25.3-8-24.3C-8-23.2-8.8-22.4-9.8-22.4z"/>
		</g>
		<g>
			<path style="fill:#FFFFFF;" d="M21.7-22.4c-1,0-1.8-0.8-1.8-1.8s0.8-1.8,1.8-1.8s1.8,0.8,1.8,1.8S22.7-22.4,21.7-22.4z"/>
		</g>
		<g>
			<path style="fill:#FFFFFF;" d="M-10.2-25.4c-0.6,0.2-0.9,0.9-0.7,1.5l5.9,16C-5-7.7-4.9-7.6-4.8-7.5c0,0,0,0,0,0l0,0     c0.1,0.1,0.2,0.2,0.3,0.2c0.2,0.1,0.3,0.2,0.5,0.2c0.1,0,0.3,0,0.4,0c0,0,0,0,0.1,0l17.1-5.1c0.2-0.1,0.4-0.2,0.6-0.4l8.5-10.9     c0.3-0.4,0.3-0.8,0.1-1.2c-0.2-0.4-0.6-0.7-1.1-0.7h-14c-0.4,0-0.7,0.2-1,0.5L-3.6-10.8l-5.1-13.9c-0.2-0.5-0.6-0.8-1.1-0.8     C-9.9-25.4-10.1-25.4-10.2-25.4z M12.5-14.4l-13.4,4l9.2-12.7h11L12.5-14.4z"/>
		</g>
		<g>
			<path style="fill:#FFFFFF;" d="M7.7-25.4c0.4,0,0.9,0.3,1.1,0.7l6.5,13.9c0.3,0.6,0,1.3-0.6,1.6c-0.6,0.3-1.3,0-1.6-0.6L6.6-23.8     c-0.3-0.6,0-1.3,0.6-1.6C7.4-25.4,7.5-25.4,7.7-25.4z"/>
		</g>
		<g>
			<path style="fill:#FFFFFF;" d="M16.9-11.5c0.5,0,0.9,0.3,1.1,0.7c0.2,0.6,0,1.3-0.7,1.5L12-7.1c-0.6,0.2-1.3,0-1.5-0.7     c-0.2-0.6,0-1.3,0.6-1.5l5.3-2.2C16.6-11.5,16.7-11.5,16.9-11.5z"/>
		</g>
		<g>
			<path style="fill:#FFFFFF;" d="M-3.6-9.7c0.2,0,0.4,0.1,0.6,0.2c0.6,0.4,0.7,1.1,0.4,1.6l-1.5,2.4l0.4,1.6l3.6-0.4     c0.6-0.1,1.2,0.4,1.3,1.1C1.2-2.6,0.8-2,0.1-1.9l-4.7,0.5c-0.6,0.1-1.1-0.3-1.3-0.9l-0.7-3.1c-0.1-0.3,0-0.6,0.2-0.9l1.8-2.8     C-4.4-9.5-4-9.7-3.6-9.7z"/>
		</g>
	</g>
	<g>
		<path style="fill:#FFFFFF;" d="M22.5-17l8.7,0c1.1,0,2.1,1.1,2.2,2.1l0,5.7c0.5,0,1,0.5,1,1l0,2.2h1.2c0.4,0,0.7,0.3,0.7,0.7    l0.5,4.9c0,0.4-0.3,0.7-0.7,0.7h-0.9v2.8c0,0.4-0.3,0.7-0.7,0.7c-0.4,0-0.7-0.3-0.7-0.7V0.2h-3.6v2.8c0,0.4-0.3,0.7-0.7,0.7    c-0.4,0-0.7-0.3-0.7-0.7V0.2h-0.9c-0.4,0-0.7-0.3-0.7-0.7l0.5-4.9c0-0.4,0.3-0.7,0.7-0.7h1.3l0-2.2c0-0.6,0.4-1,1-1.1v-4    c0-0.3-0.2-1-1-1.2h-7.4"/>
	</g>
</symbol>
<symbol id="parking_voiture" viewBox="-61 -61 122 122">
	<path style="fill:#009393;" d="M61,0c0-33.7-27.3-61-61-61S-61-33.7-61,0s27.3,61,61,61S61,33.7,61,0z"/>
	<path style="fill:#009393;" d="M0,61c-33.7,0-61-27.3-61-61s27.3-61,61-61S61-33.7,61,0S33.7,61,0,61z M0-52.1   c-28.8,0-52.1,23.3-52.1,52.1S-28.8,52.1,0,52.1c28.8,0,52.1-23.3,52.1-52.1S28.8-52.1,0-52.1z"/>
	<path style="fill:#009393;stroke:#FFFFFF;stroke-width:8;stroke-miterlimit:10;" d="M52.1,0c0-28.8-23.3-52.1-52.1-52.1   S-52.1-28.8-52.1,0S-28.8,52.1,0,52.1S52.1,28.8,52.1,0z"/>
	<g>
		<g>
			<path style="fill:#FFFFFF;" d="M28.1-25.3v3.4c0,1.4-0.4,3.6-0.9,4.8l-0.7,1.8h1c1.3,0,2.3,1,2.3,2.3s-1,2.3-2.3,2.3h-2.7l-2,5.2     c-0.5,1.3-2,2.6-3.3,3c0,0-3.4,1-10.5,1s-10.5-1-10.5-1c-1.3-0.4-2.8-1.7-3.3-3l-2-5.2h-2.7c-1.3,0-2.3-1-2.3-2.3s1-2.3,2.3-2.3     h1L-9.3-17c-0.5-1.3-0.9-3.5-0.9-4.8v-10.8c0-1.6,1.3-2.9,2.9-2.9c1.6,0,2.9,1.3,2.9,2.9v1.7h26.7v-1.7c0-1.6,1.3-2.9,2.9-2.9     c1.6,0,2.9,1.3,2.9,2.9v4 M-4.5-13.6l2.3,6.4C-2-6.8-1.5-6.4-1.1-6.4h20c0.5,0,1-0.4,1.1-0.8l2.3-6.4c0.2-0.4-0.1-0.8-0.5-0.8H-4     C-4.5-14.4-4.7-14-4.5-13.6z M-1-22.8c0-0.7-0.5-1.2-1.2-1.2h-3.5c-0.6,0-1.2,0.5-1.2,1.2v2.2c0,0.7,0.5,1.2,1.2,1.2l3.5-0.4     c0.6,0,1.2-0.5,1.2-1.2V-22.8z M24.7-22.8c0-0.7-0.5-1.2-1.2-1.2H20c-0.7,0-1.2,0.5-1.2,1.2v1.9c0,0.7,0.5,1.2,1.2,1.2l3.5,0.4     c0.7,0,1.2-0.5,1.2-1.2L24.7-22.8L24.7-22.8z"/>
		</g>
		<g>
			<path style="fill:#FFFFFF;" d="M-11.9,32h-13c-2.7,0-4.2-1.5-4.2-4.2v-41.9c0-2.7,1.5-4.2,4-4.2c2.5,0,4,1.6,4,4.2V0h9.7     c10,0,16.9,6.6,16.9,15.9C5.4,25.4-1.7,32-11.9,32z M-12.2,6.6l-9,0v18.6h9c5.3,0,9.1-3.9,9.1-9.3C-3.1,10.6-6.9,6.6-12.2,6.6z"/>
		</g>
	</g>
</symbol>
<symbol id="parking_voiture_electrique" viewBox="-61 -61 122 122">
	<path style="fill:#009393;" d="M61,0c0-33.7-27.3-61-61-61S-61-33.7-61,0s27.3,61,61,61S61,33.7,61,0z"/>
	<path style="fill:#009393;" d="M0,61c-33.7,0-61-27.3-61-61s27.3-61,61-61S61-33.7,61,0S33.7,61,0,61z M0-52.1   c-28.8,0-52.1,23.3-52.1,52.1S-28.8,52.1,0,52.1c28.8,0,52.1-23.3,52.1-52.1S28.8-52.1,0-52.1z"/>
	<path style="fill:#009393;stroke:#FFFFFF;stroke-width:8;stroke-miterlimit:10;" d="M52.1,0c0-28.8-23.3-52.1-52.1-52.1   S-52.1-28.8-52.1,0S-28.8,52.1,0,52.1S52.1,28.8,52.1,0z"/>
	<g>
		<g>
			<path style="fill:#FFFFFF;" d="M33.1-5.5h-1.1v3.4c0,0.4-0.4,0.8-0.8,0.8c-0.4,0-0.8-0.4-0.8-0.8v-3.4h-4.4v3.4     c0,0.4-0.4,0.8-0.8,0.8s-0.8-0.4-0.8-0.8v-3.4h-1.1c-0.4,0-0.8-0.4-0.8-0.8l0.6-5.9c0-0.4,0.4-0.8,0.8-0.8h1.6l0-2.7     c0-0.7,0.5-1.2,1.2-1.3v-4.8c0-0.4-0.2-1.3-1.2-1.4h-8.9v3.1c0,1.3-0.4,3.3-0.8,4.4l-0.6,1.7h0.9c1.2,0,2.1,0.9,2.1,2.1     s-0.9,2.1-2.1,2.1h-2.5l-1.8,4.7c-0.5,1.2-1.8,2.4-3,2.8c0,0-3.2,0.9-9.7,0.9s-9.7-0.9-9.7-0.9c-1.2-0.3-2.6-1.6-3-2.8l-1.8-4.7     H-18c-1.2,0-2.1-0.9-2.1-2.1s0.9-2.1,2.1-2.1h0.9l-0.6-1.7c-0.5-1.2-0.8-3.2-0.8-4.4v-10c0-1.5,1.2-2.7,2.7-2.7     c1.5,0,2.7,1.2,2.7,2.7v1.5h24.5V-30c0-1.5,1.2-2.7,2.7-2.7c1.5,0,2.7,1.2,2.7,2.7v3.7l10.6,0c1.3,0,2.6,1.3,2.7,2.5l0,6.9     c0.7,0,1.2,0.6,1.2,1.3l0,2.7h1.4c0.4,0,0.8,0.4,0.8,0.8l0.5,5.9C33.9-5.8,33.6-5.5,33.1-5.5z M-13.3-12.4l2.2,5.8     c0.1,0.4,0.6,0.7,1,0.7H8.3c0.4,0,0.9-0.3,1-0.7l2.2-5.8c0.1-0.4-0.1-0.7-0.5-0.7h-23.7C-13.2-13.1-13.4-12.8-13.3-12.4z      M-10-20.8c0-0.6-0.5-1.1-1.1-1.1h-3.3c-0.6,0-1.1,0.5-1.1,1.1v2c0,0.6,0.5,1.1,1.1,1.1l3.3-0.3c0.6,0,1.1-0.5,1.1-1.1V-20.8z      M13.6-20.8c0-0.6-0.5-1.1-1.1-1.1H9.2c-0.6,0-1.1,0.5-1.1,1.1v1.7c0,0.6,0.5,1.1,1.1,1.1l3.3,0.3c0.6,0,1.1-0.5,1.1-1.1     L13.6-20.8L13.6-20.8z"/>
		</g>
		<g>
			<path style="fill:#FFFFFF;" d="M-15.2,29.5h-12c-2.5,0-3.9-1.4-3.9-3.9v-38.5c0-2.4,1.4-3.9,3.7-3.9c2.3,0,3.7,1.5,3.7,3.9V0h8.9     c9.1,0,15.5,6,15.5,14.6C0.7,23.4-5.9,29.5-15.2,29.5z M-15.4,6.2l-8.3,0v17.1h8.3c4.8,0,8.4-3.6,8.4-8.6     C-7.1,9.8-10.6,6.2-15.4,6.2z"/>
		</g>
	</g>
</symbol>
<symbol id="parking_voiture_handicape" viewBox="-61 -61 122 122">
	<path style="fill:#009393;" d="M61,0c0-33.7-27.3-61-61-61S-61-33.7-61,0s27.3,61,61,61S61,33.7,61,0z"/>
	<path style="fill:#009393;" d="M0,61c-33.7,0-61-27.3-61-61s27.3-61,61-61S61-33.7,61,0S33.7,61,0,61z M0-52.1   c-28.8,0-52.1,23.3-52.1,52.1S-28.8,52.1,0,52.1c28.8,0,52.1-23.3,52.1-52.1S28.8-52.1,0-52.1z"/>
	<path style="fill:#009393;stroke:#FFFFFF;stroke-width:8;stroke-miterlimit:10;" d="M52.1,0c0-28.8-23.3-52.1-52.1-52.1   S-52.1-28.8-52.1,0S-28.8,52.1,0,52.1S52.1,28.8,52.1,0z"/>
	<g>
		<g>
			<path style="fill:#FFFFFF;" d="M-12.1,31h-12.5c-2.6,0-4-1.4-4-4v-40c0-2.5,1.4-4,3.8-4c2.4,0,3.8,1.5,3.8,4V0.4h9.3     c9.5,0,16.1,6.3,16.1,15.2C4.4,24.6-2.4,31-12.1,31z M-12.3,6.8l-8.6,0v17.8h8.6c5,0,8.7-3.7,8.7-8.9C-3.6,10.5-7.3,6.8-12.3,6.8     z"/>
		</g>
		<g>
			<path style="fill:#FFFFFF;" d="M14.3-7.8c0-1.1,0-2,0-3.1c0.5,0,0.8,0,1.2,0c2.8,0,5.6,0,8.4,0c1.2,0,2.1-0.5,2.7-1.5     c2.1-3.7,4.2-7.3,6.3-11c0.2-0.4,0.4-0.9,0.5-1.4c0.1-1-0.3-1.8-1.2-2.3c-0.8-0.4-1.9-0.2-2.6,0.5c-0.3,0.3-0.6,0.7-0.8,1     c-1.5,2.6-3.1,5.2-4.5,7.9c-0.3,0.6-0.7,0.8-1.3,0.8c-3.9,0-7.7,0-11.6,0c-3,0-4.4,1.3-4.7,4.3C6.4-8.9,6.2-5.1,6-1.4     C5.9,0.9,7.4,2.7,9.5,2.9c2.3,0.1,4-1.4,4.2-3.8C13.8-2,13.9-3,14-4.2c2.2,0,4.4,0,6.5,0c0.4,0,0.9,0,1.3-0.1     c1-0.2,1.6-1,1.5-1.8c-0.1-0.9-0.7-1.6-1.7-1.6c-1.6-0.1-3.1,0-4.7,0C16-7.8,15.1-7.8,14.3-7.8z"/>
			<path style="fill:#FFFFFF;" d="M23.8-21.5c0.7-1.2,1.3-2.2,1.8-3.2c0.1-0.2,0.1-0.6-0.1-0.9c-3-6.3-10.4-9.7-17.2-7.9     c-7,1.8-11.7,8.2-11.3,15.3c0.3,4.9,2.5,8.8,6.4,11.6c0.2,0.1,0.3,0.2,0.6,0.3c0.1-1.1,0.2-2.2,0.2-3.2c0-0.3-0.3-0.7-0.5-1     c-6.3-6.3-3.9-17,4.6-19.8c6.2-2.1,13.1,1.4,15.1,7.7C23.5-22.3,23.6-22,23.8-21.5z"/>
			<path style="fill:#FFFFFF;" d="M9.5,11.6c2.2,0,4-1.7,4-4c0-2.2-1.8-4-4-4c-2.1,0-4,1.8-4,3.9C5.5,9.8,7.3,11.6,9.5,11.6z"/>
		</g>
	</g>
</symbol>
<symbol id="restaurant" viewBox="-61 -61 122 122">
	<path style="fill:#009393;" d="M61,0c0-33.7-27.3-61-61-61S-61-33.7-61,0s27.3,61,61,61S61,33.7,61,0z"/>
	<path style="fill:#009393;" d="M0,61c-33.7,0-61-27.3-61-61s27.3-61,61-61S61-33.7,61,0S33.7,61,0,61z M0-52.1   c-28.8,0-52.1,23.3-52.1,52.1S-28.8,52.1,0,52.1c28.8,0,52.1-23.3,52.1-52.1S28.8-52.1,0-52.1z"/>
	<path style="fill:#009393;stroke:#FFFFFF;stroke-width:8;stroke-miterlimit:10;" d="M52.1,0c0-28.8-23.3-52.1-52.1-52.1   S-52.1-28.8-52.1,0S-28.8,52.1,0,52.1S52.1,28.8,52.1,0z"/>
	<g>
		<path style="fill:#FFFFFF;" d="M-2.1,11.8c0-2.3-2.1-4.7-4.8-4.7v-38.4c0-5.5-7.4-5.5-7.4,0V7.1c-2.6,0-4.9,2-4.9,5v21.1    c0,1.8,2.7,1.9,2.7-0.1V17.5h2.2v15.8c0,1.7,2.6,1.8,2.6-0.1V17.5h2.3v15.7c0,1.8,2.5,1.8,2.5-0.1V17.5h2.3v15.7    c0,1.8,2.6,1.8,2.6-0.1L-2.1,11.8L-2.1,11.8z"/>
		<path style="fill:#FFFFFF;" d="M17.7,28.3v-59.6c0-5.3-7.4-5.2-7.4,0v23.7h-4v36C6.3,36.7,17.7,36.7,17.7,28.3L17.7,28.3z"/>
	</g>
</symbol>
</svg>
