<?xml version="1.0" encoding="utf-8"?>
<!-- Generator: Adobe Illustrator 18.0.0, SVG Export Plug-In . SVG Version: 6.00 Build 0)  -->
<!DOCTYPE svg PUBLIC "-//W3C//DTD SVG 1.1//EN" "http://www.w3.org/Graphics/SVG/1.1/DTD/svg11.dtd">
<svg xmlns="http://www.w3.org/2000/svg" xmlns:svg="http://www.w3.org/2000/svg" xmlns:rdf="http://www.w3.org/1999/02/22-rdf-syntax-ns#" xmlns:cc="http://creativecommons.org/ns#" xmlns:inkscape="http://www.inkscape.org/namespaces/inkscape" xmlns:sodipodi="http://sodipodi.sourceforge.net/DTD/sodipodi-0.dtd" xmlns:dc="http://purl.org/dc/elements/1.1/" xmlns:xlink="http://www.w3.org/1999/xlink" version="1.1" id="mapsvg_0_4_3_0_1" x="0px" y="0px" viewBox="0 0 9600 6716" xml:space="preserve">






<g id="Z_4_3">
	<g id="Z_4_3_B">
		<polygon id="Z_4_3_B16" points="2471.8,3535     2775,3535 2775,3881.7 2950.9,4057.6 3317.3,3691.3 3532.2,3906.2 3165.9,4272.6 3342.4,4449.1 4226.7,4449.1 4226.7,4752     2981.1,4752 2926.4,4697.3 3014.4,4609.3 2921.7,4516.7 2687.4,4751 2472.5,4536.1 2706.8,4301.7 2613.6,4208.5 2525.6,4296.5     2471.8,4242.8   " class="P4_3_0"/>
		
			<rect id="Z_4_3_B15" x="2469.4" y="3470.5" width="122.8" height="57.1" class="P4_3_1"/>
		
			<rect id="Z_4_3_B14" x="4234" y="4630.6" width="56.5" height="121.4" class="P4_3_1"/>
		
			<rect id="Z_4_3_B13" x="2563.7" y="4090.6" transform="matrix(0.7071 -0.7071 0.7071 0.7071 -2159.7122 3060.8604)" width="102.5" height="93.7" class="P4_3_1"/>
		
			<rect id="Z_4_3_B12" x="3036.8" y="4558.6" transform="matrix(0.7071 -0.7071 0.7071 0.7071 -2353.8589 3530.8169)" width="96.6" height="96.4" class="P4_3_1"/>
		
			<rect id="Z_4_3_B11" x="2961.5" y="4316.1" transform="matrix(0.7071 -0.7071 0.7071 0.7071 -2202.3953 3406.9648)" width="99.7" height="91.9" class="P4_3_1"/>
		
			<rect id="Z_4_3_B10" x="2810.2" y="4168.2" transform="matrix(0.7071 -0.7071 0.7071 0.7071 -2140.2007 3255.8225)" width="99.7" height="86.4" class="P4_3_1"/>
		
			<rect id="Z_4_3_B9" x="2900" y="4055.8" transform="matrix(-0.7071 0.7071 -0.7071 -0.7071 7947.6904 4958.084)" width="93.9" height="138.5" class="P4_3_1"/>
		
			<rect id="Z_4_3_B7" x="2585.1" y="3780" width="75.7" height="124.7" class="P4_3_1"/>
		<polygon id="Z_4_3_B6" points="3081.3,4192.3     3110.7,4221.6 3043.8,4287.8 3014.8,4258.8   " class="P4_3_1"/>
		
			<rect id="Z_4_3_B5" x="3319.8" y="4564.9" width="123.4" height="71.2" class="P4_3_1"/>
		
			<rect id="Z_4_3_B4" x="3858.5" y="4564.6" width="123.4" height="71.2" class="P4_3_1"/>
		<polygon id="Z_4_3_B3" points="3277.5,3996.9     3189.3,4084.5 3137.9,4033 3225.7,3945.5   " class="P4_3_1"/>
		
			<rect id="Z_4_3_B2" x="2753.8" y="4361.4" transform="matrix(-0.7071 -0.7071 0.7071 -0.7071 1630.1504 9539.2646)" width="73.8" height="141.3" class="P4_3_1"/>
		
			<rect id="Z_4_3_B1" x="2908" y="4239.1" transform="matrix(-0.7071 0.7071 -0.7071 -0.7071 8049.2339 5217.9341)" width="71.9" height="73.8" class="P4_3_1"/>
	</g>
	<g id="Z_4_3_A">
		
			<rect id="Z_4_3_A73" x="2871.5" y="4405.5" transform="matrix(0.7071 -0.7071 0.7071 0.7071 -2289.4133 3369.3684)" width="101.9" height="85.6" class="P4_3_2"/>
		
			<rect id="Z_4_3_A72" x="2957.1" y="4458.6" transform="matrix(0.7071 -0.7071 0.7071 0.7071 -2319.7905 3449.843)" width="94.8" height="133.1" class="P4_3_2"/>
		<polygon id="Z_4_3_A71" points="3175.3,4629.7     3153.3,4607.4 3085.2,4676 3020.4,4611.2 2933.7,4697.3 2983.2,4747.1 3175.3,4747.1   " class="P4_3_2"/>
		<polygon id="Z_4_3_A70" points="3402.7,4537.4     3402.7,4454.2 3339.7,4454.2 3331.2,4469.7 3278.5,4522.6 3293.3,4537.4   " class="P4_3_2"/>
		<polygon id="Z_4_3_A69" points="3294.8,4015.1     3355.3,4076.1 3252.1,4179.3 3191.7,4118.6   " class="P4_3_2"/>
		<polygon id="Z_4_3_A68" points="3338.9,3971     3399.4,4032 3355.4,4076 3295,4015.3   " class="P4_3_2"/>
		<polygon id="Z_4_3_A67" points="3369.7,3940.2     3430.2,4001.2 3399.4,4032 3339,3971.3   " class="P4_3_2"/>
		<polygon id="Z_4_3_A66" points="3397.4,3912     3458.2,3973.2 3430.2,4001.2 3369.7,3940.2   " class="P4_3_2"/>
		<polygon id="Z_4_3_A65" points="3102.3,4207.9     3163.2,4147.5 3223.8,4207.7 3163,4268.5   " class="P4_3_2"/>
		<polygon id="Z_4_3_A64" points="2580,3540.2     2580,3584.2 2684.9,3584.2 2684.9,3863.9 2770.8,3863.9 2770.8,3540.2   " class="P4_3_2"/>
		
			<rect id="Z_4_3_A63" x="2584.5" y="3701.4" width="76.2" height="78.6" class="P4_3_2"/>
		<rect id="Z_4_3_A62" x="2471.8" y="3534.6" width="90.9" height="265.8" class="P4_3_3"/>
		
			<rect id="Z_4_3_A61" x="3175.3" y="4660.2" width="39.8" height="86.9" class="P4_3_4"/>
		<polygon id="Z_4_3_A60" points="3317.9,3697.2     3250.7,3764.8 3310.5,3824.5 3322.8,3812.3 3410.2,3899.4 3397.5,3912.3 3458.2,3973.2 3525.2,3906.2   " class="P4_3_2"/>
		
			<rect id="Z_4_3_A59" x="2477" y="3719.4" width="85.4" height="248.2" class="P4_3_2"/>
		<polygon id="Z_4_3_A58" points="2598.2,4020     2586.5,4008.3 2586.5,3941.8 2661,3941.8 2668.7,3949.5   " class="P4_3_2"/>
		<polygon id="Z_4_3_A57" points="2753.8,4556.7     2856.2,4454 2916.7,4514.5 2814.2,4617.2   " class="P4_3_2"/>
		<polygon id="Z_4_3_A56" points="3046.1,4088.6     3148.7,3986 3088.9,3926.3 2986.5,4028.9   " class="P4_3_2"/>
		<path id="Z_4_3_A55" d="M3251.9,3840.1" class="P4_3_0"/>
		<polygon id="Z_4_3_A54" points="3244.1,3928.3     3296.3,3980.4 3376,3899.7 3324.1,3847.3   " class="P4_3_2"/>
		<polygon id="Z_4_3_A53" points="3080.9,4089.8     3109.3,4061.7 3160.7,4113.1 3132.9,4142   " class="P4_3_5"/>
		<polygon id="Z_4_3_A52" points="3109.3,4061.7     3135.5,4035.7 3161.7,4061.9 3135.4,4088   " class="P4_3_5"/>
		<polygon id="Z_4_3_A51" points="3134.6,4086.8     3160.8,4060.9 3186.4,4086.4 3160.7,4113.1   " class="P4_3_5"/>
		
			<rect id="Z_4_3_A50" x="2732.3" y="4066.6" transform="matrix(0.7071 -0.7071 0.7071 0.7071 -2107.9561 3177.9773)" width="99.7" height="133.8" class="P4_3_5"/>
		<polygon id="Z_4_3_A49" points="2754.8,4035.7     2684.6,4106.5 2598.2,4020 2668.7,3949.5   " class="P4_3_5"/>
		
			<rect id="Z_4_3_A48" x="2477" y="3540.2" width="84.2" height="137.4" class="P4_3_2"/>
		<polygon id="Z_4_3_A47" points="2562.4,4008.5     2562.4,4017.2 2615.6,4070.5 2545.6,4140.6 2610,4205 2524.7,4290.3 2477,4240.2 2477,4008.5   " class="P4_3_2"/>
		
			<rect id="Z_4_3_A46" x="2584.5" y="3611" width="37.8" height="44.2" class="P4_3_5"/>
		<polygon id="Z_4_3_A45" points="2660.8,3655.2     2622.4,3655.2 2622.4,3611 2660.8,3611   " class="P4_3_5"/>
		<polyline id="Z_4_3_A44" points="2755,4676.4     2694.4,4615.8 2680.9,4629.3 2593.8,4542.2 2709.4,4426.6 2650.3,4367.5 2480.6,4537.1 2687.4,4744 2755,4676.4   " class="P4_3_2"/>
		
			<rect id="Z_4_3_A43" x="3693" y="4660.1" width="528.6" height="87" class="P4_3_2"/>
		<polygon id="Z_4_3_A42" points="3218.9,4747.1     3422.8,4747.1 3423,4660.1 3218.9,4660.1   " class="P4_3_2"/>
		<polygon id="Z_4_3_A41" points="3920.2,4454.2     3920.2,4537.4 4144.9,4537.4 4144.9,4636.2 4221.5,4636.2 4221.5,4454.2   " class="P4_3_2"/>
		
			<rect id="Z_4_3_A40" x="3693" y="4564.6" width="164.6" height="71.6" class="P4_3_2"/>
		
			<rect id="Z_4_3_A39" x="3982.4" y="4564.6" width="131.1" height="71.6" class="P4_3_2"/>
		
			<rect id="Z_4_3_A38" x="3443.5" y="4564.6" width="164.6" height="71.6" class="P4_3_2"/>
		
			<rect id="Z_4_3_A37" x="3443.3" y="4454.2" width="208" height="83.1" class="P4_3_6"/>
		
			<rect id="Z_4_3_A36" x="3651.2" y="4454.2" width="227.1" height="83.1" class="P4_3_2"/>
		<polygon id="Z_4_3_A35" points="3464,4747.1     3608.2,4747.1 3608.2,4660.1 3464.2,4660.1   " class="P4_3_2"/>
		
			<polygon id="Z_4_3_A34" points="    3422.8,4747.1 3464,4747.1 3464.2,4660.1 3422.4,4660.1   " class="P4_3_4"/>
		
			<rect id="Z_4_3_A33" x="3608.2" y="4562.5" width="42.7" height="36.7" class="P4_3_5"/>
		
			<rect id="Z_4_3_A32" x="3608.2" y="4599.2" width="42.7" height="36.9" class="P4_3_5"/>
		
			<rect id="Z_4_3_A31" x="3650.9" y="4562.5" width="42" height="36.7" class="P4_3_5"/>
		
			<rect id="Z_4_3_A30" x="3650.9" y="4599.2" width="42" height="36.9" class="P4_3_5"/>
		<polygon id="Z_4_3_A29" points="2770.8,3885.8     2770.8,3863.9 2684.9,3863.9 2684.9,3884.8 2684.9,3929.4 2835,4079.5 2900.4,4014.1   " class="P4_3_2"/>
		<polygon id="Z_4_3_A28" points="3253.3,4367.2     3339.7,4454.2 3331.2,4469.7 3278.5,4522.6 3188.6,4432.1   " class="P4_3_2"/>
		
			<rect id="Z_4_3_A27" x="2584.5" y="3655.2" width="76.2" height="46.2" class="P4_3_5"/>
		
			<rect id="Z_4_3_A26" x="2477" y="3677.6" width="85.4" height="41.8" class="P4_3_4"/>
		
			<rect id="Z_4_3_A25" x="3041.3" y="4374.9" transform="matrix(0.7071 -0.7071 0.7071 0.7071 -2235.4407 3486.7429)" width="99.7" height="133.8" class="P4_3_5"/>
		<polygon id="Z_4_3_A24" points="3207.7,3927     3280.4,3854.3 3220.6,3794.5 3147.7,3867.6   " class="P4_3_2"/>
		<polygon id="Z_4_3_A23" points="3275.1,4554.9     3286.8,4566.5 3286.8,4633 3212.3,4633 3204.6,4625.3   " class="P4_3_2"/>
		<polygon id="Z_4_3_A22" points="3118.5,4539.2     3188.7,4468.4 3275.1,4554.9 3204.6,4625.3   " class="P4_3_5"/>
		
			<rect id="Z_4_3_A21" x="2662" y="4464.6" transform="matrix(-0.7071 -0.7071 0.7071 -0.7071 1408.3315 9631.1455)" width="73.8" height="118.6" class="P4_3_2"/>
		<polygon id="Z_4_3_A20" points="2814.6,4356     2858.2,4312.4 2884,4338.2 2840.3,4381.7   " class="P4_3_5"/>
		
			<polygon id="Z_4_3_A19" points="    2650.3,4367.5 2679.9,4337.8 2739.1,4397.1 2709.4,4426.6   " class="P4_3_4"/>
		
			<polygon id="Z_4_3_A18" points="    2694.4,4615.8 2724,4586.2 2784.6,4646.8 2755,4676.4   " class="P4_3_4"/>
		
			<polygon id="Z_4_3_A17" points="    2724.1,4586.3 2753.8,4556.7 2814.2,4617.2 2784.6,4646.8   " class="P4_3_4"/>
		<polygon id="Z_4_3_A16" points="2709.6,4308.2     2784.3,4234.1 2843,4292.8 2768.8,4367.6   " class="P4_3_2"/>
		<polygon id="Z_4_3_A15" points="2910.4,4364.5     2866.7,4408.1 2840.3,4381.7 2884,4338.2   " class="P4_3_5"/>
		
			<rect id="Z_4_3_A14" x="3878.3" y="4454.2" width="41.9" height="83.1" class="P4_3_4"/>
		
			<polygon id="Z_4_3_A13" points="    3163.2,4147.5 3191.7,4118.6 3252.1,4179.3 3223.7,4207.7   " class="P4_3_4"/>
		
			<polygon id="Z_4_3_A12" points="    3177.6,3957.2 3148.7,3986 3088.6,3926.6 3117.8,3897.9   " class="P4_3_4"/>
		
			<polygon id="Z_4_3_A11" points="    3046,4088.5 3013.2,4121.2 2953.4,4061.5 2986.5,4028.9   " class="P4_3_4"/>
		
			<rect id="Z_4_3_A10" x="2861.5" y="4015.5" transform="matrix(0.7071 0.7071 -0.7071 0.7071 3716.3616 -848.675)" width="42.2" height="92.5" class="P4_3_4"/>
		
			<rect id="Z_4_3_A9" x="2477" y="3967.6" width="85.4" height="40.9" class="P4_3_4"/>
		
			<polygon id="Z_4_3_A8" points="    3207.9,3927.1 3177.6,3957.2 3117.8,3897.9 3147.9,3867.5   " class="P4_3_4"/>
		
			<rect id="Z_4_3_A7" x="3402.7" y="4454.2" width="40.6" height="83.1" class="P4_3_4"/>
		
			<polygon id="Z_4_3_A6" points="    3310.7,3824.3 3280.5,3854.4 3220.6,3794.5 3250.7,3764.7   " class="P4_3_4"/>
		
			<rect id="Z_4_3_A5" x="3609.5" y="4660.1" width="41.7" height="87" class="P4_3_4"/>
		<polygon id="Z_4_3_A4" points="3044,4288     3109.3,4223 3253.3,4367.2 3188.6,4432.1   " class="P4_3_7"/>
		<polygon id="Z_4_3_A3" points="2614.9,4202.9     2683.9,4133.9 2781.6,4231.5 2712.7,4300.4   " class="P4_3_2"/>
		
			<polygon id="Z_4_3_A2" points="    2679.9,4337.8 2709.5,4308.2 2768.8,4367.6 2739.1,4397.1   " class="P4_3_4"/>
		
			<rect id="Z_4_3_A1" x="3651.2" y="4660.1" width="41.7" height="87" class="P4_3_4"/>
	</g>
	<g id="Z_4_3_L">
	</g>
	<g id="Z_4_3_I">
		
			<use xlink:href="#escalier" width="50" height="50" id="sZ_4_3_I14" x="-25" y="-25" transform="matrix(1 0 0 -1 2529.0002 3499.8894)" style="overflow:visible;"/>
		
			<use xlink:href="#cafe" width="50" height="50" id="sZ_4_3_A4" x="-25" y="-25" transform="matrix(1 0 0 -1 3147.9768 4327.1084)" style="overflow:visible;"/>
		
			<use xlink:href="#WC" width="50" height="50" id="sZ_4_3_I12" x="-25" y="-25" transform="matrix(1 0 0 -1 2623.5879 3841.7407)" style="overflow:visible;"/>
		
			<use xlink:href="#WC" width="50" height="50" id="sZ_4_3_I11" x="-25" y="-25" transform="matrix(1 0 0 -1 2787.7212 4431.9312)" style="overflow:visible;"/>
		
			<use xlink:href="#WC" width="50" height="50" id="sZ_4_3_I10" x="-25" y="-25" transform="matrix(1 0 0 -1 3206.2917 4013.3606)" style="overflow:visible;"/>
		
			<use xlink:href="#WC" width="50" height="50" id="sZ_4_3_I9" x="-25" y="-25" transform="matrix(1 0 0 -1 3918.1904 4601.5913)" style="overflow:visible;"/>
		
			<use xlink:href="#WC" width="50" height="50" id="sZ_4_3_I8" x="-25" y="-25" transform="matrix(1 0 0 -1 3379.958 4601.5913)" style="overflow:visible;"/>
		
			<use xlink:href="#escalier" width="50" height="50" id="sZ_4_3_I7" x="-25" y="-25" transform="matrix(1 0 0 -1 2629.4636 4146.1187)" style="overflow:visible;"/>
		
			<use xlink:href="#escalier" width="50" height="50" id="sZ_4_3_I6" x="-25" y="-25" transform="matrix(1 0 0 -1 3073.0005 4588.6553)" style="overflow:visible;"/>
		
			<use xlink:href="#escalier" width="50" height="50" id="sZ_4_3_I5" x="-25" y="-25" transform="matrix(1 0 0 -1 2996.4717 4350.0444)" style="overflow:visible;"/>
		
			<use xlink:href="#escalier" width="50" height="50" id="sZ_4_3_I4" x="-25" y="-25" transform="matrix(1 0 0 -1 4262.2876 4704.6807)" style="overflow:visible;"/>
		
			<use xlink:href="#escalier" width="50" height="50" id="sZ_4_3_I3" x="-25" y="-25" transform="matrix(1 0 0 -1 2872.6208 4226.1938)" style="overflow:visible;"/>
		
			<use xlink:href="#ascenseur" width="50" height="50" id="sZ_4_3_I2" x="-25" y="-25" transform="matrix(1 0 0 -1 2979.1311 4156.8062)" style="overflow:visible;"/>
		
			<use xlink:href="#ascenseur" width="50" height="50" id="sZ_4_3_I1" x="-25" y="-25" transform="matrix(1 0 0 -1 3057.7725 4236.7754)" style="overflow:visible;"/>
	</g>
	<g id="Z_4_3_D">
	</g>
	<g id="Z_4_3_R">
		
		
	</g>
</g>
<defs id="defs_4_3">
<style type="text/css" id="css-common_4_3">image,text,tspan,use {pointer-events:none;}</style>
<style type="text/css" id="polygons_css_4_3">.P4_3_0{fill:#6CAFBC;stroke:#888888;stroke-width:10;stroke-linecap:square;}
.P4_3_1{fill:#C0C0C0;stroke:#C0C0C0;stroke-width:5;stroke-linecap:square;}
.P4_3_2{fill:#DAEBEE;stroke:#DAEBEE;stroke-width:5;stroke-linecap:square;}
.P4_3_3{fill:none;}
.P4_3_4{fill:#B6D7DD;stroke:#B8C5C7;stroke-width:5;stroke-linecap:square;}
.P4_3_5{fill:#E260E6;stroke:#D931DF;stroke-width:5;stroke-linecap:square;}
.P4_3_6{fill:#DAEBEE;stroke:#DAEBEE;stroke-width:5.0299;stroke-linecap:square;}
.P4_3_7{fill:#FFED47;stroke:#DFCE31;stroke-width:5;stroke-linecap:square;}
.P4_3_8{fill:#E53225;}
</style>
</defs>
<symbol id="WC" viewBox="-61 -61 122 122">
	<path style="fill:#009393;" d="M61,0c0-33.7-27.3-61-61-61S-61-33.7-61,0s27.3,61,61,61S61,33.7,61,0z"/>
	<path style="fill:#009393;" d="M0,61c-33.7,0-61-27.3-61-61s27.3-61,61-61c33.7,0,61,27.3,61,61S33.7,61,0,61z M0-52.1   c-28.8,0-52.1,23.3-52.1,52.1S-28.8,52.1,0,52.1c28.8,0,52.1-23.3,52.1-52.1S28.8-52.1,0-52.1z"/>
	<path style="fill:#009393;stroke:#FFFFFF;stroke-width:8;stroke-miterlimit:10;" d="M52.1,0c0-28.8-23.3-52.1-52.1-52.1   S-52.1-28.8-52.1,0S-28.8,52.1,0,52.1S52.1,28.8,52.1,0z"/>
	<g>
		<polygon style="fill:#FFFFFF;" points="4.8,32.5 4.8,-32.7 -1.3,-32.7 -1.3,32.5   "/>
		<path style="fill:#FFFFFF;" d="M1.7-0.1"/>
		<path style="fill:#FFFFFF;" d="M-20.7,22.3c3,0,5.4,2.4,5.4,5.4c0,3-2.4,5.4-5.4,5.4c-3,0-5.4-2.4-5.4-5.4    C-26,24.7-23.6,22.3-20.7,22.3L-20.7,22.3z"/>
		<path style="fill:#FFFFFF;" d="M-20.7,27.7"/>
		<path style="fill:#FFFFFF;" d="M-21.5-11.8v-18.8c0-3.4-5-3.4-5,0v18.8h-6.7l7.2,24.9h-1.2l-4.2-14.2c-1-3.1-5.3-1.8-4.3,1.5    l4.7,15.5c0.5,1.8,2.7,4.9,6.6,4.9h3.5l0,0h3.9c3.8,0,6.1-3.1,6.6-4.9l4.7-15.4C-4.7-2.9-9-4.2-10-1l-4.2,14.2h-1.2l7.2-24.9h-6.7    v-18.8c0-3.3-5-3.3-5,0v18.8L-21.5-11.8L-21.5-11.8z"/>
		<path style="fill:#FFFFFF;" d="M17.7,20.8c-3.8,0-6.8-3.1-6.8-7V-2.8c0-3.2,4.6-3.2,4.7,0v15.2h1.1v-42.1c0-4.3,6.2-4.2,6.2,0    v24.6h1.1v-24.6c0-4.2,6.2-4.3,6.2,0v42.1h1.1V-2.8c0-3.3,4.6-3.3,4.6,0v16.5c0,3.6-2.7,7.1-6.9,7.1L17.7,20.8L17.7,20.8z"/>
		<path style="fill:#FFFFFF;" d="M23.3,22.3c2.9,0,5.4,2.4,5.4,5.4c0,3-2.4,5.4-5.4,5.4c-3,0-5.4-2.4-5.4-5.4    C18,24.7,20.4,22.3,23.3,22.3L23.3,22.3z"/>
		<path style="fill:#FFFFFF;" d="M23.3,27.7"/>
	</g>
</symbol>
<symbol id="ascenseur" viewBox="-61 -61 122 122">
	<path style="fill:#009393;" d="M61,0c0-33.7-27.3-61-61-61S-61-33.7-61,0s27.3,61,61,61S61,33.7,61,0z"/>
	<path style="fill:#009393;" d="M0,61c-33.7,0-61-27.3-61-61s27.3-61,61-61c33.7,0,61,27.3,61,61S33.7,61,0,61z M0-52.1   c-28.8,0-52.1,23.3-52.1,52.1S-28.8,52.1,0,52.1c28.8,0,52.1-23.3,52.1-52.1S28.8-52.1,0-52.1z"/>
	<path style="fill:#009393;stroke:#FFFFFF;stroke-width:8;stroke-miterlimit:10;" d="M52.1,0c0-28.8-23.3-52.1-52.1-52.1   S-52.1-28.8-52.1,0S-28.8,52.1,0,52.1S52.1,28.8,52.1,0z"/>
	<g>
		<path style="fill:#FFFFFF;" d="M18.6,10.1H-18c-3.1,0-5.6-2.5-5.6-5.6v-33.6c0-3.1,2.5-5.6,5.6-5.6h36.6c3.1,0,5.6,2.5,5.6,5.6    V4.5C24.2,7.5,21.7,10.1,18.6,10.1z M19.7-29.2c0-0.6-0.5-1.1-1.1-1.1H-18c-0.6,0-1.1,0.5-1.1,1.1V4.5c0,0.6,0.5,1.1,1.1,1.1h36.6    c0.6,0,1.1-0.5,1.1-1.1V-29.2z"/>
		<path style="fill:#FFFFFF;" d="M-10.2,1.1c1.2,0,2.2-1,2.2-2.2s-1-2.2-2.2-2.2s-2.2,1-2.2,2.2S-11.4,1.1-10.2,1.1z"/>
		<path style="fill:#FFFFFF;" d="M0.3,1.1c1.2,0,2.2-1,2.2-2.2s-1-2.2-2.2-2.2s-2.2,1-2.2,2.2S-0.9,1.1,0.3,1.1z"/>
		<path style="fill:#FFFFFF;" d="M10.8,1.1c1.2,0,2.2-1,2.2-2.2s-1-2.2-2.2-2.2s-2.2,1-2.2,2.2S9.5,1.1,10.8,1.1z"/>
		<path style="fill:#FFFFFF;" d="M-7.2-4.1h-6c-0.8,0-1.5-0.7-1.5-1.6v-8c0-0.7,0.5-1.4,1.1-1.5V-25c0-0.8,0.7-1.5,1.5-1.5    s1.5,0.7,1.5,1.5v9.7h0.7V-25c0-0.8,0.7-1.5,1.5-1.5c0.8,0,1.5,0.7,1.5,1.5v9.8c0.6,0.2,1.1,0.8,1.1,1.5v8    C-5.7-4.9-6.3-4.1-7.2-4.1z"/>
		<path style="fill:#FFFFFF;" d="M3.3-4.1h-6c-0.8,0-1.5-0.7-1.5-1.6v-8c0-0.7,0.5-1.4,1.1-1.5V-25c0-0.8,0.7-1.5,1.5-1.5    s1.5,0.7,1.5,1.5v9.7h0.7V-25c0-0.8,0.7-1.5,1.5-1.5s1.5,0.7,1.5,1.5v9.8c0.6,0.2,1.1,0.8,1.1,1.5v8C4.8-4.9,4.1-4.1,3.3-4.1z"/>
		<path style="fill:#FFFFFF;" d="M13.7-4.1h-6c-0.8,0-1.5-0.7-1.5-1.6v-8c0-0.7,0.5-1.4,1.1-1.5V-25c0-0.8,0.7-1.5,1.5-1.5    s1.5,0.7,1.5,1.5v9.7h0.7V-25c0-0.8,0.7-1.5,1.5-1.5c0.8,0,1.5,0.7,1.5,1.5v9.8c0.6,0.2,1.1,0.8,1.1,1.5v8    C15.2-4.9,14.6-4.1,13.7-4.1z"/>
		<path style="fill:#FFFFFF;" d="M-2.1,28.6l-7.5,7.5c-1.2,1.2-3.1,1.2-4.2,0c0,0,0,0,0,0l-7.5-7.5c-1.2-1.2-1.2-3.1,0-4.2    c1.2-1.2,3.1-1.2,4.2,0l2.4,2.4V16c0-1.6,1.3-3,3-3c1.6,0,3,1.3,3,3v10.7l2.4-2.4c1.2-1.2,3.1-1.2,4.2,0S-0.9,27.4-2.1,28.6z"/>
		<path style="fill:#FFFFFF;" d="M21.8,25.6c-1.2,1.2-3.1,1.2-4.2,0l-2.4-2.4v10.7c0,1.6-1.3,3-3,3c-1.6,0-3-1.3-3-3V23.2l-2.4,2.4    c-1.2,1.2-3.1,1.2-4.2,0c-1.2-1.2-1.2-3.1,0-4.2l7.5-7.5l0,0c0.2-0.2,0.5-0.4,0.7-0.5c1.1-0.6,2.6-0.4,3.5,0.5l0,0l7.5,7.5    C23,22.5,23,24.4,21.8,25.6z"/>
	</g>
</symbol>
<symbol id="cafe" viewBox="-61 -61 122 122">
	<path style="fill:#009393;" d="M61,0c0-33.7-27.3-61-61-61S-61-33.7-61,0s27.3,61,61,61S61,33.7,61,0z"/>
	<path style="fill:#009393;" d="M0,61c-33.7,0-61-27.3-61-61s27.3-61,61-61S61-33.7,61,0S33.7,61,0,61z M0-52.1   c-28.8,0-52.1,23.3-52.1,52.1S-28.8,52.1,0,52.1c28.8,0,52.1-23.3,52.1-52.1S28.8-52.1,0-52.1z"/>
	<path style="fill:none;stroke:#FFFFFF;stroke-width:8;stroke-miterlimit:10;" d="M52.1,0c0-28.8-23.3-52.1-52.1-52.1   S-52.1-28.8-52.1,0S-28.8,52.1,0,52.1S52.1,28.8,52.1,0z"/>
	<g>
		<g>
			<g>
				<path style="fill:#FFFFFF;" d="M-7.8,11.2c-0.3,0-0.6,0.1-0.9,0.4c-0.5,0.5-0.5,1.3,0,1.8c1.6,1.5,1.8,3.6,0.5,5.4      c-2.1,3.3-2,6.4,0.4,8.8c0.5,0.5,1.3,0.5,1.8,0c0.5-0.5,0.5-1.3,0-1.8c-0.6-0.6-2.3-2.3-0.1-5.8c1.8-2.8,1.5-6.2-0.9-8.5      C-7.2,11.3-7.5,11.2-7.8,11.2L-7.8,11.2z"/>
			</g>
		</g>
		<g>
			<g>
				<path style="fill:#FFFFFF;" d="M-1.9,11.2c-0.3,0-0.6,0.1-0.9,0.4c-0.5,0.5-0.5,1.3,0,1.8c1.6,1.5,1.8,3.6,0.5,5.4      c-2.1,3.3-2,6.4,0.4,8.8c0.5,0.5,1.3,0.5,1.8,0c0.5-0.5,0.5-1.3,0-1.8c-0.6-0.6-2.3-2.3-0.1-5.8c1.8-2.8,1.5-6.2-0.9-8.5      C-1.3,11.3-1.6,11.2-1.9,11.2L-1.9,11.2z"/>
			</g>
		</g>
		<g>
			<g>
				<path style="fill:#FFFFFF;" d="M4,11.2c-0.3,0-0.6,0.1-0.9,0.4c-0.5,0.5-0.5,1.3,0,1.8c1.6,1.5,1.8,3.6,0.5,5.4      c-2.1,3.3-2,6.4,0.4,8.8c0.5,0.5,1.3,0.5,1.8,0s0.5-1.3,0-1.8c-0.6-0.6-2.3-2.3-0.1-5.8c1.8-2.8,1.5-6.2-0.9-8.5      C4.6,11.3,4.3,11.2,4,11.2L4,11.2z"/>
			</g>
		</g>
		<path style="fill:#FFFFFF;" d="M-26.6-23.1v-0.8c0-2.1,1.7-3.7,3.7-3.7h42.9c2.1,0,3.7,1.7,3.7,3.7v0.8H-26.6z"/>
		<path style="fill:#FFFFFF;" d="M24.8,6.6h-7.2c-0.1,0-0.1,0-0.2,0c-0.1,0-0.1,0-0.2,0h-38.6c-1.4,0-2.5-1.1-2.5-2.5v-7.8    c0-8.9,6-15.3,14.5-18.1H5.2C13-19.2,18.7-13.7,19.6-6h5.2c2.4,0,4.3,1.9,4.3,4.3v4C29.1,4.7,27.1,6.6,24.8,6.6z M25.8-1.6    c0-0.6-0.5-1.1-1.1-1.1h-5v6.1h5c0.6,0,1.1-0.5,1.1-1.1V-1.6z"/>
	</g>
</symbol>
<symbol id="escalier" viewBox="-61 -61 122 122">
	<path style="fill:#009393;" d="M61,0c0-33.7-27.3-61-61-61S-61-33.7-61,0s27.3,61,61,61S61,33.7,61,0z"/>
	<path style="fill:#009393;" d="M0,61c-33.7,0-61-27.3-61-61s27.3-61,61-61S61-33.7,61,0S33.7,61,0,61z M0-52.1   c-28.8,0-52.1,23.3-52.1,52.1S-28.8,52.1,0,52.1c28.8,0,52.1-23.3,52.1-52.1S28.8-52.1,0-52.1z"/>
	<path style="fill:#009393;stroke:#FFFFFF;stroke-width:8;stroke-miterlimit:10;" d="M52.1,0c0-28.8-23.3-52.1-52.1-52.1   S-52.1-28.8-52.1,0S-28.8,52.1,0,52.1S52.1,28.8,52.1,0z"/>
	<path style="fill:#FFFFFF;" d="M31.1,21.8c0-1.1-0.9-2-2-2h-9.4v-9.4c0-1.1-0.9-2-2-2H8.3l0-9.3C8.3-2,7.3-3,6.2-3h-9.3v-9.4   c0-1.1-0.9-2-2-2h-9.4v-9.4c0-1.1-0.9-2-2-2h-13.1c-1.1,0-2,0.9-2,2v1.7c0,1.1,0.9,2,2,2h9.4v9.4c0,1.1,0.9,2,2,2h9.4v9.4   c0,1.1,0.9,2,2,2h9.4v9.4c0,1.1,0.9,2,2,2H14v9.4c0,1.1,0.9,2,2,2h13.1c1.1,0,2-0.9,2-2V21.8z"/>
</symbol>
</svg>
