<?xml version="1.0" encoding="utf-8"?>
<!-- Generator: Adobe Illustrator 17.1.0, SVG Export Plug-In . SVG Version: 6.00 Build 0)  -->
<!DOCTYPE svg PUBLIC "-//W3C//DTD SVG 1.1//EN" "http://www.w3.org/Graphics/SVG/1.1/DTD/svg11.dtd">
<svg version="1.1" id="Calque_1" xmlns="http://www.w3.org/2000/svg" xmlns:xlink="http://www.w3.org/1999/xlink" x="0px" y="0px"
	 viewBox="0 0 132.7 132.6" style="enable-background:new 0 0 132.7 132.6;" xml:space="preserve">
<style type="text/css">
	.st0{fill:#E73331;}
	.st1{fill:#E73331;stroke:#FFFFFF;stroke-width:8;stroke-miterlimit:10;}
	.st2{fill:#FFFFFF;}
</style>
<g>
	<circle class="st0" cx="66.4" cy="66.3" r="61"/>
	<path class="st0" d="M66.4,5.3c-33.7,0-61,27.3-61,61s27.3,61,61,61s61-27.3,61-61S100.1,5.3,66.4,5.3z M66.4,118.4
		c-28.8,0-52.1-23.3-52.1-52.1s23.3-52.1,52.1-52.1s52.1,23.3,52.1,52.1S95.2,118.4,66.4,118.4z"/>
	<circle class="st1" cx="66.4" cy="66.3" r="52.1"/>
	<g>
		<path class="st2" d="M92,58.6H76.2V42.8c0-1.7-1.4-3.2-3.2-3.2H60.3c-1.8,0-3.2,1.4-3.2,3.2v15.8H41.3c-1.8,0-3.2,1.4-3.2,3.2
			v12.7c0,1.7,1.4,3.2,3.2,3.2h15.8v15.8c0,1.7,1.4,3.2,3.2,3.2H73c1.7,0,3.2-1.4,3.2-3.2V77.6H92c1.7,0,3.2-1.4,3.2-3.2V61.8
			C95.2,60,93.7,58.6,92,58.6"/>
	</g>
</g>
</svg>
