<?xml version="1.0" encoding="utf-8"?>
<!-- Generator: Adobe Illustrator 18.0.0, SVG Export Plug-In . SVG Version: 6.00 Build 0)  -->
<!DOCTYPE svg PUBLIC "-//W3C//DTD SVG 1.1//EN" "http://www.w3.org/Graphics/SVG/1.1/DTD/svg11.dtd">
<svg xmlns:cc="http://creativecommons.org/ns#" xmlns:dc="http://purl.org/dc/elements/1.1/" xmlns="http://www.w3.org/2000/svg" xmlns:svg="http://www.w3.org/2000/svg" xmlns:rdf="http://www.w3.org/1999/02/22-rdf-syntax-ns#" xmlns:xlink="http://www.w3.org/1999/xlink" version="1.1" id="mapsvg_1_3_-2_0_1" x="0px" y="0px" viewBox="0 0 12700 7500" xml:space="preserve">






<g id="Z_3_-2">
	<g id="Z_3_-2_B">
		<path id="Z_3_-2_B25" d="M5901,4149.6l-195.9-161.5    h0l-699.9-577l-736.5,893.4l-74.5,90.3l325,267.9h0l153,126.1h701.6v0l0,0l384.4-466.3L5901,4149.6z" class="P3_-2_0"/>
		<path id="Z_3_-2_B24" d="M5901,4149.6l-195.9-161.5h0l-699.9-577l-736.5,893.4l-74.5,90.3l325,267.9h0    l153,126.1h701.6v0l0,0l384.4-466.3L5901,4149.6z" class="P3_-2_1"/>
		<polygon id="Z_3_-2_B22" points="5184.5,3559 5005.2,3411.2 4933.3,3498.4 5070.2,3611.2 5167.2,3691.1     5183.3,3671.5 5128.8,3626.5   " class="P3_-2_2"/>
		
			<rect id="Z_3_-2_B21" x="5257.7" y="4332.3" transform="matrix(0.6361 -0.7716 0.7716 0.6361 -1343.3644 5936.9585)" width="729.5" height="120.8" class="P3_-2_2"/>
		
			<rect id="Z_3_-2_B20" x="5358.1" y="4735.4" transform="matrix(0.6361 -0.7716 0.7716 0.6361 -1711.6278 5879.7896)" width="39.2" height="38.1" class="P3_-2_2"/>
		<polygon id="Z_3_-2_B18" points="4953.8,4789 5112.3,4789 4938.1,4645.8 4938.8,4644.9 4828.3,4553.8     4771.5,4622.7 4770.9,4622.3 4649.2,4770 4672.3,4789 4672.3,4789 4820,4789 4820,4789 4820,4789 4953.8,4789   " class="P3_-2_2"/>
		
			<rect id="Z_3_-2_B17" x="4933" y="3859.5" transform="matrix(0.6361 -0.7716 0.7716 0.6361 -1194.7869 5258.6504)" width="89.1" height="72.9" class="P3_-2_2"/>
		
			<rect id="Z_3_-2_B16" x="4582.8" y="3906.3" transform="matrix(-0.6361 0.7716 -0.7716 -0.6361 10784.8643 3044.7454)" width="183.4" height="318.6" class="P3_-2_3"/>
		
			<rect id="Z_3_-2_B15" x="4952.5" y="3489.3" transform="matrix(-0.6361 0.7716 -0.7716 -0.6361 11025.5557 2102.1619)" width="129.2" height="323.5" class="P3_-2_3"/>
		
			<rect id="Z_3_-2_B14" x="5218.7" y="3786.1" transform="matrix(-0.6361 0.7716 -0.7716 -0.6361 11628.7227 2257.8813)" width="126.4" height="170.2" class="P3_-2_3"/>
		
			<rect id="Z_3_-2_B12" x="5148" y="3576.2" transform="matrix(-0.6361 0.7716 -0.7716 -0.6361 11288.8174 1919.3337)" width="87.6" height="91.2" class="P3_-2_3"/>
		<polygon id="Z_3_-2_B11" points="4920.3,4022.1 4977,3953.3 4921.1,3907.2 4977.8,3838.4 4784.9,3678.5     4671,3816.6   " class="P3_-2_3"/>
		
			<rect id="Z_3_-2_B10" x="4515.7" y="4062.7" transform="matrix(-0.7716 -0.6361 0.6361 -0.7716 5696.8408 10175.1201)" width="318.6" height="4.4" class="P3_-2_4"/>
		
			<rect id="Z_3_-2_B9" x="4703.2" y="3824.6" transform="matrix(-0.7716 -0.6361 0.6361 -0.7716 6117.5815 9850.0176)" width="247.7" height="4.4" class="P3_-2_4"/>
		
			<rect id="Z_3_-2_B8" x="5149.3" y="4485.8" transform="matrix(-0.6361 0.7716 -0.7716 -0.6361 12069.5654 3369.5234)" width="181.7" height="90.4" class="P3_-2_3"/>
		
			<rect id="Z_3_-2_B7" x="4484.3" y="4420.5" transform="matrix(-0.6361 0.7716 -0.7716 -0.6361 10969.9248 4051.8586)" width="90.3" height="384.7" class="P3_-2_3"/>
		
			<rect id="Z_3_-2_B6" x="4498.6" y="4281.9" transform="matrix(-0.6361 0.7716 -0.7716 -0.6361 10870.0088 3588.7104)" width="180.2" height="151.6" class="P3_-2_3"/>
		
			<rect id="Z_3_-2_B5" x="5196.1" y="4527.4" transform="matrix(-0.7716 -0.6361 0.6361 -0.7716 6404.4785 11358.625)" width="90.4" height="4.4" class="P3_-2_4"/>
		
			<rect id="Z_3_-2_B4" x="4511.3" y="4357.5" transform="matrix(-0.7716 -0.6361 0.6361 -0.7716 5353.5171 10641.4326)" width="151.6" height="4.4" class="P3_-2_2"/>
		<path id="Z_3_-2_B1" d="M5404.8,4751.5l32.1-39l-93.2-76.8l-32.1,39c0,0-29.3,40-87.7,45.7    c-35.4,3.4-65.7-12.3-84.2-25.2l-19-15.7l0,0l0,0l-348.9-287.6l-47.1,57.1l-68.5,83.1l113.1,93.3l58.4-70.9l245.1,202.1l0,0    l39.4,32.4h261.6l6-7.3l-29.4-24.3l24.9-30.2L5404.8,4751.5z" class="P3_-2_3"/>
		
			<rect id="Z_3_-2_B2" x="4696.1" y="4507.8" transform="matrix(-0.7716 -0.6361 0.6361 -0.7716 5580.9434 11023.7002)" width="146.6" height="4.4" class="P3_-2_2"/>
		<polygon id="Z_3_-2_B28" points="4557.6,4223.2 4535.6,4249.9 4495.5,4213.7 4446.5,4274.2 4420.8,4253.3     4469.7,4192.8 4432.7,4162.8 4399.4,4203.9 4384.5,4191.9 4438.8,4124.8   " class="P3_-2_5"/>
		<polygon id="Z_3_-2_B30" points="5291,3994.2 5328,4024.2 5351,3995.7 5425.5,4055.6 5449,4026.6     5514.4,4079.3 5359.9,4266.7 5383.7,4286 5528.9,4106.6 5585,4152.2 5605,4128.2 5548.5,4082.3 5555,4074.3 5446.8,3986.8     5425.1,4013.7 5339.8,3944.7 5312.6,3978.2 5307.4,3974.1   " class="P3_-2_5"/>
		<polygon id="Z_3_-2_B32" points="4535.6,4249.9 4495.5,4213.7 4446.5,4274.2 4420.8,4253.3 4469.7,4192.8     4432.7,4162.8 4399.4,4203.9 4384.5,4191.9 4438.8,4124.8 4557.6,4223.2 4560.5,4219.8 4428.7,4110.5 4194.2,4395 4352.3,4525.3     4561.3,4271.4   " class="P3_-2_2"/>
		<polygon id="Z_3_-2_B33" points="5389.3,4290.6 5434.5,4235.7 5497.1,4288.2 5598.7,4165 5584.2,4153     5584.9,4152.1 5528.9,4106.6 5383.7,4286   " class="P3_-2_2"/>
		<polygon id="Z_3_-2_B34" points="5184.7,4122.9 5359.9,4266.7 5514.4,4079.3 5449,4026.6 5425.5,4055.6     5351,3995.7 5328,4024.2 5291,3994.2   " class="P3_-2_2"/>
		<polygon id="Z_3_-2_B35" points="5257.3,3769.1 5254.5,3772.5 5384.9,3880 5307.4,3974.1 5312.6,3978.2     5339.8,3944.7 5425.1,4013.7 5446.8,3986.8 5555,4074.3 5548.5,4082.3 5604.8,4128 5640.4,4084.8   " class="P3_-2_2"/>
		<polygon id="Z_3_-2_B36" points="5300.8,4337.9 5359.9,4266.7 5184.7,4122.9 5240.8,4054.8 5104,3942     4989.3,4081.1 5107,4178.1 5107,4178.1   " class="P3_-2_3"/>
		<polygon id="Z_3_-2_B37" points="5434.5,4235.7 5389.3,4290.6 5383.4,4285.8 5324.6,4357.5 5394.9,4415.5     5453.5,4344.5 5498.7,4289.6   " class="P3_-2_3"/>
		
			<rect id="Z_3_-2_B38" x="5028.7" y="4063" transform="matrix(-0.7716 -0.6361 0.6361 -0.7716 6480.6797 10457.1826)" width="177.8" height="4.4" class="P3_-2_4"/>
		
			<rect id="Z_3_-2_B39" x="4935.3" y="4152.9" transform="matrix(-0.6361 0.7716 -0.7716 -0.6361 11583.3115 3246.0291)" width="181.7" height="403.2" class="P3_-2_3"/>
		
			<rect id="Z_3_-2_B40" x="4825.7" y="4351" transform="matrix(-0.7716 -0.6361 0.6361 -0.7716 6137.5391 10909.9668)" width="403.2" height="4.4" class="P3_-2_4"/>
	</g>
	<g id="Z_3_-2_A">
		<rect id="Z_3_-2_A1" x="5122.7" y="4261" width="10" height="10" class="P3_-2_1"/>
	</g>
	<g id="Z_3_-2_I">
		
			<use xlink:href="#parking_voiture_electrique" width="132.7" height="132.6" id="sZ_3_-2_I16" x="-66.4" y="-66.3" transform="matrix(0.3767 0 0 -0.3767 5109.1318 3729.8967)" style="overflow:visible;"/>
		
			<use xlink:href="#escalier" width="132.7" height="132.6" id="sZ_3_-2_I15" x="-66.4" y="-66.3" transform="matrix(0.3767 0 0 -0.3767 4375.2163 4218.3438)" style="overflow:visible;"/>
		
			<use xlink:href="#parking_voiture_handicape" width="132.7" height="132.6" id="sZ_3_-2_I14" x="-66.4" y="-66.3" transform="matrix(0.3767 0 0 -0.3767 5189.6626 4190.0107)" style="overflow:visible;"/>
		
			<use xlink:href="#parking_voiture_handicape" width="132.7" height="132.6" id="sZ_3_-2_I13" x="-66.4" y="-66.3" transform="matrix(0.3767 0 0 -0.3767 5406.9277 4331.8643)" style="overflow:visible;"/>
		
			<use xlink:href="#parking_voiture_handicape" width="132.7" height="132.6" id="sZ_3_-2_I12" x="-66.4" y="-66.3" transform="matrix(0.3767 0 0 -0.3767 4581.1304 4292.9341)" style="overflow:visible;"/>
		
			<use xlink:href="#parking_velo" width="132.7" height="132.6" id="sZ_3_-2_I11" x="-66.4" y="-66.3" transform="matrix(0.3767 0 0 -0.3767 5088.4585 3990.4373)" style="overflow:visible;"/>
		
			<use xlink:href="#parking_velo" width="132.7" height="132.6" id="sZ_3_-2_I10" x="-66.4" y="-66.3" transform="matrix(0.3767 0 0 -0.3767 5375.4731 4369.665)" style="overflow:visible;"/>
		
			<use xlink:href="#parking_velo" width="132.7" height="132.6" id="sZ_3_-2_I9" x="-66.4" y="-66.3" transform="matrix(0.3767 0 0 -0.3767 4658.8984 4363.2974)" style="overflow:visible;"/>
		
			<use xlink:href="#parking_velo" width="132.7" height="132.6" id="sZ_3_-2_I8" x="-66.4" y="-66.3" transform="matrix(0.3767 0 0 -0.3767 5234.2998 3821.9656)" style="overflow:visible;"/>
		
			<use xlink:href="#escalier" width="132.7" height="132.6" id="sZ_3_-2_I7" x="-66.4" y="-66.3" transform="matrix(0.3767 0 0 -0.3767 5859.5991 4148.1753)" style="overflow:visible;"/>
		
			<use xlink:href="#escalier" width="132.7" height="132.6" id="sZ_3_-2_I6" x="-66.4" y="-66.3" transform="matrix(0.3767 0 0 -0.3767 5377.4995 4752.209)" style="overflow:visible;"/>
		
			<use xlink:href="#escalier" width="132.7" height="132.6" id="sZ_3_-2_I5" x="-66.4" y="-66.3" transform="matrix(0.3767 0 0 -0.3767 5498.7065 3994.7827)" style="overflow:visible;"/>
		
			<use xlink:href="#escalier" width="132.7" height="132.6" id="sZ_3_-2_I4" x="-66.4" y="-66.3" transform="matrix(0.3767 0 0 -0.3767 4744.2354 4737.4771)" style="overflow:visible;"/>
		
			<use xlink:href="#escalier" width="132.7" height="132.6" id="sZ_3_-2_I3" x="-66.4" y="-66.3" transform="matrix(0.3767 0 0 -0.3767 4962.2466 3885.8728)" style="overflow:visible;"/>
		
			<use xlink:href="#ascenseur" width="132.7" height="132.6" id="sZ_3_-2_I2" x="-66.4" y="-66.3" transform="matrix(0.3767 0 0 -0.3767 4432.3726 4197.6548)" style="overflow:visible;"/>
		
			<use xlink:href="#ascenseur" width="132.7" height="132.6" id="sZ_3_-2_I1" x="-66.4" y="-66.3" transform="matrix(0.3767 0 0 -0.3767 5462.894 4226.6152)" style="overflow:visible;"/>
	</g>
	<g id="Z_3_-2_D" style="opacity:0.32;">
		<g id="Z_3_-2_D5">
			<g>
				
					<line style="fill:none;stroke:#5E5656;stroke-width:3;stroke-linecap:square;" x1="5601.7" y1="3934.1" x2="5696.3" y2="4012.1"/>
				<g>
					<polygon style="fill:#5E5656;" points="5680.9,4015.2 5680.7,4012.2 5695.4,4011.4 5693.5,3996.7 5696.5,3996.3 5698.8,4014.2             "/>
				</g>
			</g>
		</g>
		<g id="Z_3_-2_D4">
			<g>
				<line style="fill:none;stroke:#5E5656;stroke-width:3;stroke-linecap:square;" x1="5563.3" y1="3985.7" x2="5658" y2="4063.7"/>
				<g>
					<polygon style="fill:#5E5656;" points="5563.2,4001.5 5566.2,4001.1 5564.2,3986.4 5579,3985.6 5578.8,3982.6 5560.8,3983.6             "/>
				</g>
			</g>
		</g>
		<g id="Z_3_-2_D3">
			<g>
				
					<line style="fill:none;stroke:#5E5656;stroke-width:3;stroke-linecap:square;" x1="5412.6" y1="3780.1" x2="5507.3" y2="3858.1"/>
				<g>
					<polygon style="fill:#5E5656;" points="5491.8,3861.3 5491.6,3858.3 5506.4,3857.4 5504.4,3842.7 5507.4,3842.4 5509.8,3860.2             "/>
				</g>
			</g>
		</g>
		<g id="Z_3_-2_D2">
			<g>
				
					<line style="fill:none;stroke:#5E5656;stroke-width:3;stroke-linecap:square;" x1="5374.3" y1="3831.8" x2="5468.9" y2="3909.8"/>
				<g>
					<polygon style="fill:#5E5656;" points="5374.2,3847.6 5377.1,3847.2 5375.2,3832.5 5389.9,3831.6 5389.8,3828.6 5371.8,3829.7             "/>
				</g>
			</g>
		</g>
		
			<line id="Z_3_-2_D1" style="fill:none;stroke:#5E5656;stroke-width:3;stroke-linecap:square;" x1="5548" y1="3871.2" x2="5531.5" y2="3969.8"/>
	</g>
	<g id="Z_3_-2_R">
		
		
	</g>
</g>
<symbol id="ascenseur" viewBox="-61 -61 122 122">
	<path style="fill:#009393;" d="M61,0c0-33.7-27.3-61-61-61S-61-33.7-61,0s27.3,61,61,61S61,33.7,61,0z"/>
	<path style="fill:#009393;" d="M0,61c-33.7,0-61-27.3-61-61s27.3-61,61-61c33.7,0,61,27.3,61,61S33.7,61,0,61z M0-52.1   c-28.8,0-52.1,23.3-52.1,52.1S-28.8,52.1,0,52.1c28.8,0,52.1-23.3,52.1-52.1S28.8-52.1,0-52.1z"/>
	<path style="fill:#009393;stroke:#FFFFFF;stroke-width:8;stroke-miterlimit:10;" d="M52.1,0c0-28.8-23.3-52.1-52.1-52.1   S-52.1-28.8-52.1,0S-28.8,52.1,0,52.1S52.1,28.8,52.1,0z"/>
	<g>
		<path style="fill:#FFFFFF;" d="M18.6,10.1H-18c-3.1,0-5.6-2.5-5.6-5.6v-33.6c0-3.1,2.5-5.6,5.6-5.6h36.6c3.1,0,5.6,2.5,5.6,5.6    V4.5C24.2,7.5,21.7,10.1,18.6,10.1z M19.7-29.2c0-0.6-0.5-1.1-1.1-1.1H-18c-0.6,0-1.1,0.5-1.1,1.1V4.5c0,0.6,0.5,1.1,1.1,1.1h36.6    c0.6,0,1.1-0.5,1.1-1.1V-29.2z"/>
		<path style="fill:#FFFFFF;" d="M-10.2,1.1c1.2,0,2.2-1,2.2-2.2s-1-2.2-2.2-2.2s-2.2,1-2.2,2.2S-11.4,1.1-10.2,1.1z"/>
		<path style="fill:#FFFFFF;" d="M0.3,1.1c1.2,0,2.2-1,2.2-2.2s-1-2.2-2.2-2.2s-2.2,1-2.2,2.2S-0.9,1.1,0.3,1.1z"/>
		<path style="fill:#FFFFFF;" d="M10.8,1.1c1.2,0,2.2-1,2.2-2.2s-1-2.2-2.2-2.2s-2.2,1-2.2,2.2S9.5,1.1,10.8,1.1z"/>
		<path style="fill:#FFFFFF;" d="M-7.2-4.1h-6c-0.8,0-1.5-0.7-1.5-1.6v-8c0-0.7,0.5-1.4,1.1-1.5V-25c0-0.8,0.7-1.5,1.5-1.5    s1.5,0.7,1.5,1.5v9.7h0.7V-25c0-0.8,0.7-1.5,1.5-1.5c0.8,0,1.5,0.7,1.5,1.5v9.8c0.6,0.2,1.1,0.8,1.1,1.5v8    C-5.7-4.9-6.3-4.1-7.2-4.1z"/>
		<path style="fill:#FFFFFF;" d="M3.3-4.1h-6c-0.8,0-1.5-0.7-1.5-1.6v-8c0-0.7,0.5-1.4,1.1-1.5V-25c0-0.8,0.7-1.5,1.5-1.5    s1.5,0.7,1.5,1.5v9.7h0.7V-25c0-0.8,0.7-1.5,1.5-1.5s1.5,0.7,1.5,1.5v9.8c0.6,0.2,1.1,0.8,1.1,1.5v8C4.8-4.9,4.1-4.1,3.3-4.1z"/>
		<path style="fill:#FFFFFF;" d="M13.7-4.1h-6c-0.8,0-1.5-0.7-1.5-1.6v-8c0-0.7,0.5-1.4,1.1-1.5V-25c0-0.8,0.7-1.5,1.5-1.5    s1.5,0.7,1.5,1.5v9.7h0.7V-25c0-0.8,0.7-1.5,1.5-1.5c0.8,0,1.5,0.7,1.5,1.5v9.8c0.6,0.2,1.1,0.8,1.1,1.5v8    C15.2-4.9,14.6-4.1,13.7-4.1z"/>
		<path style="fill:#FFFFFF;" d="M-2.1,28.6l-7.5,7.5c-1.2,1.2-3.1,1.2-4.2,0c0,0,0,0,0,0l-7.5-7.5c-1.2-1.2-1.2-3.1,0-4.2    c1.2-1.2,3.1-1.2,4.2,0l2.4,2.4V16c0-1.6,1.3-3,3-3c1.6,0,3,1.3,3,3v10.7l2.4-2.4c1.2-1.2,3.1-1.2,4.2,0S-0.9,27.4-2.1,28.6z"/>
		<path style="fill:#FFFFFF;" d="M21.8,25.6c-1.2,1.2-3.1,1.2-4.2,0l-2.4-2.4v10.7c0,1.6-1.3,3-3,3c-1.6,0-3-1.3-3-3V23.2l-2.4,2.4    c-1.2,1.2-3.1,1.2-4.2,0c-1.2-1.2-1.2-3.1,0-4.2l7.5-7.5l0,0c0.2-0.2,0.5-0.4,0.7-0.5c1.1-0.6,2.6-0.4,3.5,0.5l0,0l7.5,7.5    C23,22.5,23,24.4,21.8,25.6z"/>
	</g>
</symbol>
<symbol id="escalier" viewBox="-61 -61 122 122">
	<path style="fill:#009393;" d="M61,0c0-33.7-27.3-61-61-61S-61-33.7-61,0s27.3,61,61,61S61,33.7,61,0z"/>
	<path style="fill:#009393;" d="M0,61c-33.7,0-61-27.3-61-61s27.3-61,61-61S61-33.7,61,0S33.7,61,0,61z M0-52.1   c-28.8,0-52.1,23.3-52.1,52.1S-28.8,52.1,0,52.1c28.8,0,52.1-23.3,52.1-52.1S28.8-52.1,0-52.1z"/>
	<path style="fill:#009393;stroke:#FFFFFF;stroke-width:8;stroke-miterlimit:10;" d="M52.1,0c0-28.8-23.3-52.1-52.1-52.1   S-52.1-28.8-52.1,0S-28.8,52.1,0,52.1S52.1,28.8,52.1,0z"/>
	<path style="fill:#FFFFFF;" d="M31.1,21.8c0-1.1-0.9-2-2-2h-9.4v-9.4c0-1.1-0.9-2-2-2H8.3l0-9.3C8.3-2,7.3-3,6.2-3h-9.3v-9.4   c0-1.1-0.9-2-2-2h-9.4v-9.4c0-1.1-0.9-2-2-2h-13.1c-1.1,0-2,0.9-2,2v1.7c0,1.1,0.9,2,2,2h9.4v9.4c0,1.1,0.9,2,2,2h9.4v9.4   c0,1.1,0.9,2,2,2h9.4v9.4c0,1.1,0.9,2,2,2H14v9.4c0,1.1,0.9,2,2,2h13.1c1.1,0,2-0.9,2-2V21.8z"/>
</symbol>
<symbol id="parking_velo" viewBox="-61 -61 122 122">
	<path style="fill:#009393;" d="M61,0c0-33.7-27.3-61-61-61S-61-33.7-61,0s27.3,61,61,61S61,33.7,61,0z"/>
	<path style="fill:#009393;" d="M0,61c-33.7,0-61-27.3-61-61s27.3-61,61-61S61-33.7,61,0S33.7,61,0,61z M0-52.1   c-28.8,0-52.1,23.3-52.1,52.1S-28.8,52.1,0,52.1c28.8,0,52.1-23.3,52.1-52.1S28.8-52.1,0-52.1z"/>
	<path style="fill:#009393;stroke:#FFFFFF;stroke-width:8;stroke-miterlimit:10;" d="M52.1,0c0-28.8-23.3-52.1-52.1-52.1   S-52.1-28.8-52.1,0S-28.8,52.1,0,52.1S52.1,28.8,52.1,0z"/>
	<g>
		<g>
			<path style="fill:#FFFFFF;" d="M-14.6,30.7h-12.5c-2.6,0-4.1-1.4-4.1-4.1v-40.2c0-2.5,1.4-4.1,3.8-4.1c2.4,0,3.9,1.5,3.9,4.1     v13.5h9.3C-4.7-0.1,2,6.2,2,15.2C2,24.3-4.8,30.7-14.6,30.7z M-14.9,6.4l-8.7,0v17.9h8.7c5.1,0,8.7-3.8,8.7-9     C-6.1,10.1-9.8,6.4-14.9,6.4z"/>
		</g>
		<g>
			<g>
				<path style="fill:#FFFFFF;" d="M-9.8-34.3c-5.6,0-10.1,4.5-10.1,10.1s4.5,10.1,10.1,10.1c5.6,0,10.1-4.5,10.1-10.1      S-4.2-34.3-9.8-34.3z"/>
			</g>
			<g>
				<path style="fill:#FFFFFF;" d="M21.7-34.3c-5.6,0-10.1,4.5-10.1,10.1s4.5,10.1,10.1,10.1s10.1-4.5,10.1-10.1      S27.3-34.3,21.7-34.3z"/>
			</g>
			<g>
				<path style="fill:#FFFFFF;" d="M21.7-22.4c1,0,1.8-0.8,1.8-1.8s-0.8-1.8-1.8-1.8s-1.8,0.8-1.8,1.8S20.7-22.4,21.7-22.4z"/>
			</g>
			<g>
				<path style="fill:#FFFFFF;" d="M-9.8-22.4c1,0,1.8-0.8,1.8-1.8s-0.8-1.8-1.8-1.8s-1.8,0.8-1.8,1.8S-10.8-22.4-9.8-22.4z"/>
			</g>
			<g>
				<path style="fill:#FFFFFF;" d="M21.7-25.4c-0.5,0-0.9,0.3-1.1,0.8l-5.1,13.9L5.1-25c-0.2-0.3-0.6-0.5-1-0.5h-14      c-0.5,0-0.9,0.3-1.1,0.7c-0.2,0.4-0.2,0.9,0.1,1.2l8.5,10.9c0.2,0.2,0.4,0.3,0.6,0.4l17.1,5.1c0,0,0,0,0.1,0c0.1,0,0.3,0,0.4,0      c0.2,0,0.3-0.1,0.5-0.2c0.1-0.1,0.2-0.1,0.3-0.2l0,0c0,0,0,0,0,0c0.1-0.1,0.2-0.2,0.2-0.4l5.9-16c0.2-0.6-0.1-1.3-0.7-1.5      C22-25.4,21.8-25.4,21.7-25.4z M-7.4-23.1h11l9.2,12.7l-13.4-4L-7.4-23.1z"/>
			</g>
			<g>
				<path style="fill:#FFFFFF;" d="M4.2-25.4c-0.4,0-0.9,0.3-1.1,0.7l-6.5,13.9c-0.3,0.6,0,1.3,0.6,1.6c0.6,0.3,1.3,0,1.6-0.6      l6.5-13.9c0.3-0.6,0-1.3-0.6-1.6C4.5-25.4,4.4-25.4,4.2-25.4z"/>
			</g>
			<g>
				<path style="fill:#FFFFFF;" d="M-5-11.5c-0.5,0-0.9,0.3-1.1,0.7c-0.2,0.6,0,1.3,0.7,1.5l5.3,2.2c0.6,0.2,1.3,0,1.5-0.7      c0.2-0.6,0-1.3-0.6-1.5l-5.3-2.2C-4.7-11.5-4.8-11.5-5-11.5z"/>
			</g>
			<g>
				<path style="fill:#FFFFFF;" d="M15.5-9.7c-0.2,0-0.4,0.1-0.6,0.2c-0.6,0.4-0.7,1.1-0.4,1.6L16-5.5l-0.4,1.6L12-4.3      c-0.6-0.1-1.2,0.4-1.3,1.1c-0.1,0.6,0.4,1.2,1.1,1.3l4.7,0.5c0.6,0.1,1.1-0.3,1.3-0.9l0.7-3.1c0.1-0.3,0-0.6-0.2-0.9l-1.8-2.8      C16.3-9.5,15.9-9.7,15.5-9.7z"/>
			</g>
		</g>
	</g>
</symbol>
<symbol id="parking_voiture_electrique" viewBox="-61 -61 122 122">
	<path style="fill:#009393;" d="M61,0c0-33.7-27.3-61-61-61S-61-33.7-61,0s27.3,61,61,61S61,33.7,61,0z"/>
	<path style="fill:#009393;" d="M0,61c-33.7,0-61-27.3-61-61s27.3-61,61-61S61-33.7,61,0S33.7,61,0,61z M0-52.1   c-28.8,0-52.1,23.3-52.1,52.1S-28.8,52.1,0,52.1c28.8,0,52.1-23.3,52.1-52.1S28.8-52.1,0-52.1z"/>
	<path style="fill:#009393;stroke:#FFFFFF;stroke-width:8;stroke-miterlimit:10;" d="M52.1,0c0-28.8-23.3-52.1-52.1-52.1   S-52.1-28.8-52.1,0S-28.8,52.1,0,52.1S52.1,28.8,52.1,0z"/>
	<g>
		<g>
			<path style="fill:#FFFFFF;" d="M33.1-5.5h-1.1v3.4c0,0.4-0.4,0.8-0.8,0.8c-0.4,0-0.8-0.4-0.8-0.8v-3.4h-4.4v3.4     c0,0.4-0.4,0.8-0.8,0.8s-0.8-0.4-0.8-0.8v-3.4h-1.1c-0.4,0-0.8-0.4-0.8-0.8l0.6-5.9c0-0.4,0.4-0.8,0.8-0.8h1.6l0-2.7     c0-0.7,0.5-1.2,1.2-1.3v-4.8c0-0.4-0.2-1.3-1.2-1.4h-8.9v3.1c0,1.3-0.4,3.3-0.8,4.4l-0.6,1.7h0.9c1.2,0,2.1,0.9,2.1,2.1     s-0.9,2.1-2.1,2.1h-2.5l-1.8,4.7c-0.5,1.2-1.8,2.4-3,2.8c0,0-3.2,0.9-9.7,0.9s-9.7-0.9-9.7-0.9c-1.2-0.3-2.6-1.6-3-2.8l-1.8-4.7     H-18c-1.2,0-2.1-0.9-2.1-2.1s0.9-2.1,2.1-2.1h0.9l-0.6-1.7c-0.5-1.2-0.8-3.2-0.8-4.4v-10c0-1.5,1.2-2.7,2.7-2.7     c1.5,0,2.7,1.2,2.7,2.7v1.5h24.5V-30c0-1.5,1.2-2.7,2.7-2.7c1.5,0,2.7,1.2,2.7,2.7v3.7l10.6,0c1.3,0,2.6,1.3,2.7,2.5l0,6.9     c0.7,0,1.2,0.6,1.2,1.3l0,2.7h1.4c0.4,0,0.8,0.4,0.8,0.8l0.5,5.9C33.9-5.8,33.6-5.5,33.1-5.5z M-13.3-12.4l2.2,5.8     c0.1,0.4,0.6,0.7,1,0.7H8.3c0.4,0,0.9-0.3,1-0.7l2.2-5.8c0.1-0.4-0.1-0.7-0.5-0.7h-23.7C-13.2-13.1-13.4-12.8-13.3-12.4z      M-10-20.8c0-0.6-0.5-1.1-1.1-1.1h-3.3c-0.6,0-1.1,0.5-1.1,1.1v2c0,0.6,0.5,1.1,1.1,1.1l3.3-0.3c0.6,0,1.1-0.5,1.1-1.1V-20.8z      M13.6-20.8c0-0.6-0.5-1.1-1.1-1.1H9.2c-0.6,0-1.1,0.5-1.1,1.1v1.7c0,0.6,0.5,1.1,1.1,1.1l3.3,0.3c0.6,0,1.1-0.5,1.1-1.1     L13.6-20.8L13.6-20.8z"/>
		</g>
		<g>
			<path style="fill:#FFFFFF;" d="M-15.2,29.5h-12c-2.5,0-3.9-1.4-3.9-3.9v-38.5c0-2.4,1.4-3.9,3.7-3.9c2.3,0,3.7,1.5,3.7,3.9V0h8.9     c9.1,0,15.5,6,15.5,14.6C0.7,23.4-5.9,29.5-15.2,29.5z M-15.4,6.2l-8.3,0v17.1h8.3c4.8,0,8.4-3.6,8.4-8.6     C-7.1,9.8-10.6,6.2-15.4,6.2z"/>
		</g>
	</g>
</symbol>
<symbol id="parking_voiture_handicape" viewBox="-61 -61 122 122">
	<path style="fill:#009393;" d="M61,0c0-33.7-27.3-61-61-61S-61-33.7-61,0s27.3,61,61,61S61,33.7,61,0z"/>
	<path style="fill:#009393;" d="M0,61c-33.7,0-61-27.3-61-61s27.3-61,61-61S61-33.7,61,0S33.7,61,0,61z M0-52.1   c-28.8,0-52.1,23.3-52.1,52.1S-28.8,52.1,0,52.1c28.8,0,52.1-23.3,52.1-52.1S28.8-52.1,0-52.1z"/>
	<path style="fill:#009393;stroke:#FFFFFF;stroke-width:8;stroke-miterlimit:10;" d="M52.1,0c0-28.8-23.3-52.1-52.1-52.1   S-52.1-28.8-52.1,0S-28.8,52.1,0,52.1S52.1,28.8,52.1,0z"/>
	<g>
		<g>
			<path style="fill:#FFFFFF;" d="M-12.1,31h-12.5c-2.6,0-4-1.4-4-4v-40c0-2.5,1.4-4,3.8-4c2.4,0,3.8,1.5,3.8,4V0.4h9.3     c9.5,0,16.1,6.3,16.1,15.2C4.4,24.6-2.4,31-12.1,31z M-12.3,6.8l-8.6,0v17.8h8.6c5,0,8.7-3.7,8.7-8.9C-3.6,10.5-7.3,6.8-12.3,6.8     z"/>
		</g>
		<g>
			<path style="fill:#FFFFFF;" d="M14.3-7.8c0-1.1,0-2,0-3.1c0.5,0,0.8,0,1.2,0c2.8,0,5.6,0,8.4,0c1.2,0,2.1-0.5,2.7-1.5     c2.1-3.7,4.2-7.3,6.3-11c0.2-0.4,0.4-0.9,0.5-1.4c0.1-1-0.3-1.8-1.2-2.3c-0.8-0.4-1.9-0.2-2.6,0.5c-0.3,0.3-0.6,0.7-0.8,1     c-1.5,2.6-3.1,5.2-4.5,7.9c-0.3,0.6-0.7,0.8-1.3,0.8c-3.9,0-7.7,0-11.6,0c-3,0-4.4,1.3-4.7,4.3C6.4-8.9,6.2-5.1,6-1.4     C5.9,0.9,7.4,2.7,9.5,2.9c2.3,0.1,4-1.4,4.2-3.8C13.8-2,13.9-3,14-4.2c2.2,0,4.4,0,6.5,0c0.4,0,0.9,0,1.3-0.1     c1-0.2,1.6-1,1.5-1.8c-0.1-0.9-0.7-1.6-1.7-1.6c-1.6-0.1-3.1,0-4.7,0C16-7.8,15.1-7.8,14.3-7.8z"/>
			<path style="fill:#FFFFFF;" d="M23.8-21.5c0.7-1.2,1.3-2.2,1.8-3.2c0.1-0.2,0.1-0.6-0.1-0.9c-3-6.3-10.4-9.7-17.2-7.9     c-7,1.8-11.7,8.2-11.3,15.3c0.3,4.9,2.5,8.8,6.4,11.6c0.2,0.1,0.3,0.2,0.6,0.3c0.1-1.1,0.2-2.2,0.2-3.2c0-0.3-0.3-0.7-0.5-1     c-6.3-6.3-3.9-17,4.6-19.8c6.2-2.1,13.1,1.4,15.1,7.7C23.5-22.3,23.6-22,23.8-21.5z"/>
			<path style="fill:#FFFFFF;" d="M9.5,11.6c2.2,0,4-1.7,4-4c0-2.2-1.8-4-4-4c-2.1,0-4,1.8-4,3.9C5.5,9.8,7.3,11.6,9.5,11.6z"/>
		</g>
	</g>
</symbol>
<defs id="defs_3_-2">
<style type="text/css" id="polygons_css_3_-2">.P3_-2_0{fill:#FFFFFF;stroke:#888888;stroke-width:10;stroke-linecap:square;}
.P3_-2_1{fill:#FFFFFF;}
.P3_-2_2{fill:#C0C0C0;}
.P3_-2_3{fill:#CAEFF0;}
.P3_-2_4{fill:#78D6D9;}
.P3_-2_5{fill:#95B5B7;}
.P3_-2_6{fill:#FF0000;}
</style>
</defs>
</svg>
