<?xml version="1.0" encoding="utf-8"?>
<!-- Generator: Adobe Illustrator 18.0.0, SVG Export Plug-In . SVG Version: 6.00 Build 0)  -->
<!DOCTYPE svg PUBLIC "-//W3C//DTD SVG 1.1//EN" "http://www.w3.org/Graphics/SVG/1.1/DTD/svg11.dtd">
<svg xmlns:dc="http://purl.org/dc/elements/1.1/" xmlns="http://www.w3.org/2000/svg" xmlns:svg="http://www.w3.org/2000/svg" xmlns:rdf="http://www.w3.org/1999/02/22-rdf-syntax-ns#" xmlns:cc="http://creativecommons.org/ns#" xmlns:xlink="http://www.w3.org/1999/xlink" version="1.1" id="mapsvg_1_4_1_0_1" x="0px" y="0px" viewBox="0 0 12700 7500" xml:space="preserve">







<g id="Z_4_1">
	<g id="Z_4_1_B">
		<path id="Z_4_1_B35" d="M7733.3,1520.2l-577.5-470.4    l-57.8-47.1l-0.1-0.1l-91.6-74.6l-889.6,1092.2l46,37.5l-22.9,28.1l-30.2-24.6l-128.7,158l30.2,24.6l-21.4,26.3l-45.9-37.4    l-868,1065.7l144.6,117.7v0l674.6,550.6l362.9-445l23.2,18.9l127.2-156.8l-23.2-18.9l379.2-465.5L6621,2782.7l-86.7,106.4    l-532-433.4l86-105.6l61.2,49.9l173-212.3l-56.3-45.8l65.5-80.5l529,430.9l-65.4,80.3l143.1,116.6l380.1-467l27.5,22.4    l128.6-157.9l-26.9-21.9l380.1-467.6L7733.3,1520.2z M6350.4,3114.9l-108.3,133.5l-34.8-28.3l-127.5,156.5l34.8,28.3l-155.5,190.4    L5427,3162l391.3-480.4L6350.4,3114.9z M7304.2,1947.8l-30.3-24.7L7145.3,2081l30.3,24.7l-108.3,133.1l-529-430.9l407.6-500.4    l529,430.9L7304.2,1947.8z" class="P4_1_0"/>
		<path id="Z_4_1_B34" d="M7733.9,1520.1l-577.5-470.4l-57.8-47.1l-0.1-0.1l-91.6-74.6L6117.2,2020l46,37.5    l-22.9,28.1l-30.2-24.6l-128.7,158l30.2,24.6l-21.4,26.3l-45.9-37.4l-868,1065.7l144.6,117.7v0l674.6,550.6l362.3-445.5l23.8,19.4    l127.2-156.8l-23.2-18.9l379.1-465.5l-143.1-116.6l-86.7,106.4l-532-433.4l86-105.6l61.2,49.9l173-212.3l-56.3-45.8l65.5-80.5    l529,430.9l-65.4,80.3l143.1,116.6l367.6-476.6l39.4,32.1l128.6-157.9l-26.9-21.9l380.7-467.7L7733.9,1520.1z M6351,3114.9    l-108.3,133.5L6208,3220l-127.5,156.5l34.8,28.3l-155.5,190.4l-532-433.4l391.3-480.4L6351,3114.9z M7304.2,1947.8l-30.3-24.7    L7145.3,2081l30.3,24.7l-107.7,133.1l-529-430.9l407.6-500.4l529,430.9L7304.2,1947.8z" class="P4_1_1"/>
		
			<rect id="Z_4_1_B33" x="6127.6" y="2118.4" transform="matrix(0.7753 0.6315 -0.6315 0.7753 2786.3245 -3424.8132)" width="158.7" height="170.9" class="P4_1_2"/>
		
			<rect id="Z_4_1_B31" x="6093.6" y="3427.9" transform="matrix(0.7753 0.6315 -0.6315 0.7753 3552.8733 -3099.4026)" width="78.4" height="32.3" class="P4_1_2"/>
		<polygon id="Z_4_1_B30" points="6408.1,3383.7 6384.9,3364.8 6406,3339 6344.4,3288.8 6177,3501.5     6235.4,3548.4 6257.7,3521.6 6280.9,3540.5   " class="P4_1_2"/>
		
			<rect id="Z_4_1_B29" x="5796.6" y="2542.4" transform="matrix(0.7753 0.6315 -0.6315 0.7753 2951.0132 -3102.6213)" width="79.5" height="108.1" class="P4_1_3"/>
		<polygon id="Z_4_1_B28" points="6097.3,2307.2 6051.3,2269.7 6024.2,2303 6024.2,2303 5857.6,2507.8     5918.3,2557.8 6086.9,2354.1 6070.1,2340.4   " class="P4_1_3"/>
		
			<rect id="Z_4_1_B27" x="6132.1" y="2291" transform="matrix(0.7753 0.6315 -0.6315 0.7753 2863.3315 -3364.1743)" width="56.2" height="102.9" class="P4_1_3"/>
		
			<rect id="Z_4_1_B26" x="6276.2" y="1955.7" transform="matrix(0.7753 0.6315 -0.6315 0.7753 2686.3535 -3541.1628)" width="88.4" height="99" class="P4_1_3"/>
		
			<rect id="Z_4_1_B25" x="6482.5" y="1980.8" transform="matrix(0.7753 0.6315 -0.6315 0.7753 2743.8181 -3668.1277)" width="90.4" height="83.4" class="P4_1_3"/>
		
			<rect id="Z_4_1_B24" x="6431" y="1767.7" transform="matrix(0.7753 0.6315 -0.6315 0.7753 2602.6621 -3677.593)" width="78.8" height="103.4" class="P4_1_3"/>
		<polygon id="Z_4_1_B23" points="6945.8,1307.5 6877.1,1251.5 6938.3,1176.4 7006.8,1232.6   " class="P4_1_3"/>
		
			<rect id="Z_4_1_B22" x="7664.9" y="1496.8" transform="matrix(0.7753 0.6315 -0.6315 0.7753 2703.7715 -4507.1821)" width="44" height="99.7" class="P4_1_3"/>
		
			<rect id="Z_4_1_B21" x="7362.3" y="1821" transform="matrix(0.7753 0.6315 -0.6315 0.7753 2856.4534 -4249.2036)" width="76.8" height="138.6" class="P4_1_3"/>
		<polygon id="Z_4_1_B20" points="7236.6,2031.1 7206.2,2005.9 7273.9,1923.2 7304.2,1947.8   " class="P4_1_3"/>
		<polygon id="Z_4_1_B19" points="7043.7,2391.2 6983.1,2342.1 6931,2406 6990.9,2456.2   " class="P4_1_3"/>
		<polygon id="Z_4_0_B18" points="6931,2406 6854.2,2343 6906.3,2279 6983.1,2342.1   " class="P4_1_3"/>
		<polygon id="Z_4_1_B16" points="7061.3,2370.6 7000.2,2320.9 7119.4,2174.8 7180.5,2224.5   " class="P4_1_3"/>
		
			<rect id="Z_4_1_B15" x="6385.7" y="3025.6" transform="matrix(0.7753 0.6315 -0.6315 0.7753 3392.7734 -3365.2295)" width="81.4" height="121" class="P4_1_3"/>
		<polygon id="Z_4_1_B14" points="6584.8,2956.1 6521.6,2904.7 6497.4,2934.4 6458.1,2902.3 6411.4,2959.7     6470.8,3008.1 6470.8,3008.1 6513.9,3043.2   " class="P4_1_3"/>
		
			<rect id="Z_4_1_B13" x="6234" y="2818.9" transform="matrix(0.7753 0.6315 -0.6315 0.7753 3208.0898 -3312.2854)" width="51.3" height="68.1" class="P4_1_3"/>
		<polygon id="Z_4_1_B12" points="6115,3405 6079.8,3376.6 6148.6,3292.2 6183.8,3320.6   " class="P4_1_3"/>
		<polygon id="Z_4_1_B11" points="6058,3597.6 5998.4,3548.3 6092.2,3431.8 6152.8,3481.2   " class="P4_1_3"/>
		
			<rect id="Z_4_1_B10" x="6119.1" y="3507" transform="matrix(0.7753 0.6315 -0.6315 0.7753 3646.345 -3083.7241)" width="76.8" height="152.4" class="P4_1_3"/>
		
			<rect id="Z_4_1_B8" x="7059.4" y="1224.6" transform="matrix(0.7753 0.6315 -0.6315 0.7753 2406.2515 -4233.3965)" width="188" height="81.7" class="P4_1_3"/>
		
			<rect id="Z_4_1_B7" x="7403.3" y="1536.5" transform="matrix(0.7753 0.6315 -0.6315 0.7753 2689.8398 -4406.9282)" width="271.5" height="81.5" class="P4_1_3"/>
		<polygon id="Z_4_1_B6" points="7025.9,1214.6 6958.5,1159.8 7010.6,1095.8 7077.8,1151.2   " class="P4_1_3"/>
		
			<rect id="Z_4_1_B4" x="5303.1" y="3172.3" transform="matrix(0.7753 0.6315 -0.6315 0.7753 3217.968 -2653.3545)" width="70.6" height="48.1" class="P4_1_3"/>
		
			<rect id="Z_4_1_B3" x="5243.1" y="3232.3" transform="matrix(0.7753 0.6315 -0.6315 0.7753 3252.8691 -2600.1929)" width="76.1" height="79.4" class="P4_1_3"/>
		
			<rect id="Z_4_1_B2" x="5677.3" y="3661.9" transform="matrix(0.7753 0.6315 -0.6315 0.7753 3643.0564 -2835.1677)" width="258.4" height="82.1" class="P4_1_3"/>
		<polygon id="Z_4_1_B1" points="5841.5,3923.1 5752.7,3850 5781.4,3813.4 5871.3,3886.6   " class="P4_1_3"/>
		<polygon id="Z_4_1_B36" points="5730.2,3832 5727.1,3829.5 5747.3,3804.1 5670.7,3742.5 5697,3710.9     5700,3713.5 5676.4,3741.9 5752.9,3803.5   " class="P4_1_3"/>
		
			<rect id="Z_4_1_B37" x="5313.9" y="3337.7" transform="matrix(0.7753 0.6315 -0.6315 0.7753 3348.4773 -2658.2217)" width="193.2" height="79.4" class="P4_1_3"/>
		
			<rect id="Z_4_1_B38" x="5333.7" y="3134.5" transform="matrix(0.7753 0.6315 -0.6315 0.7753 3201.1277 -2681.103)" width="70.6" height="48.7" class="P4_1_3"/>
		<polygon id="Z_4_1_B40" points="6126.4,2727.4 6049,2664.3 6132.4,2561.8 6209.9,2624.9 6168.5,2675.6     6120.8,2636.1 6091.3,2672.4 6139.6,2711.8   " class="P4_1_3"/>
		
			<rect id="Z_4_1_B39" x="6180.4" y="2626.4" transform="matrix(0.7753 0.6316 -0.6316 0.7753 3090.8474 -3303.3215)" width="15.6" height="132.1" class="P4_1_3"/>
		<polygon id="Z_4_1_B41" points="6264.1,3221.4 6322.5,3269.5 6242.5,3367.7 6148.6,3292.2 6207.3,3220.1     6242.1,3248.4   " class="P4_1_2"/>
		
			<rect id="Z_4_1_B42" x="6344.6" y="1888.8" transform="matrix(0.7753 0.6315 -0.6315 0.7753 2660.3169 -3617.45)" width="140.2" height="83.4" class="P4_1_3"/>
		<polygon id="Z_4_1_B43" points="7363.2,1996.6 7303.7,1948 7327.1,1919.7 7386.7,1968.3   " class="P4_1_2"/>
		<polygon id="Z_4_1_B44" points="7474.7,2086.8 7447.8,2064.9 7472.7,2033.4 7416.8,1987.8 7239.4,2204.6     7296.1,2249.8 7318.6,2222.2 7346.1,2244.7   " class="P4_1_2"/>
		<polygon id="Z_4_1_B45" points="7152.9,2133.5 7211.3,2184.4 7297.2,2079.7 7206.2,2005.9 7145.3,2081     7175.5,2105.7   " class="P4_1_2"/>
		<polygon id="Z_4_1_B46" points="6974.8,2476 6914.6,2426.2 6825.6,2535.5 6877.3,2577.6 6947.5,2491.3     6956.3,2498.8   " class="P4_1_3"/>
		<polygon id="Z_4_1_B47" points="6990.9,2456.2 6931,2406 6914.6,2426.2 6974.8,2476   " class="P4_1_4"/>
		<polygon id="Z_4_1_B48" points="5310.2,3347 5285.6,3326.8 5335.7,3265.2 5360.3,3285.4   " class="P4_1_4"/>
		
			<rect id="Z_4_1_B49" x="6465.6" y="1942.7" transform="matrix(0.7753 0.6315 -0.6315 0.7753 2709.1248 -3647.0674)" width="30.4" height="83.4" class="P4_1_4"/>
		<polygon id="Z_4_1_B50" points="7054.7,1237.7 7025.9,1214.6 7077.8,1151.2 7106.3,1174.4   " class="P4_1_4"/>
		<polygon id="Z_4_1_B51" points="6126.4,2727.4 6139.6,2711.8 6091.3,2672.4 6120.8,2636.1 6168.5,2675.6     6209.9,2624.9 6223.9,2636.3 6140.4,2738.8   " class="P4_1_4"/>
		<polygon id="Z_4_1_B52" points="7302.5,1950.4 7361.9,1999.1 7299.3,2079.5 7238.5,2028.8   " class="P4_1_4"/>
		<polygon id="Z_4_1_B53" points="6183.2,3321.4 6242.8,3369.8 6176.3,3454.2 6115.2,3404.9   " class="P4_1_4"/>
		<polygon id="Z_4_1_B54" points="6011.6,2243.5 5980.7,2219 6110.1,2060.9 6140.3,2085.5   " class="P4_1_2"/>
	</g>
	<g id="Z_4_1_A">
		
			<rect id="Z_4_1_A129" x="6199.2" y="1891.6" transform="matrix(0.7753 0.6315 -0.6315 0.7753 2623.865 -3503.8867)" width="75.3" height="88.8" class="P4_1_5"/>
		
			<rect id="Z_4_1_A128" x="6137.3" y="1961.7" transform="matrix(0.7753 0.6315 -0.6315 0.7753 2656.4817 -3449.9978)" width="80.2" height="94.3" class="P4_1_6"/>
		<polygon id="Z_4_1_A127" points="6266.1,2141.9 6198,2086.4 6254.9,2015.7 6323.5,2071.5   " class="P4_1_6"/>
		
			<rect id="Z_4_1_A126" x="6286.6" y="1730.2" transform="matrix(0.7753 0.6315 -0.6315 0.7753 2574.2903 -3585.481)" width="80.2" height="190.6" class="P4_1_7"/>
		
			<rect id="Z_4_1_A125" x="6404.5" y="1589.3" transform="matrix(0.7753 0.6315 -0.6315 0.7753 2509.3381 -3692.4985)" width="80.2" height="182.9" class="P4_1_7"/>
		
			<rect id="Z_4_1_A124" x="6478.3" y="1564.9" transform="matrix(0.7753 0.6315 -0.6315 0.7753 2468.6951 -3759.3882)" width="80.2" height="50.6" class="P4_1_8"/>
		
			<rect id="Z_4_1_A123" x="6489.5" y="1702.7" transform="matrix(0.7753 0.6315 -0.6315 0.7753 2570.6914 -3733.2043)" width="86.2" height="87.9" class="P4_1_7"/>
		
			<rect id="Z_4_1_A122" x="6532.9" y="1668.5" transform="matrix(0.7753 0.6315 -0.6315 0.7753 2546.7659 -3772.6055)" width="86.2" height="49.6" class="P4_1_8"/>
		
			<rect id="Z_4_1_A121" x="6576" y="1597.1" transform="matrix(0.7753 0.6315 -0.6315 0.7753 2523.0569 -3811.6909)" width="86.2" height="86.8" class="P4_1_7"/>
		<polygon id="Z_4_1_A120" points="6647.9,1547.5     6605.7,1513.1 6633.7,1479.4 6675.1,1513.1   " class="P4_1_5"/>
		
			<rect id="Z_4_1_A119" x="6644.6" y="1448.9" transform="matrix(0.7753 0.6315 -0.6315 0.7753 2430.6802 -3881.7004)" width="53.4" height="53.3" class="P4_1_5"/>
		<polygon id="Z_4_1_A118" points="6708.8,1471.8     6667.4,1438.1 6696.7,1401.5 6738.8,1435.8   " class="P4_1_5"/>
		<polygon id="Z_4_1_A117" points="6787,1362.1 6755,1402.7 6782.1,1424.8 6638.8,1600.6 6679.9,1634     6855.5,1418.4   " class="P4_1_7"/>
		<polygon id="Z_4_1_A116" points="6894.9,1370.3 6826,1314.2 6877.1,1251.5     6945.8,1307.5   " class="P4_1_8"/>
		
			<rect id="Z_4_1_A115" x="6796.6" y="1335.3" transform="matrix(0.7753 0.6315 -0.6315 0.7753 2399.7278 -4013.4551)" width="88.9" height="61.8" class="P4_1_8"/>
		
			<rect id="Z_4_1_A114" x="6804.4" y="1163.5" transform="matrix(0.7753 0.6315 -0.6315 0.7753 2288.949 -4055.0388)" width="79.4" height="52.5" class="P4_1_8"/>
		
			<rect id="Z_4_1_A113" x="6772.3" y="1204.6" transform="matrix(0.7753 0.6315 -0.6315 0.7753 2306.594 -4025.9629)" width="79.4" height="49" class="P4_1_8"/>
		
			<rect id="Z_4_1_A112" x="6971.4" y="1235.5" transform="matrix(0.7753 0.6315 -0.6315 0.7753 2381.9072 -4128.1074)" width="43.5" height="96.6" class="P4_1_8"/>
		<polygon id="Z_4_1_A111" points="6765.8,1223 6708.2,1293.6 6503.3,1545.3 6518.6,1557.8 6520.4,1559.2     6536.7,1572.5 6536.7,1572.5 6565.4,1595.9 6590.7,1564.9 6562,1541.5 6731.9,1332.9 6760,1355.8 6827.3,1273.1   " class="P4_1_7"/>
		
			<rect id="Z_4_1_A110" x="7312.9" y="1285.2" transform="matrix(0.7753 0.6315 -0.6315 0.7753 2511.6633 -4390.5815)" width="228.3" height="99.7" class="P4_1_7"/>
		
			<rect id="Z_4_1_A109" x="7587.2" y="1453.6" transform="matrix(0.7753 0.6315 -0.6315 0.7753 2664.4668 -4483.3223)" width="93.1" height="99.7" class="P4_1_7"/>
		
			<rect id="Z_4_1_A108" x="7515.8" y="1375.7" transform="matrix(0.7753 0.6315 -0.6315 0.7753 2588.585 -4444.7666)" width="51.7" height="80.5" class="P4_1_8"/>
		
			<rect id="Z_4_1_A107" x="7556.6" y="1410.8" transform="matrix(0.7753 0.6315 -0.6315 0.7753 2618.5771 -4462.9233)" width="51" height="76.6" class="P4_1_5"/>
		<polygon id="Z_4_1_A106" points="7175.7,2397.8 7117,2350.3 7151.2,2309.6     7208.3,2357.2   " class="P4_1_8"/>
		
			<rect id="Z_4_1_A105" x="6944.4" y="2554.5" transform="matrix(0.7753 0.6315 -0.6315 0.7753 3194.0391 -3831.8601)" width="77" height="38" class="P4_1_8"/>
		
			<polygon id="Z_4_1_A104" points="    6998.6,2611.5 6909.3,2538.4 6877.3,2577.6 6827.7,2537.2 6798.8,2572.3 6937.7,2685.8   " class="P4_1_9"/>
		<polygon id="Z_4_1_A103" points="7024.8,2583.1 6965,2534.4 7117,2350.3 7175.7,2397.8   " class="P4_1_7"/>
		
			<rect id="Z_4_1_A102" x="6892.3" y="2176.6" transform="matrix(0.7753 0.6315 -0.6315 0.7753 2974.418 -3902.2317)" width="159.3" height="105.9" class="P4_1_7"/>
		<polygon id="Z_4_1_A101" points="6686.3,1928.5 6686.3,1928.5 6619.4,1874.1 6554.2,1954.1 6621.1,2008.6     6612.2,2019.5 6691.4,2084 6765.5,1993   " class="P4_1_7"/>
		
			<rect id="Z_4_1_A100" x="6488.5" y="1827.5" transform="matrix(0.7753 0.6315 -0.6315 0.7753 2656.9233 -3710.6028)" width="110.7" height="103.2" class="P4_1_7"/>
		
			<rect id="Z_4_1_A99" x="6385.9" y="2042.7" transform="matrix(0.7753 0.6315 -0.6315 0.7753 2761.5496 -3591.822)" width="86.8" height="85.8" class="P4_1_7"/>
		<polygon id="Z_4_1_A98" points="6545.8,2235.8 6473,2176.6 6527.2,2110 6539.7,2119.9 6555.5,2100.4     6616,2149.6   " class="P4_1_7"/>
		
			<rect id="Z_4_1_A97" x="6727.5" y="2324.7" transform="matrix(0.7753 0.6315 -0.6315 0.7753 3017.1106 -3746.728)" width="94.6" height="85.3" class="P4_1_7"/>
		
			<rect id="Z_4_1_A96" x="6807.2" y="2366.3" transform="matrix(0.7753 0.6315 -0.6315 0.7753 3054.9036 -3769.6648)" width="37.2" height="85.3" class="P4_1_8"/>
		
			<rect id="Z_4_1_A95" x="6695.6" y="2279.7" transform="matrix(0.7753 0.6315 -0.6315 0.7753 2976.3171 -3721.9707)" width="47.9" height="85.3" class="P4_1_8"/>
		
			<rect id="Z_4_1_A94" x="6864.8" y="2110.4" transform="matrix(0.7753 0.6315 -0.6315 0.7753 2908.9875 -3870.1616)" width="58.7" height="86.5" class="P4_1_8"/>
		
			<rect id="Z_4_1_A93" x="6833.4" y="2397.3" transform="matrix(0.7753 0.6315 -0.6315 0.7753 3083.052 -3786.748)" width="61.1" height="85.3" class="P4_1_8"/>
		
			<rect id="Z_4_1_A92" x="6581.3" y="2103" transform="matrix(0.7753 0.6315 -0.6315 0.7753 2821.8584 -3696.2285)" width="49.7" height="30.2" class="P4_1_5"/>
		
			<rect id="Z_4_1_A91" x="6618.4" y="2054.7" transform="matrix(0.7753 0.6315 -0.6315 0.7753 2800.7651 -3731.4465)" width="53.5" height="32.5" class="P4_1_5"/>
		
			<rect id="Z_4_1_A90" x="6457.5" y="2085.2" transform="matrix(0.7753 0.6315 -0.6315 0.7753 2800.1838 -3615.2698)" width="48" height="85.8" class="P4_1_8"/>
		
			<rect id="Z_4_1_A89" x="6355.5" y="2003.7" transform="matrix(0.7753 0.6315 -0.6315 0.7753 2723.8127 -3568.835)" width="45.1" height="80.7" class="P4_1_5"/>
		<polygon id="Z_4_1_A88" points="6743.9,2254.5 6689.8,2210.4 6712.4,2182.7 6638.2,2122.3 6545.8,2235.8     6619.9,2296.2 6619.9,2296.2 6674,2340.3   " class="P4_1_7"/>
		
			<rect id="Z_4_1_A87" x="6810.5" y="2246.5" transform="matrix(0.7753 0.6315 -0.6315 0.7753 2982.1147 -3812.0491)" width="77.1" height="78" class="P4_1_5"/>
		<polygon id="Z_4_1_A86" points="6876.8,2128.6 6898.7,2101.6 6765.5,1993 6691.4,2084 6755.1,2135.9     6738.3,2156.6 6807.8,2213.2 6824.6,2192.5 6824.6,2192.5 6870.8,2135.9 6876.8,2128.6   " class="P4_1_7"/>
		
			<rect id="Z_4_1_A85" x="6380.1" y="3196.1" transform="matrix(0.7753 0.6315 -0.6315 0.7753 3501.6074 -3320.313)" width="75.1" height="130.8" class="P4_1_5"/>
		
			<rect id="Z_4_1_A84" x="6451.8" y="3121.6" transform="matrix(0.7753 0.6315 -0.6315 0.7753 3461.0063 -3387.3413)" width="79.5" height="98.6" class="P4_1_7"/>
		
			<rect id="Z_4_1_A83" x="6514.7" y="3043.4" transform="matrix(0.7753 0.6315 -0.6315 0.7753 3426.3584 -3444.4314)" width="79.5" height="100.6" class="P4_1_7"/>
		
			<rect id="Z_4_1_A82" x="6564.4" y="3004.5" transform="matrix(0.7753 0.6315 -0.6315 0.7753 3399.0237 -3489.4429)" width="79.5" height="56.5" class="P4_1_8"/>
		
			<rect id="Z_4_1_A81" x="6601.8" y="2955.7" transform="matrix(0.7753 0.6315 -0.6315 0.7753 3378.3987 -3523.4297)" width="79.5" height="62.1" class="P4_1_8"/>
		<polygon id="Z_4_1_A80" points="6322.8,3266.2     6267.4,3220.9 6356.1,3110.4 6412.4,3156.3   " class="P4_1_5"/>
		
			<rect id="Z_4_1_A79" x="5370" y="3182.6" transform="matrix(0.7753 0.6315 -0.6315 0.7753 3264.2839 -2704.4238)" width="126.6" height="106.7" class="P4_1_7"/>
		
			<rect id="Z_4_1_A78" x="5483.4" y="3348.1" transform="matrix(0.7753 0.6315 -0.6315 0.7753 3414.4871 -2795.5857)" width="306.3" height="106.7" class="P4_1_7"/>
		<polygon id="Z_4_1_A77" points="5887.8,3682.7 5788.8,3601.7 5859.9,3514.5 5958.9,3595.5   " class="P4_1_7"/>
		
			<rect id="Z_4_1_A76" x="5164.1" y="3172.7" transform="matrix(0.7753 0.6315 -0.6315 0.7753 3191.8337 -2566.0664)" width="77.1" height="61.1" class="P4_1_8"/>
		
			<rect id="Z_4_1_A75" x="5087.5" y="3264.9" transform="matrix(0.7753 0.6315 -0.6315 0.7753 3234.0449 -2496.5173)" width="77.1" height="64.9" class="P4_1_8"/>
		
			<rect id="Z_4_1_A74" x="5233.1" y="3360.8" transform="matrix(0.7753 0.6315 -0.6315 0.7753 3328.7061 -2558.6951)" width="55.2" height="77" class="P4_1_8"/>
		
			<rect id="Z_4_1_A73" x="5170.2" y="3318.8" transform="matrix(0.7753 0.6315 -0.6315 0.7753 3290.5571 -2535.5449)" width="77.9" height="77" class="P4_1_7"/>
		
			<rect id="Z_4_1_A72" x="5486" y="3493.2" transform="matrix(0.7753 0.6315 -0.6315 0.7753 3477.9268 -2743.7642)" width="218.9" height="46.7" class="P4_1_7"/>
		<polygon id="Z_4_1_A71" points="5629.3,3648.4 5655.1,3616.8 5484.6,3479.4 5458.8,3511 5306.4,3386.9     5257.8,3446.6 5625.5,3744.4 5674.1,3684.7   " class="P4_1_7"/>
		
			<rect id="Z_4_1_A70" x="5861.4" y="3853.9" transform="matrix(0.7753 0.6315 -0.6315 0.7753 3789.6357 -2847.6533)" width="71.8" height="97.5" class="P4_1_9"/>
		
			<rect id="Z_4_1_A69" x="5943.8" y="3715.1" transform="matrix(0.7753 0.6315 -0.6315 0.7753 3742.8528 -2924.717)" width="76.8" height="166.5" class="P4_1_7"/>
		
			<rect id="Z_4_1_A68" x="6013.6" y="3685.4" transform="matrix(0.7753 0.6315 -0.6315 0.7753 3704.3889 -2988.0225)" width="76.8" height="54.5" class="P4_1_7"/>
		
			<rect id="Z_4_1_A67" x="6052.8" y="3636.8" transform="matrix(0.7753 0.6315 -0.6315 0.7753 3684.1765 -3021.3235)" width="71.9" height="61.7" class="P4_1_5"/>
		
			<rect id="Z_4_1_A66" x="6119.1" y="3507.1" transform="matrix(0.7753 0.6315 -0.6315 0.7753 3646.3025 -3083.7939)" width="76.8" height="152.1" class="P4_1_6"/>
		
			<rect id="Z_4_1_A65" x="5392.6" y="3017.7" transform="matrix(0.7753 0.6315 -0.6315 0.7753 3171.3696 -2737.751)" width="82.3" height="141.9" class="P4_1_7"/>
		
			<rect id="Z_4_1_A62" x="5461.4" y="3260.5" transform="matrix(0.6315 -0.7753 0.7753 0.6315 -517.0823 5478.6392)" width="88.8" height="45.7" class="P4_1_8"/>
		
			<rect id="Z_4_1_A61" x="5734.3" y="3482.8" transform="matrix(0.6315 -0.7753 0.7753 0.6315 -588.8822 5772.1465)" width="88.8" height="45.7" class="P4_1_8"/>
		
			<rect id="Z_4_1_A60" x="5769.7" y="3511.7" transform="matrix(0.6315 -0.7753 0.7753 0.6315 -598.1967 5810.2231)" width="88.8" height="45.7" class="P4_1_8"/>
		<polygon id="Z_4_1_A59" points="5952.6,3667.3     5921.1,3706.6 5891.8,3682.7 5923.8,3643.4   " class="P4_1_5"/>
		<polygon id="Z_4_1_A58" points="6056,3596.6     5979.9,3689.5 5923.6,3643.5 5999.7,3550.1   " class="P4_1_5"/>
		<polygon id="Z_4_1_A57" points="5979.9,3689.5     5948.3,3728.4 5921.1,3706.6 5952.6,3667.3   " class="P4_1_5"/>
		
			<rect id="Z_4_1_A56" x="5424" y="2777.9" transform="matrix(0.7753 0.6316 -0.6316 0.7753 3048.7427 -2801.9224)" width="77.1" height="212.5" class="P4_1_7"/>
		
			<rect id="Z_4_1_A55" x="5537.4" y="2799.4" transform="matrix(0.7753 0.6316 -0.6316 0.7753 3091.6348 -2869.1809)" width="82.3" height="222.8" class="P4_1_7"/>
		
			<rect id="Z_4_1_A54" x="5662.7" y="2669.9" transform="matrix(0.7753 0.6315 -0.6315 0.7753 3022.6111 -2982.8857)" width="82.3" height="174" class="P4_1_7"/>
		
			<rect id="Z_4_1_A53" x="5741.1" y="2629.9" transform="matrix(0.7753 0.6315 -0.6315 0.7753 2980.6172 -3051.9209)" width="77.7" height="67" class="P4_1_5"/>
		
			<rect id="Z_4_1_A52" x="5551.5" y="2681.5" transform="matrix(0.7753 0.6315 -0.6315 0.7753 2978.1052 -2917.0605)" width="75.2" height="91.7" class="P4_1_7"/>
		
			<rect id="Z_4_1_A51" x="5596.1" y="2648" transform="matrix(0.7753 0.6315 -0.6315 0.7753 2953.5552 -2957.4873)" width="75.2" height="49.4" class="P4_1_8"/>
		
			<rect id="Z_4_1_A50" x="5638.6" y="2577.9" transform="matrix(0.7753 0.6315 -0.6315 0.7753 2930.165 -2996.0479)" width="75.2" height="85.2" class="P4_1_7"/>
		<polygon id="Z_4_1_A48" points="5941.5,2354.2 5883.2,2306.7 5851.8,2345.3 5851.8,2345.3 5795.7,2414.1     5738.7,2484.2 5797,2531.7 5854.1,2461.6 5910.1,2392.8 5910.1,2392.8   " class="P4_1_7"/>
		
			<rect id="Z_4_1_A47" x="5906.4" y="2247.7" transform="matrix(0.7753 0.6315 -0.6315 0.7753 2783.9089 -3237.127)" width="70.9" height="93.3" class="P4_1_5"/>
		<polygon id="Z_4_1_A46" points="6350.4,3114.9 6225.1,3012.9 6281.4,2943.7 6367.6,3012.6 6393.8,2980.6     6433,3013.5   " class="P4_1_7"/>
		
			<rect id="Z_4_1_A45" x="6212" y="2919" transform="matrix(0.7753 0.6315 -0.6315 0.7753 3272.4971 -3272.0286)" width="46.4" height="89.2" class="P4_1_8"/>
		
			<rect id="Z_4_1_A44" x="6148.4" y="2857.4" transform="matrix(0.7753 0.6315 -0.6315 0.7753 3230.7644 -3255.5239)" width="85.5" height="111.7" class="P4_1_7"/>
		
			<rect id="Z_4_1_A43" x="6084.7" y="2788.5" transform="matrix(0.7753 0.6315 -0.6315 0.7753 3178.2627 -3229.8391)" width="88.2" height="127.5" class="P4_1_7"/>
		
			<rect id="Z_4_1_A42" x="6184" y="2660.2" transform="matrix(0.7753 0.6315 -0.6315 0.7753 3121.321 -3321.8301)" width="91.3" height="132.1" class="P4_1_7"/>
		<polygon id="Z_4_1_A41" points="6086.7,2618 6022.8,2565.9 6068.5,2509.8 6001.7,2455.4 5918.3,2557.8     5985.1,2612.2 5985.1,2612.2 6049,2664.3   " class="P4_1_7"/>
		
			<rect id="Z_4_1_A40" x="6036.4" y="2527.7" transform="matrix(0.7753 0.6315 -0.6315 0.7753 2984.6008 -3262.2832)" width="82.4" height="72.4" class="P4_1_5"/>
		<polygon id="Z_4_1_A39" points="6050.4,2701.1 5982.7,2645.9 5901.3,2579.7 5818.3,2681.6 5948.3,2787.5     5986.9,2740.1 6005.9,2755.7   " class="P4_1_7"/>
		
			<rect id="Z_4_1_A38" x="6032.1" y="2788.4" transform="matrix(0.7753 0.6315 -0.6315 0.7753 3146.5857 -3191.0312)" width="52.7" height="77.5" class="P4_1_8"/>
		
			<rect id="Z_4_1_A37" x="6021.5" y="2714" transform="matrix(0.7753 0.6315 -0.6315 0.7753 3094.0046 -3203.9568)" width="57.6" height="65.7" class="P4_1_5"/>
		
			<rect id="Z_4_1_A36" x="5958.1" y="2759.8" transform="matrix(0.7753 0.6315 -0.6315 0.7753 3110.2402 -3162.5088)" width="84.1" height="61" class="P4_1_8"/>
		
			<rect id="Z_4_1_A35" x="6263.4" y="2744.2" transform="matrix(0.7753 0.6315 -0.6315 0.7753 3183.6355 -3379.4614)" width="156.9" height="81.6" class="P4_1_7"/>
		
			<rect id="Z_4_1_A34" x="6272.4" y="2855.2" transform="matrix(0.7753 0.6315 -0.6315 0.7753 3240.9851 -3332.2502)" width="63.5" height="68.1" class="P4_1_3"/>
		
			<rect id="Z_4_1_A33" x="6323.6" y="2898.5" transform="matrix(0.7753 0.6315 -0.6315 0.7753 3278.2712 -3354.8088)" width="61.8" height="63.7" class="P4_1_5"/>
		
			<rect id="Z_4_1_A32" x="6523.8" y="2898.6" transform="matrix(0.7753 0.6315 -0.6315 0.7753 3316.6799 -3490.5557)" width="81.4" height="35.8" class="P4_1_3"/>
		
			<polygon id="Z_4_1_A31" points="    6760.6,2899.7 6702.8,2852.5 6633.8,2937 6691.5,2984.5   " class="P4_1_9"/>
		<polygon id="Z_4_1_A30" points="6534.3,2889.2 6428.4,2803 6416.4,2817.8 6416.4,2817.8 6402,2835.4     6391.6,2848.2 6391.6,2848.2 6376.9,2866.2 6443.4,2920.4 6458.1,2902.3 6497.4,2934.4   " class="P4_1_7"/>
		
			<rect id="Z_4_1_A29" x="6980.6" y="1332" transform="matrix(0.7753 0.6315 -0.6315 0.7753 2469.3589 -4181.1172)" width="261.7" height="96.4" class="P4_1_7"/>
		
			<rect id="Z_4_1_A28" x="7220.7" y="1299.8" transform="matrix(0.7753 0.6315 -0.6315 0.7753 2476.0203 -4276.6763)" width="56.8" height="84.1" class="P4_1_7"/>
		
			<rect id="Z_4_1_A27" x="7292.2" y="1372.9" transform="matrix(0.7753 0.6315 -0.6315 0.7753 2541.8105 -4316.8569)" width="92.4" height="82.6" class="P4_1_7"/>
		
			<rect id="Z_4_1_A26" x="7207.7" y="1429.4" transform="matrix(0.7753 0.6315 -0.6315 0.7753 2557.7688 -4234.7812)" width="46.7" height="96.4" class="P4_1_8"/>
		
			<rect id="Z_4_1_A25" x="7309.7" y="1515.1" transform="matrix(0.7753 0.6315 -0.6315 0.7753 2635.4614 -4281.9312)" width="52.9" height="96.4" class="P4_1_8"/>
		<polygon id="Z_4_1_A24" points="7521.6,1713.6     7501.3,1697.3 7529.3,1661.9 7550,1678.8   " class="P4_1_5"/>
		
			<rect id="Z_4_1_A23" x="7529.7" y="1690.8" transform="matrix(0.7753 0.6315 -0.6315 0.7753 2779.7444 -4387.4824)" width="54.1" height="45.1" class="P4_1_5"/>
		
			<rect id="Z_4_1_A22" x="7477.8" y="1717.4" transform="matrix(0.7753 0.6315 -0.6315 0.7753 2788.1331 -4356.8286)" width="80.1" height="46" class="P4_1_5"/>
		
			<rect id="Z_4_1_A21" x="7527.1" y="1822.4" transform="matrix(0.7753 0.6315 -0.6315 0.7753 2878.6736 -4355.127)" width="67.2" height="92.3" class="P4_1_5"/>
		
			<rect id="Z_4_1_A20" x="7599.2" y="1707" transform="matrix(0.7753 0.6315 -0.6315 0.7753 2837.4431 -4422.8511)" width="72.1" height="139.4" class="P4_1_7"/>
		
			<rect id="Z_4_1_A19" x="7656.5" y="1681.9" transform="matrix(0.7753 0.6315 -0.6315 0.7753 2804.9116 -4475.5884)" width="73.4" height="45.5" class="P4_1_8"/>
		<polygon id="Z_4_1_A18" points="7771.8,1551.5 7771.8,1551.5 7735.4,1521.9 7672.5,1599.2 7708.8,1628.8     7679.8,1664.4 7735.9,1710.2 7827.9,1597.3   " class="P4_1_7"/>
		
			<rect id="Z_4_1_A17" x="7451.3" y="1890.7" transform="matrix(0.7753 0.6315 -0.6315 0.7753 2918.8708 -4288.6792)" width="72.1" height="135.1" class="P4_1_6"/>
		
			<rect id="Z_4_1_A16" x="7188.8" y="2211.5" transform="matrix(0.7753 0.6315 -0.6315 0.7753 3062.3838 -4050.2056)" width="70.2" height="135.3" class="P4_1_5"/>
		<polygon id="Z_4_1_A15" points="7179.5,2223.5     7121.3,2176.3 7153.2,2137.3 7211.3,2184.4   " class="P4_1_5"/>
		
			<rect id="Z_4_1_A14" x="7438.8" y="1749.6" transform="matrix(0.7753 0.6315 -0.6315 0.7753 2815.2495 -4316.8872)" width="72.8" height="97.8" class="P4_1_5"/>
		
			<rect id="Z_4_1_A13" x="7239.5" y="1471.3" transform="matrix(0.7753 0.6315 -0.6315 0.7753 2595.7178 -4257.8076)" width="85.8" height="96.4" class="P4_1_7"/>
		
			<rect id="Z_4_1_A12" x="7336" y="1589.7" transform="matrix(0.7753 0.6315 -0.6315 0.7753 2703.1833 -4323.0264)" width="183.6" height="96.4" class="P4_1_7"/>
		<polygon id="Z_4_1_A11" points="7196.1,1082.6 7035.2,951.5 7035.2,951.5 7006.1,927.9 6829.9,1144.3     6891.4,1194.4 7006.6,1053 7135,1157.6   " class="P4_1_7"/>
		
			<rect id="Z_4_1_A10" x="7158.4" y="1094.5" transform="matrix(0.7753 0.6315 -0.6315 0.7753 2335.7385 -4285.0552)" width="64.7" height="91.9" class="P4_1_5"/>
		
			<rect id="Z_4_1_A9" x="7206.3" y="1145.8" transform="matrix(0.7753 0.6315 -0.6315 0.7753 2384.3772 -4314.4902)" width="100.3" height="96.7" class="P4_1_7"/>
		
			<rect id="Z_4_1_A8" x="7294.1" y="1197.3" transform="matrix(0.7753 0.6315 -0.6315 0.7753 2426.5828 -4346.5718)" width="56.9" height="80.2" class="P4_1_8"/>
		
			<rect id="Z_4_1_A7" x="5692.8" y="2528.3" transform="matrix(-0.6315 0.7753 -0.7753 -0.6315 11322.8936 -249.0683)" width="55.6" height="75.2" class="P4_1_8"/>
		
			<rect id="Z_4_1_A5" x="5237.9" y="3089.8" transform="matrix(-0.6315 0.7753 -0.7753 -0.6315 11013.4531 1022.8608)" width="51.5" height="77.1" class="P4_1_8"/>
		
			<rect id="Z_4_1_A3" x="5280.9" y="2982.4" transform="matrix(-0.6315 0.7753 -0.7753 -0.6315 11072.8906 779.8871)" width="140.4" height="77.1" class="P4_1_7"/>
		
			<rect id="Z_4_1_A6" x="5214.5" y="3125.4" transform="matrix(-0.6315 0.7753 -0.7753 -0.6315 10993.7412 1103.4413)" width="40.3" height="77.1" class="P4_1_5"/>
		<polygon id="Z_4_1_A2" points="5501.8,2778.8     5533,2740.5 5589.1,2786.2 5557.8,2824.7   " class="P4_1_5"/>
		
			<rect id="Z_4_1_A1" x="5135.7" y="3211" transform="matrix(0.6315 -0.7753 0.7753 0.6315 -616.4795 5201.8857)" width="58.4" height="77.1" class="P4_1_8"/>
		<polygon id="Z_4_1_A130" points="6607.4,2928.3 6544.3,2876.9 6621,2782.7 6683.7,2833.9   " class="P4_1_7"/>
		
			<rect id="Z_4_1_A131" x="5257.3" y="3073.3" transform="matrix(0.7753 0.6315 -0.6315 0.7753 3141.9761 -2648.3765)" width="72.3" height="37.5" class="P4_1_5"/>
		
			<rect id="Z_4_1_A200" x="6031.3" y="2598.2" transform="matrix(0.7753 0.6315 -0.6315 0.7753 3011.4314 -3237.9297)" width="51.1" height="31.1" class="P4_1_5"/>
		<polygon id="Z_4_1_A64" points="5508.8,3058.7     5448.1,3009.7 5477.7,2973.3 5538.5,3022.3   " class="P4_1_5"/>
		
			<rect id="Z_4_1_A49" x="5717.2" y="2503" transform="matrix(0.7753 0.6315 -0.6315 0.7753 2887.9448 -3065.4094)" width="70.6" height="47" class="P4_1_5"/>
		<polygon id="Z_4_1_A201" points="7407,1524 7378.8,1501 7431.4,1437 7459.6,1459.9   " class="P4_1_7"/>
	</g>
	<g id="Z_4_1_I">
		
			<use xlink:href="#defibrillateur" width="132.7" height="132.6" id="sZ_4_1_I82" x="-66.4" y="-66.3" transform="matrix(0.3767 0 0 -0.3767 6091.8193 2273.6223)" style="overflow:visible;"/>
		
			<use xlink:href="#escalier" width="132.7" height="132.6" id="sZ_4_1_I81" x="-66.4" y="-66.3" transform="matrix(0.3767 0 0 -0.3767 6022.6851 2342.8345)" style="overflow:visible;"/>
		
			<use xlink:href="#escalier" width="132.7" height="132.6" id="sZ_4_1_I80" x="-66.4" y="-66.3" transform="matrix(0.3767 0 0 -0.3767 6160.1611 2629.1169)" style="overflow:visible;"/>
		
			<use xlink:href="#escalier" width="132.7" height="132.6" id="sZ_4_1_I79" x="-66.4" y="-66.3" transform="matrix(0.3767 0 0 -0.3767 5357.4736 3333.6416)" style="overflow:visible;"/>
		
			<use xlink:href="#escalier" width="132.7" height="132.6" id="sZ_4_1_I77" x="-66.4" y="-66.3" transform="matrix(0.3767 0 0 -0.3767 6114.1855 3480.5852)" style="overflow:visible;"/>
		
			<use xlink:href="#escalier" width="132.7" height="132.6" id="sZ_4_1_I76" x="-66.4" y="-66.3" transform="matrix(0.3767 0 0 -0.3767 7400.6704 1886.1606)" style="overflow:visible;"/>
		
			<use xlink:href="#escalier" width="132.7" height="132.6" id="sZ_4_1_I75" x="-66.4" y="-66.3" transform="matrix(0.3767 0 0 -0.3767 7100.5645 1225.2146)" style="overflow:visible;"/>
		
			<use xlink:href="#escalier" width="132.7" height="132.6" id="sZ_4_1_I74" x="-66.4" y="-66.3" transform="matrix(0.3767 0 0 -0.3767 7686.9126 1553.6217)" style="overflow:visible;"/>
		
			<use xlink:href="#escalier" width="132.7" height="132.6" id="sZ_4_1_I73" x="-66.4" y="-66.3" transform="matrix(0.3767 0 0 -0.3767 6891.2739 2510.1089)" style="overflow:visible;"/>
		
			<use xlink:href="#escalier" width="132.7" height="132.6" id="sZ_4_1_I72" x="-66.4" y="-66.3" transform="matrix(0.3767 0 0 -0.3767 6446.2676 1954.9722)" style="overflow:visible;"/>
		
			<use xlink:href="#WC" width="50" height="50" id="sZ_4_1_I67" x="-66.4" y="16.3" transform="matrix(1 0 0 -1 7132.0703 2308.3872)" style="overflow:visible;"/>
		
			<use xlink:href="#ascenseur" width="132.7" height="132.6" id="sZ_4_1_I35" x="-66.4" y="-66.3" transform="matrix(0.3767 0 0 -0.3767 6512.2271 2011.7819)" style="overflow:visible;"/>
		
			<use xlink:href="#ascenseur" width="132.7" height="132.6" id="sZ_4_1_I34" x="-66.4" y="-66.3" transform="matrix(0.3767 0 0 -0.3767 6160.0508 2342.5691)" style="overflow:visible;"/>
		
			<use xlink:href="#ascenseur" width="132.7" height="132.6" id="sZ_4_1_I33" x="-66.4" y="-66.3" transform="matrix(0.3767 0 0 -0.3767 6067.0498 2309.4395)" style="overflow:visible;"/>
		
			<use xlink:href="#ascenseur" width="132.7" height="132.6" id="sZ_4_1_I32" x="-66.4" y="-66.3" transform="matrix(0.3767 0 0 -0.3767 6094.2378 2646.7712)" style="overflow:visible;"/>
		
			<use xlink:href="#ascenseur" width="132.7" height="132.6" id="sZ_4_1_I31" x="-66.4" y="-66.3" transform="matrix(0.3767 0 0 -0.3767 5285.8306 3277.2588)" style="overflow:visible;"/>
		
			<use xlink:href="#ascenseur" width="132.7" height="132.6" id="sZ_4_1_I30" x="-66.4" y="-66.3" transform="matrix(0.3767 0 0 -0.3767 6131.0381 3350.7043)" style="overflow:visible;"/>
		
			<use xlink:href="#ascenseur" width="132.7" height="132.6" id="sZ_4_1_I29" x="-66.4" y="-66.3" transform="matrix(0.3767 0 0 -0.3767 7022.2197 1167.2137)" style="overflow:visible;"/>
		
			<use xlink:href="#ascenseur" width="132.7" height="132.6" id="sZ_4_1_I28" x="-66.4" y="-66.3" transform="matrix(0.3767 0 0 -0.3767 6981.9604 2405.3586)" style="overflow:visible;"/>
		
			<use xlink:href="#ascenseur" width="132.7" height="132.6" id="sZ_4_1_I27" x="-66.4" y="-66.3" transform="matrix(0.3767 0 0 -0.3767 7257.2681 1976.1959)" style="overflow:visible;"/>
		
			<use xlink:href="#WC" width="50" height="50" id="sZ_4_1_I8" x="-66.4" y="16.3" transform="matrix(1 0 0 -1 6472.8584 3135.6306)" style="overflow:visible;"/>
		
			<use xlink:href="#WC" width="50" height="50" id="sZ_4_1_I7" x="-66.4" y="16.3" transform="matrix(1 0 0 -1 6581.5088 3004.207)" style="overflow:visible;"/>
		
			<use xlink:href="#WC" width="50" height="50" id="sZ_4_1_I6" x="-66.4" y="16.3" transform="matrix(1 0 0 -1 5853.0376 3750.3687)" style="overflow:visible;"/>
		
			<use xlink:href="#WC" width="50" height="50" id="sZ_4_1_I5" x="-66.4" y="16.3" transform="matrix(1 0 0 -1 5873.1099 2629.7991)" style="overflow:visible;"/>
		
			<use xlink:href="#WC" width="50" height="50" id="sZ_4_1_I4" x="-66.4" y="16.3" transform="matrix(1 0 0 -1 5979.1919 2493.0178)" style="overflow:visible;"/>
		
			<use xlink:href="#WC" width="50" height="50" id="sZ_4_1_I3" x="-66.4" y="16.3" transform="matrix(1 0 0 -1 6505.0381 1854.369)" style="overflow:visible;"/>
		
			<use xlink:href="#WC" width="50" height="50" id="sZ_4_1_I2" x="-66.4" y="16.3" transform="matrix(1 0 0 -1 6350.0381 2039.0363)" style="overflow:visible;"/>
		
			<use xlink:href="#WC" width="50" height="50" id="sZ_4_1_I83" x="-66.4" y="16.3" transform="matrix(1 0 0 -1 7620.2773 1639.2972)" style="overflow:visible;"/>
		
			<use xlink:href="#cafe" width="50" height="50" id="sZ_4_1_A66" x="-66.4" y="16.4" transform="matrix(1 0 0 -1 6200.3701 3623.0349)" style="overflow:visible;"/>
		
			<use xlink:href="#cafe" width="50" height="50" id="sZ_4_1_A17" x="-66.4" y="16.4" transform="matrix(1 0 0 -1 7527.3706 2005.0352)" style="overflow:visible;"/>
		
			<use xlink:href="#cafe" width="50" height="50" id="sZ_4_1_A128" x="-66.4" y="16.4" transform="matrix(1 0 0 -1 6218.3706 2049.0349)" style="overflow:visible;"/>
		
			<use xlink:href="#entree" width="132.7" height="132.6" id="sZ_4_1_I87" x="-66.4" y="-66.3" transform="matrix(0.3767 0 0 -0.3767 5721.6753 3822.0378)" style="overflow:visible;"/>
	</g>
	<g id="Z_4_1_D">
		<polyline style="fill:none;stroke:#C0C0C0;stroke-width:3;stroke-miterlimit:10;" points="6322.4,3268.6 6242.5,3367.7     6184.7,3320.6 6264.9,3222.2   "/>
		<line style="fill:#4A7B7C;stroke:#C0C0C0;stroke-width:3;stroke-miterlimit:10;" x1="6344.8" y1="3289.9" x2="6177" y2="3501.5"/>
		<polyline style="fill:none;stroke:#C0C0C0;stroke-width:3;stroke-miterlimit:10;" points="6152,3480.3 6174,3454.6 6114.2,3406       "/>
		<polyline style="fill:none;stroke:#C0C0C0;stroke-width:3;stroke-miterlimit:10;" points="6198.7,2087.8 6091.4,2220.1     6214.4,2320.3   "/>
		<line style="fill:#4A7B7C;stroke:#C0C0C0;stroke-width:3;stroke-miterlimit:10;" x1="6388.8" y1="3325.9" x2="6219" y2="3535.5"/>
		<line style="fill:none;stroke:#C0C0C0;stroke-width:3;stroke-miterlimit:10;" x1="7417.9" y1="1988.8" x2="7240.5" y2="2202.2"/>
		<polyline style="fill:none;stroke:#C0C0C0;stroke-width:3;stroke-miterlimit:10;" points="7213.5,2182.7 7297.2,2079.7     7236.3,2029.1 7174.5,2104.7   "/>
		
			<line style="fill:#4A7B7C;stroke:#C0C0C0;stroke-width:3;stroke-miterlimit:10;" x1="7455.5" y1="2019.6" x2="7279.8" y2="2234.5"/>
		<polyline style="fill:none;stroke:#C0C0C0;stroke-width:3;stroke-miterlimit:10;" points="7386.5,1966.5 7361.7,1996.9     7303.2,1948.8   "/>
		<line style="fill:none;stroke:#C0C0C0;stroke-width:3;stroke-miterlimit:10;" x1="6139" y1="2084.8" x2="6010.5" y2="2242.4"/>
	</g>
	<g id="Z_4_1_R">
		
		
	</g>
</g>
<symbol id="WC" viewBox="-61 -61 122 122">
	<path style="fill:#009393;" d="M61,0c0-33.7-27.3-61-61-61S-61-33.7-61,0s27.3,61,61,61S61,33.7,61,0z"/>
	<path style="fill:#009393;" d="M0,61c-33.7,0-61-27.3-61-61s27.3-61,61-61c33.7,0,61,27.3,61,61S33.7,61,0,61z M0-52.1   c-28.8,0-52.1,23.3-52.1,52.1S-28.8,52.1,0,52.1c28.8,0,52.1-23.3,52.1-52.1S28.8-52.1,0-52.1z"/>
	<path style="fill:#009393;stroke:#FFFFFF;stroke-width:8;stroke-miterlimit:10;" d="M52.1,0c0-28.8-23.3-52.1-52.1-52.1   S-52.1-28.8-52.1,0S-28.8,52.1,0,52.1S52.1,28.8,52.1,0z"/>
	<g>
		<polygon style="fill:#FFFFFF;" points="4.8,32.5 4.8,-32.7 -1.3,-32.7 -1.3,32.5   "/>
		<path style="fill:#FFFFFF;" d="M1.7-0.1"/>
		<path style="fill:#FFFFFF;" d="M-20.7,22.3c3,0,5.4,2.4,5.4,5.4c0,3-2.4,5.4-5.4,5.4c-3,0-5.4-2.4-5.4-5.4    C-26,24.7-23.6,22.3-20.7,22.3L-20.7,22.3z"/>
		<path style="fill:#FFFFFF;" d="M-20.7,27.7"/>
		<path style="fill:#FFFFFF;" d="M-21.5-11.8v-18.8c0-3.4-5-3.4-5,0v18.8h-6.7l7.2,24.9h-1.2l-4.2-14.2c-1-3.1-5.3-1.8-4.3,1.5    l4.7,15.5c0.5,1.8,2.7,4.9,6.6,4.9h3.5l0,0h3.9c3.8,0,6.1-3.1,6.6-4.9l4.7-15.4C-4.7-2.9-9-4.2-10-1l-4.2,14.2h-1.2l7.2-24.9h-6.7    v-18.8c0-3.3-5-3.3-5,0v18.8L-21.5-11.8L-21.5-11.8z"/>
		<path style="fill:#FFFFFF;" d="M17.7,20.8c-3.8,0-6.8-3.1-6.8-7V-2.8c0-3.2,4.6-3.2,4.7,0v15.2h1.1v-42.1c0-4.3,6.2-4.2,6.2,0    v24.6h1.1v-24.6c0-4.2,6.2-4.3,6.2,0v42.1h1.1V-2.8c0-3.3,4.6-3.3,4.6,0v16.5c0,3.6-2.7,7.1-6.9,7.1L17.7,20.8L17.7,20.8z"/>
		<path style="fill:#FFFFFF;" d="M23.3,22.3c2.9,0,5.4,2.4,5.4,5.4c0,3-2.4,5.4-5.4,5.4c-3,0-5.4-2.4-5.4-5.4    C18,24.7,20.4,22.3,23.3,22.3L23.3,22.3z"/>
		<path style="fill:#FFFFFF;" d="M23.3,27.7"/>
	</g>
</symbol>
<symbol id="ascenseur" viewBox="-61 -61 122 122">
	<path style="fill:#009393;" d="M61,0c0-33.7-27.3-61-61-61S-61-33.7-61,0s27.3,61,61,61S61,33.7,61,0z"/>
	<path style="fill:#009393;" d="M0,61c-33.7,0-61-27.3-61-61s27.3-61,61-61c33.7,0,61,27.3,61,61S33.7,61,0,61z M0-52.1   c-28.8,0-52.1,23.3-52.1,52.1S-28.8,52.1,0,52.1c28.8,0,52.1-23.3,52.1-52.1S28.8-52.1,0-52.1z"/>
	<path style="fill:#009393;stroke:#FFFFFF;stroke-width:8;stroke-miterlimit:10;" d="M52.1,0c0-28.8-23.3-52.1-52.1-52.1   S-52.1-28.8-52.1,0S-28.8,52.1,0,52.1S52.1,28.8,52.1,0z"/>
	<g>
		<path style="fill:#FFFFFF;" d="M18.6,10.1H-18c-3.1,0-5.6-2.5-5.6-5.6v-33.6c0-3.1,2.5-5.6,5.6-5.6h36.6c3.1,0,5.6,2.5,5.6,5.6    V4.5C24.2,7.5,21.7,10.1,18.6,10.1z M19.7-29.2c0-0.6-0.5-1.1-1.1-1.1H-18c-0.6,0-1.1,0.5-1.1,1.1V4.5c0,0.6,0.5,1.1,1.1,1.1h36.6    c0.6,0,1.1-0.5,1.1-1.1V-29.2z"/>
		<path style="fill:#FFFFFF;" d="M-10.2,1.1c1.2,0,2.2-1,2.2-2.2s-1-2.2-2.2-2.2s-2.2,1-2.2,2.2S-11.4,1.1-10.2,1.1z"/>
		<path style="fill:#FFFFFF;" d="M0.3,1.1c1.2,0,2.2-1,2.2-2.2s-1-2.2-2.2-2.2s-2.2,1-2.2,2.2S-0.9,1.1,0.3,1.1z"/>
		<path style="fill:#FFFFFF;" d="M10.8,1.1c1.2,0,2.2-1,2.2-2.2s-1-2.2-2.2-2.2s-2.2,1-2.2,2.2S9.5,1.1,10.8,1.1z"/>
		<path style="fill:#FFFFFF;" d="M-7.2-4.1h-6c-0.8,0-1.5-0.7-1.5-1.6v-8c0-0.7,0.5-1.4,1.1-1.5V-25c0-0.8,0.7-1.5,1.5-1.5    s1.5,0.7,1.5,1.5v9.7h0.7V-25c0-0.8,0.7-1.5,1.5-1.5c0.8,0,1.5,0.7,1.5,1.5v9.8c0.6,0.2,1.1,0.8,1.1,1.5v8    C-5.7-4.9-6.3-4.1-7.2-4.1z"/>
		<path style="fill:#FFFFFF;" d="M3.3-4.1h-6c-0.8,0-1.5-0.7-1.5-1.6v-8c0-0.7,0.5-1.4,1.1-1.5V-25c0-0.8,0.7-1.5,1.5-1.5    s1.5,0.7,1.5,1.5v9.7h0.7V-25c0-0.8,0.7-1.5,1.5-1.5s1.5,0.7,1.5,1.5v9.8c0.6,0.2,1.1,0.8,1.1,1.5v8C4.8-4.9,4.1-4.1,3.3-4.1z"/>
		<path style="fill:#FFFFFF;" d="M13.7-4.1h-6c-0.8,0-1.5-0.7-1.5-1.6v-8c0-0.7,0.5-1.4,1.1-1.5V-25c0-0.8,0.7-1.5,1.5-1.5    s1.5,0.7,1.5,1.5v9.7h0.7V-25c0-0.8,0.7-1.5,1.5-1.5c0.8,0,1.5,0.7,1.5,1.5v9.8c0.6,0.2,1.1,0.8,1.1,1.5v8    C15.2-4.9,14.6-4.1,13.7-4.1z"/>
		<path style="fill:#FFFFFF;" d="M-2.1,28.6l-7.5,7.5c-1.2,1.2-3.1,1.2-4.2,0c0,0,0,0,0,0l-7.5-7.5c-1.2-1.2-1.2-3.1,0-4.2    c1.2-1.2,3.1-1.2,4.2,0l2.4,2.4V16c0-1.6,1.3-3,3-3c1.6,0,3,1.3,3,3v10.7l2.4-2.4c1.2-1.2,3.1-1.2,4.2,0S-0.9,27.4-2.1,28.6z"/>
		<path style="fill:#FFFFFF;" d="M21.8,25.6c-1.2,1.2-3.1,1.2-4.2,0l-2.4-2.4v10.7c0,1.6-1.3,3-3,3c-1.6,0-3-1.3-3-3V23.2l-2.4,2.4    c-1.2,1.2-3.1,1.2-4.2,0c-1.2-1.2-1.2-3.1,0-4.2l7.5-7.5l0,0c0.2-0.2,0.5-0.4,0.7-0.5c1.1-0.6,2.6-0.4,3.5,0.5l0,0l7.5,7.5    C23,22.5,23,24.4,21.8,25.6z"/>
	</g>
</symbol>
<symbol id="cafe" viewBox="-61 -61 122 122">
	<path style="fill:#009393;" d="M61,0c0-33.7-27.3-61-61-61S-61-33.7-61,0s27.3,61,61,61S61,33.7,61,0z"/>
	<path style="fill:#009393;" d="M0,61c-33.7,0-61-27.3-61-61s27.3-61,61-61S61-33.7,61,0S33.7,61,0,61z M0-52.1   c-28.8,0-52.1,23.3-52.1,52.1S-28.8,52.1,0,52.1c28.8,0,52.1-23.3,52.1-52.1S28.8-52.1,0-52.1z"/>
	<path style="fill:none;stroke:#FFFFFF;stroke-width:8;stroke-miterlimit:10;" d="M52.1,0c0-28.8-23.3-52.1-52.1-52.1   S-52.1-28.8-52.1,0S-28.8,52.1,0,52.1S52.1,28.8,52.1,0z"/>
	<g>
		<g>
			<g>
				<path style="fill:#FFFFFF;" d="M-7.8,11.2c-0.3,0-0.6,0.1-0.9,0.4c-0.5,0.5-0.5,1.3,0,1.8c1.6,1.5,1.8,3.6,0.5,5.4      c-2.1,3.3-2,6.4,0.4,8.8c0.5,0.5,1.3,0.5,1.8,0c0.5-0.5,0.5-1.3,0-1.8c-0.6-0.6-2.3-2.3-0.1-5.8c1.8-2.8,1.5-6.2-0.9-8.5      C-7.2,11.3-7.5,11.2-7.8,11.2L-7.8,11.2z"/>
			</g>
		</g>
		<g>
			<g>
				<path style="fill:#FFFFFF;" d="M-1.9,11.2c-0.3,0-0.6,0.1-0.9,0.4c-0.5,0.5-0.5,1.3,0,1.8c1.6,1.5,1.8,3.6,0.5,5.4      c-2.1,3.3-2,6.4,0.4,8.8c0.5,0.5,1.3,0.5,1.8,0c0.5-0.5,0.5-1.3,0-1.8c-0.6-0.6-2.3-2.3-0.1-5.8c1.8-2.8,1.5-6.2-0.9-8.5      C-1.3,11.3-1.6,11.2-1.9,11.2L-1.9,11.2z"/>
			</g>
		</g>
		<g>
			<g>
				<path style="fill:#FFFFFF;" d="M4,11.2c-0.3,0-0.6,0.1-0.9,0.4c-0.5,0.5-0.5,1.3,0,1.8c1.6,1.5,1.8,3.6,0.5,5.4      c-2.1,3.3-2,6.4,0.4,8.8c0.5,0.5,1.3,0.5,1.8,0s0.5-1.3,0-1.8c-0.6-0.6-2.3-2.3-0.1-5.8c1.8-2.8,1.5-6.2-0.9-8.5      C4.6,11.3,4.3,11.2,4,11.2L4,11.2z"/>
			</g>
		</g>
		<path style="fill:#FFFFFF;" d="M-26.6-23.1v-0.8c0-2.1,1.7-3.7,3.7-3.7h42.9c2.1,0,3.7,1.7,3.7,3.7v0.8H-26.6z"/>
		<path style="fill:#FFFFFF;" d="M24.8,6.6h-7.2c-0.1,0-0.1,0-0.2,0c-0.1,0-0.1,0-0.2,0h-38.6c-1.4,0-2.5-1.1-2.5-2.5v-7.8    c0-8.9,6-15.3,14.5-18.1H5.2C13-19.2,18.7-13.7,19.6-6h5.2c2.4,0,4.3,1.9,4.3,4.3v4C29.1,4.7,27.1,6.6,24.8,6.6z M25.8-1.6    c0-0.6-0.5-1.1-1.1-1.1h-5v6.1h5c0.6,0,1.1-0.5,1.1-1.1V-1.6z"/>
	</g>
</symbol>
<symbol id="defibrillateur" viewBox="-61 -61 122 122">
	<path style="fill:#E53433;" d="M61,0c0-33.7-27.3-61-61-61S-61-33.7-61,0s27.3,61,61,61S61,33.7,61,0z"/>
	<path style="fill:#E53433;" d="M0,61c-33.7,0-61-27.3-61-61s27.3-61,61-61c33.7,0,61,27.3,61,61S33.7,61,0,61z M0-52.1   c-28.8,0-52.1,23.3-52.1,52.1S-28.8,52.1,0,52.1c28.8,0,52.1-23.3,52.1-52.1S28.8-52.1,0-52.1z"/>
	<path style="fill:#E53433;stroke:#FFFFFF;stroke-width:8;stroke-miterlimit:10;" d="M52.1,0c0-28.8-23.3-52.1-52.1-52.1   S-52.1-28.8-52.1,0S-28.8,52.1,0,52.1S52.1,28.8,52.1,0z"/>
	<path style="fill:#FFFFFF;" d="M28.3,8.3c0,9.1-7.4,16.4-16.6,16.4c-4.4,0-8.5-1.7-11.4-4.5c-3,2.8-7,4.5-11.4,4.5   c-9.2,0-16.6-7.3-16.6-16.4c0,0-0.5-8.5,8.1-20c4.5-6,19.9-19.7,19.9-19.7s15.4,13.7,19.9,19.7C28.8-0.2,28.3,8.3,28.3,8.3z    M3.2-15.9c0,0-1.9-1.2-3.7-2.8c-1.8-1.7-3.2-3.3-3.2-3.3s-0.1,2.2-0.5,4.9c-0.3,1.8-1.1,4.1-1.1,4.1l3.3-2.6L1.6-1.2L-8.5-4.5   l5.8,20.9h8.1L-0.4,3.3l9.5,3.2l-10-22.5H3.2z"/>
</symbol>
<symbol id="entree" viewBox="-61 -61 122 122">
	<path style="fill:#009393;" d="M61,0c0-33.7-27.3-61-61-61S-61-33.7-61,0s27.3,61,61,61S61,33.7,61,0z"/>
	<path style="fill:#009393;" d="M0,61c-33.7,0-61-27.3-61-61s27.3-61,61-61c33.7,0,61,27.3,61,61S33.7,61,0,61z M0-52.1   c-28.8,0-52.1,23.3-52.1,52.1S-28.8,52.1,0,52.1c28.8,0,52.1-23.3,52.1-52.1S28.8-52.1,0-52.1z"/>
	<path style="fill:#009393;stroke:#FFFFFF;stroke-width:8;stroke-miterlimit:10;" d="M52.1,0c0-28.8-23.3-52.1-52.1-52.1   S-52.1-28.8-52.1,0S-28.8,52.1,0,52.1S52.1,28.8,52.1,0z"/>
	<g>
		<path style="fill:#FFFFFF;" d="M4.9,24.2V-28l12.9-4.4H21v60.8L4.9,24.2z M7.2-5c-0.5,0-1,0.7-1,1.7s0.4,1.7,1,1.7s1-0.7,1-1.7    S7.7-5,7.2-5z"/>
		<path style="fill:#FFFFFF;" d="M-21.1,28.4v-60.8h3.3L-4.9-28v52.3L-21.1,28.4z M-8.2-3.4c0,0.9,0.4,1.7,1,1.7s1-0.7,1-1.7    S-6.7-5-7.3-5S-8.2-4.3-8.2-3.4z"/>
		<path style="fill:#FFFFFF;" d="M-25.4,32v-64.4c1.3,0,2.3,0,3.6,0l0,61.4h43.6v-61.4h3.6V32H-25.4z"/>
	</g>
</symbol>
<symbol id="escalier" viewBox="-61 -61 122 122">
	<path style="fill:#009393;" d="M61,0c0-33.7-27.3-61-61-61S-61-33.7-61,0s27.3,61,61,61S61,33.7,61,0z"/>
	<path style="fill:#009393;" d="M0,61c-33.7,0-61-27.3-61-61s27.3-61,61-61S61-33.7,61,0S33.7,61,0,61z M0-52.1   c-28.8,0-52.1,23.3-52.1,52.1S-28.8,52.1,0,52.1c28.8,0,52.1-23.3,52.1-52.1S28.8-52.1,0-52.1z"/>
	<path style="fill:#009393;stroke:#FFFFFF;stroke-width:8;stroke-miterlimit:10;" d="M52.1,0c0-28.8-23.3-52.1-52.1-52.1   S-52.1-28.8-52.1,0S-28.8,52.1,0,52.1S52.1,28.8,52.1,0z"/>
	<path style="fill:#FFFFFF;" d="M31.1,21.8c0-1.1-0.9-2-2-2h-9.4v-9.4c0-1.1-0.9-2-2-2H8.3l0-9.3C8.3-2,7.3-3,6.2-3h-9.3v-9.4   c0-1.1-0.9-2-2-2h-9.4v-9.4c0-1.1-0.9-2-2-2h-13.1c-1.1,0-2,0.9-2,2v1.7c0,1.1,0.9,2,2,2h9.4v9.4c0,1.1,0.9,2,2,2h9.4v9.4   c0,1.1,0.9,2,2,2h9.4v9.4c0,1.1,0.9,2,2,2H14v9.4c0,1.1,0.9,2,2,2h13.1c1.1,0,2-0.9,2-2V21.8z"/>
</symbol>
<defs id="defs_4_1">
<style type="text/css" id="polygons_css_4_1">.P4_1_0{fill:#6CAFBC;stroke:#888888;stroke-width:10;stroke-linecap:square;}
.P4_1_1{fill:#6CAFBC;}
.P4_1_2{fill:#4A7B7C;}
.P4_1_3{fill:#C0C0C0;}
.P4_1_4{fill:#95B5B7;}
.P4_1_5{fill:#E260E6;stroke:#D931DF;stroke-width:5;stroke-linecap:square;}
.P4_1_6{fill:#FFED47;}
.P4_1_7{fill:#DAEBEE;}
.P4_1_8{fill:#B6D7DD;}
.P4_1_9{fill:#B6D7DD;stroke:#B6D7DD;stroke-width:5;stroke-miterlimit:10;}
.P4_1_10{fill:#FF0000;}
</style>
</defs>
</svg>
