<?xml version="1.0" encoding="utf-8"?>
<!-- Generator: Adobe Illustrator 20.0.0, SVG Export Plug-In . SVG Version: 6.00 Build 0)  -->
<svg xmlns:cc="http://creativecommons.org/ns#" xmlns:dc="http://purl.org/dc/elements/1.1/" xmlns:rdf="http://www.w3.org/1999/02/22-rdf-syntax-ns#" xmlns="http://www.w3.org/2000/svg" xmlns:svg="http://www.w3.org/2000/svg" xmlns:xlink="http://www.w3.org/1999/xlink" version="1.1" id="mapsvg_1_6_1_0_1" x="0px" y="0px" viewBox="0 0 12700 7500" xml:space="preserve">




<g id="Z_6_1">
	<g id="Z_6_1_B">
		<polygon id="Z_6_1_B48" fill="#6CAFBC" stroke="#888888" stroke-width="10" stroke-linecap="square" points="9953.5,3369.1     10065,3461.6 9978.9,3699.6 9839.1,3649.2 9770.1,3589.6   "/>
		<path id="Z_6_1_B47" fill="#6CAFBC" stroke="#888888" stroke-width="10" stroke-linecap="square" d="M11618,2748.9l-649.5-579.1    l-8.5,10.2l-285.8-253.4l8-10.8l-470.7-419.6L9986.1,1764l37.9,32.9l-505.2,604.1l-293.9-243.1l12.4-15.2l-535.9-499.8    l-219.5,239.2l816.3,696.7l7-8.4l45.1,37.6l-19.6,25l257.1,212.6l10.5-12.7l401.8,336.7l-8.8,14.3l96,51l200.5,115.8l158.9,220.8    l-169.8,188.3l-9.2,300l120.1,100.7l193.2,206.2l258.7-236.2l-64-70l-166.8-144l788-888.9l-12.7-10.7l222.6-254.3L11618,2748.9z     M10222.5,2751.3l-60.7,114.5l-346.8-288l102.5-122.7l232.4-282.3l-0.1-0.1l119.8-143.8l235.4,209.9l-75.7,135.7L10222.5,2751.3z     M11022.7,2918l-217.9,241.2l-121.6,140.9l-253.8-211.7l88.8-162.3l157-288.5l90.2-167.7l365.4,328.6L11022.7,2918z"/>
		<polygon id="Z_6_1_B46" fill="#6CAFBC" points="9953.5,3369.1 10065,3461.6 9978.9,3699.6 9839.1,3649.2 9770.1,3589.6   "/>
		<path id="Z_6_1_B45" fill="#6CAFBC" d="M11618,2748.9l-649.5-579.1l-8.5,10.2l-285.8-253.4l8-10.8l-470.7-419.6L9986.1,1764    l37.9,32.9l-505.2,604.1l-293.9-243.1l12.4-15.2l-535.9-499.8l-219.5,239.2l816.3,696.7l7-8.4l45.1,37.6l-19.6,25l257.1,212.6    l10.5-12.7l401.8,336.7l-8.8,14.3l96,51l200.5,115.8l158.9,220.8l-169.8,188.3l-9.2,300l120.1,100.7l193.2,206.2l258.7-236.2    l-64-70l-166.8-144l788-888.9l-12.7-10.7l222.6-254.3L11618,2748.9z M10222.5,2751.3l-60.7,114.5l-346.8-288l102.5-122.7    l232.4-282.3l-0.1-0.1l119.8-143.8l235.4,209.9l-75.7,135.7L10222.5,2751.3z M11022.7,2918l-217.9,241.2l-121.6,140.9    l-253.8-211.7l88.8-162.3l157-288.5l90.2-167.7l365.4,328.6L11022.7,2918z"/>
		<path id="Z_6_1_B44" opacity="0.3" fill="#C0C0C0" d="M10890.7,3265.7l-254.2,287.3l85.2,75.1l64.8-73.3l-31.9-28.5l68.3-77.2    l15.6,13.4l121.9-135.4L10890.7,3265.7z M10820.6,3452.2l-13,14.7l-38.3-33.9l-12.1-10.7l22.6-25.6l47.8,42.3l-9.7,10.9    L10820.6,3452.2z"/>
		<polygon id="Z_6_1_B43" opacity="0.3" fill="#C0C0C0" points="10779.9,3396.7 10757.2,3422.2 10769.4,3433 10807.6,3466.8     10820.6,3452.2 10818,3449.9 10827.7,3439   "/>
		<polygon id="Z_6_1_B42" opacity="0.3" fill="#95B5B7" points="10779.9,3396.7 10757.2,3422.2 10769.4,3433 10807.6,3466.8     10820.6,3452.2 10818,3449.9 10827.7,3439   "/>
		<path id="Z_6_1_B41" fill="#C0C0C0" d="M10030.6,2917.6l-0.9,1.1l-67.2-56.2l-45,53.9l67.2,56.2l-16.1,19.2l240.6,201.2l62-74.2    L10030.6,2917.6z M9981.6,2895.4l-36.6,44l-20.5-17.2l2.1-2.5l-4.6-3.8l41.3-48.7l25,20.2L9981.6,2895.4z"/>
		<polygon id="Z_6_1_B39" fill="#4A7B7C" points="9944.2,3480.4 9991.3,3519.7 10049.9,3449.1 10065,3461.6 9978.9,3699.6     9839.1,3649.2 9816.6,3630.8   "/>
		<polygon id="Z_6_1_B38" fill="#C0C0C0" points="10623.3,3929 10608,3946.6 10516.4,3866.9 10530,3847.9   "/>
		<polygon id="Z_6_1_B37" fill="#C0C0C0" points="11144.4,2629.2 11118.5,2606.2 11161.9,2557.3 11164.7,2559.8 11176.3,2570     11187.8,2580.2 11189.8,2582 11191.6,2580 11056.7,2460.7 11068.4,2447.5 10970.3,2360.8 10896.8,2443.9 10971.7,2510.2     10986.4,2493.6 11144.4,2633.3 11179.9,2593.3 11177.8,2591.4   "/>
		<polygon id="Z_6_1_B36" fill="#C0C0C0" points="10184.9,1749 10074.8,1657.9 10120.4,1604.4 10229.6,1695.5   "/>
		<polygon id="Z_6_1_B35" fill="#EFEFEF" stroke="#EFEFEF" stroke-width="4.252" points="10675.2,2637.6 10735,2724.3 10933.9,2898     11005.1,2937.5 10804.7,3159.2 10683.7,3032 10564.1,2954.6 10518.2,2926.1   "/>
		<polygon id="Z_6_1_B34" fill="#EFEFEF" stroke="#EFEFEF" stroke-width="4.252" points="9931.6,2438.1 10042.2,2496.7     10159.2,2595.6 10250.7,2699.9 10414.8,2401 10292.4,2317.6 10238.4,2267.2 10149.8,2172.8   "/>
		<polygon id="Z_6_1_B33" fill="#C0C0C0" points="9577.5,2538.4 9577.5,2538.4 9524.8,2494.3 9475.6,2553 9496.5,2570.5     9528.4,2597.1 9515.8,2612.2 9882.3,2918.6 9944,2844.8   "/>
		<polygon id="Z_6_1_B32" fill="#C0C0C0" points="10413.6,3900.1 10666.4,4113 10605.4,4185.2 10400,4011.9 10402,3914.7   "/>
		
			<rect id="Z_6_1_B31" x="9820.9" y="2786" transform="matrix(0.6414 -0.7672 0.7672 0.6414 1235.8337 8642.9268)" fill="#E88B8B" width="86.7" height="426.7"/>
		<path id="Z_6_1_B30" fill="#E88B8B" d="M10986.4,2493.6l-14.7,16.6l-150.9-133.5l73.5-83.1l-299.7-265.2l-57.3,64.8l-141.6-125.3    l-23.2,26.3l-42.7-37.8l0.1-0.1l-72.4-59.9l-188.1,227.3l-22.7-19.3l-41.2,49.3l-71-58.7l100.7-121.7l101.1-122.2l36.9,30.5    l31.5-38.1l-58-48l38.4-46.4l-109.9-90.9l-89.5,106.6l38.6,31.9l-13.5,16.3l-351.4,420.6l-0.5-0.4l-76.9,92.7l-101.3,121.9    l29.8,25l15-18.2l37,30.7l28.3-34.1l99,82.2l-31.2,37.5l323.4,268.5l-19.3,23.2l308.6,256.2l-39.4,47.1l49.2,41.1l39.5-47.3    l236.8,196.6l79-95.2l-207.1-171.9l336.1-619.3l192.4,173.1l62.4-70.4l39.4,34.9l24.4-27.6L10986.4,2493.6z M10505,2238.9    l-343.3,626.9L9815.2,2578l454.3-548.7L10505,2238.9z"/>
		<polygon id="Z_6_1_B52" fill="#C0C0C0" points="10780.6,4183.8 10839.4,4130 10793.4,4079.8 10734.5,4133.6   "/>
		<polygon id="Z_6_1_B51" fill="#C0C0C0" points="10659,4202.8 10594.4,4261.9 10640.4,4312.1 10705,4252.9   "/>
		
			<rect id="Z_6_1_B14" x="10711.8" y="4157.8" transform="matrix(0.7376 -0.6752 0.6752 0.7376 -17.4151 8338.8945)" fill="#C0C0C0" width="19.1" height="68.1"/>
		<polygon id="Z_6_1_B29" fill="#C0C0C0" points="8644.9,1763.1 8584.5,1829.3 8556.2,1805.7 8614.2,1741.9 8628.2,1753.5     8630.5,1751 8630.5,1751.1 8630.5,1751.1 8614.4,1737.5 8551.6,1806 8702.1,1931.6 8704.1,1929.5 8640.8,1876.5 8663.6,1851.6     8713.7,1893.5 8749.5,1854.1 8776.8,1877 8717.2,1944.2 8929.7,2121.5 8988.9,2050.7   "/>
		
			<rect id="Z_6_1_B28" x="10818.5" y="2327.7" transform="matrix(0.6626 -0.749 0.749 0.6626 1908.9021 8936.8564)" fill="#C0C0C0" width="111" height="43.9"/>
		
			<rect id="Z_6_1_B27" x="10873.5" y="2169.2" transform="matrix(0.6626 -0.749 0.749 0.6626 2021.3882 8911.7451)" fill="#C0C0C0" width="57.7" height="86"/>
		
			<rect id="Z_6_1_B26" x="10555.4" y="3419.8" transform="matrix(0.6626 -0.749 0.749 0.6626 988.0428 9110.2363)" fill="#C0C0C0" width="101.3" height="77.2"/>
		
			<rect id="Z_6_1_B25" x="10889.4" y="3002.3" transform="matrix(0.6626 -0.749 0.749 0.6626 1476.5554 9375.4414)" fill="#C0C0C0" width="510.5" height="93"/>
		
			<rect id="Z_6_1_B24" x="9410.8" y="2403" transform="matrix(0.6414 -0.7672 0.7672 0.6414 1498.1812 8127.7051)" fill="#C0C0C0" width="66.9" height="116.2"/>
		
			<rect id="Z_6_1_B23" x="10528.6" y="3613.9" transform="matrix(0.6626 -0.749 0.749 0.6626 834.1616 9173.3096)" fill="#C0C0C0" width="140.9" height="93.7"/>
		<polygon id="Z_6_1_B22" fill="#C0C0C0" points="9770.1,3589.6 9953.5,3369.1 10049.9,3449.1 9991.3,3519.7 9944.2,3480.4     9816.6,3630.8   "/>
		
			<rect id="Z_6_1_B21" x="10601.8" y="3476.1" transform="matrix(0.6626 -0.749 0.749 0.6626 972.9347 9158.8916)" fill="#95B5B7" width="101.3" height="46.9"/>
		<polygon id="Z_6_1_B20" fill="#4A7B7C" points="10087.3,3234.7 10094.3,3227.2 10368.2,3272.9 10496.8,3383.9 10501.5,3516.3     10465.4,3558.4 10461.5,3554.9 10446.6,3571.3 10287.7,3350.5   "/>
		<polygon id="Z_6_1_B18" fill="#C0C0C0" points="9393.6,2562.5 9353.5,2610.5 9350.3,2607.8 9330.6,2632.8 9405.8,2694.9     9465.6,2623   "/>
		<polygon id="Z_6_1_B17" fill="#C0C0C0" points="11394.2,2739.9 11337.7,2803.8 11318.3,2786.7 11374.8,2722.8 11229.4,2594.2     11158.3,2674.5 11387.1,2876.9 11458.2,2796.6   "/>
		
			<rect id="Z_6_1_B16" x="11313.6" y="2750.4" transform="matrix(0.6626 -0.749 0.749 0.6626 1761.7646 9437.6113)" fill="#95B5B7" width="85.3" height="25.9"/>
		<polygon id="Z_6_1_B15" fill="#C0C0C0" points="9934.3,2094.9 10136.1,1851 10208.4,1910.8 10005.3,2153.6   "/>
		
			<rect id="Z_6_1_B13" x="9665.2" y="2685.3" transform="matrix(0.6415 -0.7672 0.7672 0.6415 1400.1243 8425.041)" fill="#95B5B7" width="96.2" height="58.6"/>
		<polygon id="Z_6_1_B12" fill="#C0C0C0" points="9641.1,2591.6 9596.4,2554.2 9645,2495.9 9689.6,2533.2   "/>
		<polygon id="Z_6_1_B11" fill="#95B5B7" points="11187.8,2580.2 11176.3,2570 11164.7,2559.8 11161.9,2557.3 11118.5,2606.2     11144.4,2629.2 11177.8,2591.4 11179.9,2593.3 11189.8,2582   "/>
		
			<rect id="Z_6_1_B10" x="10894.9" y="3263.4" transform="matrix(0.6626 -0.749 0.749 0.6626 1203.7876 9289.1748)" fill="#95B5B7" width="35.1" height="90.1"/>
		<polygon id="Z_6_1_B9" fill="#95B5B7" points="10091.5,3094.5 10153.3,3020.9 10198.3,3057.8 10136.8,3132.4   "/>
		<polygon id="Z_6_1_B8" fill="#95B5B7" points="9922,2915.9 9926.6,2919.7 9924.5,2922.2 9945,2939.4 9981.6,2895.4 9988.3,2887.4     9963.3,2867.2   "/>
		<polygon id="Z_6_1_B7" fill="#95B5B7" points="8749.5,1854.1 8713.7,1893.5 8663.6,1851.6 8640.8,1876.5 8704.1,1929.5     8702.1,1931.6 8702.1,1931.6 8717.2,1944.2 8776.8,1877   "/>
		<polygon id="Z_6_1_B6" fill="#95B5B7" points="8628.2,1753.5 8614.2,1741.9 8556.2,1805.7 8584.5,1829.3 8644.8,1763 8630.5,1751       "/>
		
			<rect id="Z_6_1_B5" x="10856.5" y="2354.5" transform="matrix(0.6626 -0.749 0.749 0.6626 1896.5549 8976.7021)" fill="#95B5B7" width="111" height="57.6"/>
		<polygon id="Z_6_1_B4" fill="#95B5B7" points="9549.1,2519.8 9525.6,2500.1 9512.1,2516.3 9512.1,2516.3 9479,2555.9     9494.8,2569.1 9496.8,2566.8 9504.5,2573.2   "/>
		<polygon id="Z_6_1_B3" fill="#95B5B7" points="10421.6,1872.9 10361.8,1940.5 10298.8,1883.6 10357.2,1816.4   "/>
		
			<rect id="Z_6_1_B2" x="10676.3" y="4179" transform="matrix(0.7376 -0.6752 0.6752 0.7376 -37.7997 8328.8447)" fill="#95B5B7" width="43.7" height="68.1"/>
		
			<rect id="Z_6_1_B1" x="10723.3" y="4138" transform="matrix(0.7376 -0.6752 0.6752 0.7376 1.6144 8348.4287)" fill="#95B5B7" width="39.5" height="68.4"/>
		<polygon id="Z_6_1_B50" fill="#C0C0C0" points="10299.8,1883.6 10357.6,1817.1 10248,1719.9 10189.1,1787.7 10333.2,1913.7   "/>
		<polygon id="Z_6_1_B49" fill="#C0C0C0" points="10421.7,1874 10363.2,1940 10538.2,2093.1 10595.6,2028.3   "/>
	</g>
	<g id="Z_6_1_A">
		<polygon id="Z_6_1_A73" fill="#DAEBEE" points="10890.7,3265.7 10940.7,3209.1 11010.3,3270.8 10960.4,3327.3   "/>
		
			<rect id="Z_6_1_A72" x="10457.6" y="3745.4" transform="matrix(0.6561 -0.7547 0.7547 0.6561 743.2155 9216.3652)" fill="#B6D7DD" stroke="#B6D7DD" stroke-width="5" stroke-miterlimit="10" width="51.6" height="94.7"/>
		
			<rect id="Z_6_1_A71" x="10488.7" y="3692.9" transform="matrix(0.6561 -0.7547 0.7547 0.6561 796.1716 9232.1621)" fill="#DAEBEE" width="76.9" height="99.4"/>
		
			<rect id="Z_6_1_A70" x="9546.7" y="2753.5" transform="matrix(0.6414 -0.7672 0.7672 0.6414 1300.7162 8358.0391)" fill="#E260E6" stroke="#D931DF" stroke-width="5" stroke-linecap="square" width="90.4" height="67.9"/>
		
			<rect id="Z_6_1_A69" x="8925.9" y="2159.5" transform="matrix(0.6494 -0.7604 0.7604 0.6494 1438.012 7603.8467)" fill="#DAEBEE" width="80.2" height="165.6"/>
		
			<rect id="Z_6_1_A68" x="9007.3" y="2162.1" transform="matrix(0.6494 -0.7604 0.7604 0.6494 1478.7196 7640.1909)" fill="#DAEBEE" width="36.9" height="108.5"/>
		<polygon id="Z_6_1_A67" fill="#DAEBEE" points="10335.8,1607.2 10273.5,1679.7 10146.2,1573.8 10211.5,1496.3   "/>
		<polygon id="Z_6_1_A66" fill="#DAEBEE" points="10670.7,1905.8 10596.9,1991.1 10261,1694.3 10335.8,1607.2   "/>
		
			<rect id="Z_6_1_A65" x="10634.7" y="1978" transform="matrix(0.6561 -0.7547 0.7547 0.6561 2164.1748 8751.7588)" fill="#B6D7DD" width="98.8" height="46.9"/>
		<polygon id="Z_6_1_A64" fill="#B6D7DD" points="10634,2023.4 10596.9,1991.1 10670.7,1905.8     10682.1,1915.9 10674.1,1926.7 10699,1948.5   "/>
		
			<rect id="Z_6_1_A63" x="10679.4" y="2004.5" transform="matrix(0.6561 -0.7547 0.7547 0.6561 2150.2061 8798.916)" fill="#B6D7DD" width="98.8" height="71.7"/>
		
			<rect id="Z_6_1_A62" x="10724.1" y="2056" transform="matrix(0.6561 -0.7547 0.7547 0.6561 2136.0435 8846.1035)" fill="#B6D7DD" width="98.8" height="47.1"/>
		
			<rect id="Z_6_1_A61" x="10760.4" y="2086.5" transform="matrix(0.6561 -0.7547 0.7547 0.6561 2124.731 8884.2939)" fill="#B6D7DD" width="98.8" height="49"/>
		<polygon id="Z_6_1_A60" fill="#DAEBEE" points="11254.9,2576.2 11217.7,2543.9 11220.8,2540.2 10990.3,2339.7 11064,2254.9     11328.7,2491.3   "/>
		
			<rect id="Z_6_1_A59" x="10796.6" y="2119" transform="matrix(0.6561 -0.7547 0.7547 0.6561 2113.429 8922.4482)" fill="#B6D7DD" width="98.8" height="47"/>
		
			<rect id="Z_6_1_A58" x="11253.4" y="2525.5" transform="matrix(0.6561 -0.7547 0.7547 0.6561 1965.9441 9412.418)" fill="#B6D7DD" width="112.8" height="47.6"/>
		
			<rect id="Z_6_1_A57" x="11288.8" y="2556.9" transform="matrix(0.6561 -0.7547 0.7547 0.6561 1954.8881 9449.7422)" fill="#B6D7DD" width="112.8" height="46.3"/>
		
			<rect id="Z_6_1_A56" x="11324.7" y="2586.9" transform="matrix(0.6561 -0.7547 0.7547 0.6561 1943.6851 9487.5635)" fill="#B6D7DD" width="112.8" height="48.8"/>
		
			<rect id="Z_6_1_A55" x="11361.1" y="2619.1" transform="matrix(0.6561 -0.7547 0.7547 0.6561 1932.3444 9525.8486)" fill="#B6D7DD" width="112.8" height="47.5"/>
		
			<rect id="Z_6_1_A54" x="11243.1" y="3049.6" transform="matrix(0.6561 -0.7547 0.7547 0.6561 1536.1473 9569.292)" fill="#B6D7DD" width="47.8" height="99.3"/>
		
			<rect id="Z_6_1_A53" x="10975.6" y="3351.3" transform="matrix(0.6561 -0.7547 0.7547 0.6561 1216.3594 9471.1016)" fill="#B6D7DD" width="47.6" height="99.4"/>
		
			<rect id="Z_6_1_A52" x="10944" y="3387.4" transform="matrix(0.6561 -0.7547 0.7547 0.6561 1178.3079 9459.8301)" fill="#B6D7DD" width="48.1" height="99.4"/>
		
			<rect id="Z_6_1_A51" x="10588.3" y="3283" transform="matrix(0.6561 -0.7547 0.7547 0.6561 1150.3997 9169.3633)" fill="#B6D7DD" width="94" height="79.1"/>
		
			<rect id="Z_6_1_A50" x="10651" y="3336.7" transform="matrix(0.6561 -0.7547 0.7547 0.6561 1128.3601 9233.2803)" fill="#B6D7DD" width="86.9" height="83.8"/>
		
			<rect id="Z_6_1_A49" x="10707.7" y="3270.5" transform="matrix(0.6561 -0.7547 0.7547 0.6561 1184.3911 9241.9736)" fill="#B6D7DD" width="48.6" height="102.1"/>
		
			<rect id="Z_6_1_A48" x="10715.8" y="3181.4" transform="matrix(0.6561 -0.7547 0.7547 0.6561 1278.2318 9269.7725)" fill="#DAEBEE" width="187.4" height="102.1"/>
		<polygon id="Z_6_1_A47" fill="#B6D7DD" points="10832.4,3128.3 10865.6,3091.8 10944.7,3160.5     10912.3,3197.7   "/>
		<polygon id="Z_6_1_A46" fill="#B6D7DD" points="10865.6,3091.8 10897.4,3056.8 10975.7,3124.8     10944.7,3160.5   "/>
		<polygon id="Z_6_1_A45" fill="#B6D7DD" points="10897.4,3056.8 10929,3021.7 11006.6,3089.2     10975.7,3124.8   "/>
		<polygon id="Z_6_1_A44" fill="#B6D7DD" points="10929,3021.7 10961.7,2985.7 11038.5,3052.5     11006.6,3089.2   "/>
		<polygon id="Z_6_1_A43" fill="#B6D7DD" points="10961.7,2985.7 10994.1,2950.9 11069.7,3016.6     11038.5,3052.5   "/>
		
			<rect id="Z_6_1_A42" x="11023.9" y="2916.2" transform="matrix(0.6561 -0.7547 0.7547 0.6561 1560.9215 9357.6006)" fill="#B6D7DD" width="46.4" height="100.1"/>
		<polygon id="Z_6_1_A41" fill="#B6D7DD" points="11024.6,2915.9 11056.7,2880.4 11131.6,2945.4     11100.2,2981.6   "/>
		<polygon id="Z_6_1_A40" fill="#B6D7DD" points="11056.7,2880.4 11088.6,2845.1 11162.8,2909.6     11131.6,2945.4   "/>
		
			<rect id="Z_6_1_A39" x="11113.7" y="2802.2" transform="matrix(0.6561 -0.7547 0.7547 0.6561 1683.4376 9395.1318)" fill="#B6D7DD" width="71.8" height="96.8"/>
		
			<rect id="Z_6_1_A38" x="11161.8" y="2750.3" transform="matrix(0.6561 -0.7547 0.7547 0.6561 1741.3276 9414.1309)" fill="#B6D7DD" width="75.1" height="92.5"/>
		<polygon id="Z_6_1_A37" fill="#B6D7DD" points="11099.8,2770.7 11154.2,2707.6 11189.1,2737.9     11133.9,2801.3   "/>
		<polygon id="Z_6_1_A36" fill="#B6D7DD" points="11062.9,2737.7 11117.7,2674.3 11155,2706.7     11099.5,2770.5   "/>
		<polygon id="Z_6_1_A35" fill="#DAEBEE" points="10958.4,2643.6 11019.8,2572.9 11126,2665.2 11062.9,2737.7   "/>
		<polygon id="Z_6_1_A34" fill="#DAEBEE" points="10465.7,3558.6 10517.9,3498.6 10588,3559.5 10534.7,3620.8   "/>
		
			<polygon id="Z_6_1_A33" fill="#B6D7DD" stroke="#B6D7DD" stroke-width="5" stroke-miterlimit="10" points="    10404.6,3811.1 10430.7,3781.2 10502.2,3843.3 10452.8,3900.1 10404.4,3858   "/>
		
			<rect id="Z_6_1_A32" x="10331.4" y="4065.8" transform="matrix(0.6449 -0.7642 0.7642 0.6449 560.1417 9385.5576)" fill="#B6D7DD" width="98.5" height="48.4"/>
		<polygon id="Z_6_1_A31" fill="#DAEBEE" points="10420.7,4080 10447.4,4104.8 10640.5,4311.5 10581,4367.1 10387.7,4160.3     10367.4,4143.2   "/>
		<polygon id="Z_6_1_A30" fill="#B6D7DD" points="10368.6,4015.9 10393.6,4037 10330.4,4112     10293.7,4081.1 10349.1,4015.2   "/>
		<polygon id="Z_6_1_A29" fill="#DAEBEE" points="10857.2,3636.1 10799.6,3586 10685.7,3717 10661.9,3696.2 10530,3847.9     10608.7,3916.3   "/>
		<polygon id="Z_6_1_A28" fill="#DAEBEE" points="10567.6,3993 10623.4,3929 10775.6,4060.3 10792.9,4079.2 10733,4134.5   "/>
		<polygon id="Z_6_1_A27" fill="#DAEBEE" points="10989.8,3487.9 10914.7,3422.7 10840.4,3508.2 10855.7,3521.5 10799.6,3586     10857.2,3636.1   "/>
		<polygon id="Z_6_1_A26" fill="#DAEBEE" points="10977.5,3350.4 11213.9,3084.7 11288.8,3149.9 11052.5,3415.7   "/>
		
			<rect id="Z_6_1_A25" x="11397" y="2651" transform="matrix(0.6561 -0.7547 0.7547 0.6561 1920.5187 9563.1924)" fill="#B6D7DD" width="111" height="47"/>
		
			<rect id="Z_6_1_A24" x="11433.6" y="2682.9" transform="matrix(0.6561 -0.7547 0.7547 0.6561 1908.6619 9601.4463)" fill="#B6D7DD" width="109.8" height="47.5"/>
		<polygon id="Z_6_1_A23" fill="#DAEBEE" points="11618,2748.9 11542.5,2680.8 11470.5,2763.7 11490.4,2781 11328,2967.8     11328,2967.8 11252.5,3055 11320.2,3113.8 11396.7,3027.4 11384.2,3016.6   "/>
		<polygon id="Z_6_1_A22" fill="#DAEBEE" points="10534.7,3620.8 10461.5,3554.9 10277.1,3759.6 10276.9,3759.6 10267.6,4059.6     10293.7,4081.4 10349.1,4015.2 10372.1,4016.1 10379.9,3792.8   "/>
		<polygon id="Z_6_1_A21" fill="#DAEBEE" points="9673.4,2896.5 9599.8,2835.3 9650.3,2774.9 9723.9,2836.1   "/>
		<polygon id="Z_6_1_A20" fill="#E260E6" stroke="#D931DF" stroke-width="5" stroke-linecap="square" points="9536.9,2800.4     9482.5,2755.1 9540.4,2685.5 9594.9,2731.1   "/>
		<polygon id="Z_6_1_A19" fill="#E260E6" stroke="#D931DF" stroke-width="5" stroke-linecap="square" points="9482.5,2755.1     9407.3,2693.1 9465.6,2623 9540.4,2685.5   "/>
		<polygon id="Z_6_1_A18" fill="#B6D7DD" points="9353.5,2609.5 9318,2580.8 9379.8,2506.9     9415.3,2535.6   "/>
		<polygon id="Z_6_1_A17" fill="#B6D7DD" points="9305.1,2570.2 9298.1,2578.6 9256.2,2542.9     9332.3,2453.8 9386.3,2499 9318,2580.8   "/>
		
			<rect id="Z_6_1_A16" x="9208.7" y="2439.7" transform="matrix(0.6494 -0.7604 0.7604 0.6494 1366.4244 7914.5771)" fill="#B6D7DD" width="117.1" height="71.1"/>
		
			<rect id="Z_6_1_A15" x="9154.5" y="2393.4" transform="matrix(0.6494 -0.7604 0.7604 0.6494 1382.6089 7857.1919)" fill="#B6D7DD" width="117.1" height="71.3"/>
		
			<rect id="Z_6_1_A14" x="9100" y="2346.4" transform="matrix(0.6494 -0.7604 0.7604 0.6494 1398.9116 7799.3867)" fill="#B6D7DD" width="117.1" height="72.1"/>
		
			<rect id="Z_6_1_A13" x="9045.8" y="2301.1" transform="matrix(0.6494 -0.7604 0.7604 0.6494 1415.0957 7742.002)" fill="#B6D7DD" width="117.1" height="70.3"/>
		<polygon id="Z_6_1_A12" fill="#DAEBEE" points="10608,3946.6 10567.6,3993 10480.3,3917.1 10516.4,3866.9   "/>
		
			<rect id="Z_6_1_A11" x="8936.1" y="2074.6" transform="matrix(0.6494 -0.7604 0.7604 0.6494 1547.8257 7568.5474)" fill="#DAEBEE" width="93.1" height="61.8"/>
		
			<rect id="Z_6_1_A10" x="9000.8" y="2273.6" transform="matrix(0.6494 -0.7604 0.7604 0.6494 1428.5674 7694.2261)" fill="#B6D7DD" width="117.1" height="48.3"/>
		
			<rect id="Z_6_1_A9" x="8844.2" y="2147.8" transform="matrix(0.6494 -0.7604 0.7604 0.6494 1462.4348 7517.2358)" fill="#B6D7DD" width="80.2" height="49.3"/>
		
			<rect id="Z_6_1_A8" x="8807.7" y="2117.9" transform="matrix(0.6494 -0.7604 0.7604 0.6494 1473.3477 7478.541)" fill="#B6D7DD" width="80.2" height="46.7"/>
		
			<rect id="Z_6_1_A7" x="9056.2" y="2100.6" transform="matrix(0.6494 -0.7604 0.7604 0.6494 1534.5042 7669.4351)" fill="#DAEBEE" width="58.3" height="139.5"/>
		<polygon id="Z_6_1_A6" fill="#DAEBEE" points="8804,2156.6 8482,1881.7 8536.3,1822.5 8856.1,2095.6   "/>
		<polygon id="Z_6_1_A5" fill="#DAEBEE" points="9188.7,2201.7 8793.9,1832.3 8845.4,1777.1 9238.3,2143.4   "/>
		<polygon id="Z_6_1_A4" fill="#DAEBEE" points="8783.6,1843.4 8747.7,1813.5 8811.3,1745.3 8845.4,1777.1   "/>
		<polygon id="Z_6_1_A3" fill="#DAEBEE" points="8747.7,1813.5 8692.5,1767.5 8759,1696.5 8811.3,1745.3   "/>
		<polygon id="Z_6_1_A2" fill="#DAEBEE" points="8692.5,1767.5 8632.7,1717.6 8701.4,1642.7 8759.1,1696.5   "/>
		<polygon id="Z_6_1_A1" fill="#DAEBEE" points="9519.5,2400.7 9224.9,2157.8 9186.3,2204.5 9186.2,2204.4 9142.4,2257.5     9378.6,2449.8 9421.1,2398.1 9480.4,2447.7   "/>
	</g>
	<g id="Z_6_1_I">
		
			<use xlink:href="#WC" width="132.7" height="132.6" id="sZ_6_1_I23" x="-66.4" y="-66.3" transform="matrix(0.3767 0 0 -0.3767 11277.1758 2899.5039)" overflow="visible"/>
		
			<use xlink:href="#WC" width="132.7" height="132.6" id="sZ_6_1_I22" x="-66.4" y="-66.3" transform="matrix(0.3767 0 0 -0.3767 11398.3691 2796.5684)" overflow="visible"/>
		
			<use xlink:href="#WC" width="132.7" height="132.6" id="sZ_6_1_I21" x="-66.4" y="-66.3" transform="matrix(0.3767 0 0 -0.3767 11234.6611 2649.6177)" overflow="visible"/>
		
			<use xlink:href="#WC" width="132.7" height="132.6" id="sZ_6_1_I20" x="-66.4" y="-66.3" transform="matrix(0.3767 0 0 -0.3767 11063.5479 3144.7625)" overflow="visible"/>
		
			<use xlink:href="#WC" width="132.7" height="132.6" id="sZ_6_1_I19" x="-66.4" y="-66.3" transform="matrix(0.3767 0 0 -0.3767 9873.043 2842.7573)" overflow="visible"/>
		
			<use xlink:href="#WC" width="132.7" height="132.6" id="sZ_6_1_I18" x="-66.4" y="-66.3" transform="matrix(0.3767 0 0 -0.3767 10071.3643 2001.4552)" overflow="visible"/>
		
			<use xlink:href="#WC" width="132.7" height="132.6" id="sZ_6_1_I17" x="-66.4" y="-66.3" transform="matrix(0.3767 0 0 -0.3767 10266.0176 1787.7017)" overflow="visible"/>
		
			<use xlink:href="#WC" width="132.7" height="132.6" id="sZ_6_1_I16" x="-66.4" y="-66.3" transform="matrix(0.3767 0 0 -0.3767 8864.4951 2001.4552)" overflow="visible"/>
		
			<use xlink:href="#WC" width="132.7" height="132.6" id="sZ_6_1_I15" x="-66.4" y="-66.3" transform="matrix(0.3767 0 0 -0.3767 10524.6797 4055.2419)" overflow="visible"/>
		
			<use xlink:href="#escalier" width="132.7" height="132.6" id="sZ_6_1_I14" x="-66.4" y="-66.3" transform="matrix(0.3767 0 0 -0.3767 10855.9385 3372.2043)" overflow="visible"/>
		
			<use xlink:href="#escalier" width="132.7" height="132.6" id="sZ_6_1_I13" x="-66.4" y="-66.3" transform="matrix(0.3767 0 0 -0.3767 11310.9717 2720.8391)" overflow="visible"/>
		
			<use xlink:href="#escalier" width="132.7" height="132.6" id="sZ_6_1_I12" x="-66.4" y="-66.3" transform="matrix(0.3767 0 0 -0.3767 10015.6191 2966.2356)" overflow="visible"/>
		
			<use xlink:href="#escalier" width="132.7" height="132.6" id="sZ_6_1_I11" x="-66.4" y="-66.3" transform="matrix(0.3767 0 0 -0.3767 9594.8555 2607.4417)" overflow="visible"/>
		
			<use xlink:href="#escalier" width="132.7" height="132.6" id="sZ_6_1_I10" x="-66.4" y="-66.3" transform="matrix(0.3767 0 0 -0.3767 10395.0439 1938.0643)" overflow="visible"/>
		
			<use xlink:href="#escalier" width="132.7" height="132.6" id="sZ_6_1_I9" x="-66.4" y="-66.3" transform="matrix(0.3767 0 0 -0.3767 11089.5078 2539.4065)" overflow="visible"/>
		
			<use xlink:href="#escalier" width="132.7" height="132.6" id="sZ_6_1_I8" x="-66.4" y="-66.3" transform="matrix(0.3767 0 0 -0.3767 8662.2764 1831.7505)" overflow="visible"/>
		
			<use xlink:href="#escalier" width="132.7" height="132.6" id="sZ_6_1_I7" x="-66.4" y="-66.3" transform="matrix(0.3767 0 0 -0.3767 10780.75 4134.5854)" overflow="visible"/>
		
			<use xlink:href="#ascenseur" width="132.7" height="132.6" id="sZ_6_1_I5" x="-66.4" y="-66.3" transform="matrix(0.3767 0 0 -0.3767 10910.1094 2385.0088)" overflow="visible"/>
		
			<use xlink:href="#ascenseur" width="132.7" height="132.6" id="sZ_6_1_I4" x="-66.4" y="-66.3" transform="matrix(0.3767 0 0 -0.3767 10657.3545 4233.3062)" overflow="visible"/>
		
			<use xlink:href="#ascenseur" width="132.7" height="132.6" id="sZ_6_1_I3" x="-66.4" y="-66.3" transform="matrix(0.3767 0 0 -0.3767 10653.9814 3499.9451)" overflow="visible"/>
		
			<use xlink:href="#ascenseur" width="132.7" height="132.6" id="sZ_6_1_I2" x="-66.4" y="-66.3" transform="matrix(0.3767 0 0 -0.3767 10145.9082 3077.2375)" overflow="visible"/>
		
			<use xlink:href="#ascenseur" width="132.7" height="132.6" id="sZ_6_1_I1" x="-66.4" y="-66.3" transform="matrix(0.3767 0 0 -0.3767 9713.3047 2714.6453)" overflow="visible"/>
	</g>
	<g id="Z_6_1_D">
		<text transform="matrix(1 0 0 1 10699.0391 2930.9622)" fill="#515151" font-family="'Arial-BoldMT'" font-size="24px">TERRASSE</text>
		<text transform="matrix(1 0 0 1 10125.2705 2436.3376)" fill="#515151" font-family="'Arial-BoldMT'" font-size="24px">TERRASSE</text>
		<polyline fill="none" stroke="#7A7A7A" stroke-width="2.8346" stroke-miterlimit="10" points="10094.3,3227.2 10368.2,3272.9     10496.8,3383.9 10501.5,3516.3 10466.3,3559.2 10461.8,3553 10446.4,3571   "/>
	</g>
	<g id="Z_6_1_R">
		
		
	</g>
</g>

<symbol id="WC" viewBox="-61 -61 122 122">
	<path style="fill:#009393;" d="M61,0c0-33.7-27.3-61-61-61S-61-33.7-61,0s27.3,61,61,61S61,33.7,61,0z"/>
	<path style="fill:#009393;" d="M0,61c-33.7,0-61-27.3-61-61s27.3-61,61-61c33.7,0,61,27.3,61,61S33.7,61,0,61z M0-52.1   c-28.8,0-52.1,23.3-52.1,52.1S-28.8,52.1,0,52.1c28.8,0,52.1-23.3,52.1-52.1S28.8-52.1,0-52.1z"/>
	<path style="fill:#009393;stroke:#FFFFFF;stroke-width:8;stroke-miterlimit:10;" d="M52.1,0c0-28.8-23.3-52.1-52.1-52.1   S-52.1-28.8-52.1,0S-28.8,52.1,0,52.1S52.1,28.8,52.1,0z"/>
	<g>
		<polygon style="fill:#FFFFFF;" points="4.8,32.5 4.8,-32.7 -1.3,-32.7 -1.3,32.5   "/>
		<path style="fill:#FFFFFF;" d="M1.7-0.1"/>
		<path style="fill:#FFFFFF;" d="M-20.7,22.3c3,0,5.4,2.4,5.4,5.4c0,3-2.4,5.4-5.4,5.4c-3,0-5.4-2.4-5.4-5.4    C-26,24.7-23.6,22.3-20.7,22.3L-20.7,22.3z"/>
		<path style="fill:#FFFFFF;" d="M-20.7,27.7"/>
		<path style="fill:#FFFFFF;" d="M-21.5-11.8v-18.8c0-3.4-5-3.4-5,0v18.8h-6.7l7.2,24.9h-1.2l-4.2-14.2c-1-3.1-5.3-1.8-4.3,1.5    l4.7,15.5c0.5,1.8,2.7,4.9,6.6,4.9h3.5l0,0h3.9c3.8,0,6.1-3.1,6.6-4.9l4.7-15.4C-4.7-2.9-9-4.2-10-1l-4.2,14.2h-1.2l7.2-24.9h-6.7    v-18.8c0-3.3-5-3.3-5,0v18.8L-21.5-11.8L-21.5-11.8z"/>
		<path style="fill:#FFFFFF;" d="M17.7,20.8c-3.8,0-6.8-3.1-6.8-7V-2.8c0-3.2,4.6-3.2,4.7,0v15.2h1.1v-42.1c0-4.3,6.2-4.2,6.2,0    v24.6h1.1v-24.6c0-4.2,6.2-4.3,6.2,0v42.1h1.1V-2.8c0-3.3,4.6-3.3,4.6,0v16.5c0,3.6-2.7,7.1-6.9,7.1L17.7,20.8L17.7,20.8z"/>
		<path style="fill:#FFFFFF;" d="M23.3,22.3c2.9,0,5.4,2.4,5.4,5.4c0,3-2.4,5.4-5.4,5.4c-3,0-5.4-2.4-5.4-5.4    C18,24.7,20.4,22.3,23.3,22.3L23.3,22.3z"/>
		<path style="fill:#FFFFFF;" d="M23.3,27.7"/>
	</g>
</symbol>
<symbol id="ascenseur" viewBox="-61 -61 122 122">
	<path style="fill:#009393;" d="M61,0c0-33.7-27.3-61-61-61S-61-33.7-61,0s27.3,61,61,61S61,33.7,61,0z"/>
	<path style="fill:#009393;" d="M0,61c-33.7,0-61-27.3-61-61s27.3-61,61-61c33.7,0,61,27.3,61,61S33.7,61,0,61z M0-52.1   c-28.8,0-52.1,23.3-52.1,52.1S-28.8,52.1,0,52.1c28.8,0,52.1-23.3,52.1-52.1S28.8-52.1,0-52.1z"/>
	<path style="fill:#009393;stroke:#FFFFFF;stroke-width:8;stroke-miterlimit:10;" d="M52.1,0c0-28.8-23.3-52.1-52.1-52.1   S-52.1-28.8-52.1,0S-28.8,52.1,0,52.1S52.1,28.8,52.1,0z"/>
	<g>
		<path style="fill:#FFFFFF;" d="M18.6,10.1H-18c-3.1,0-5.6-2.5-5.6-5.6v-33.6c0-3.1,2.5-5.6,5.6-5.6h36.6c3.1,0,5.6,2.5,5.6,5.6    V4.5C24.2,7.5,21.7,10.1,18.6,10.1z M19.7-29.2c0-0.6-0.5-1.1-1.1-1.1H-18c-0.6,0-1.1,0.5-1.1,1.1V4.5c0,0.6,0.5,1.1,1.1,1.1h36.6    c0.6,0,1.1-0.5,1.1-1.1V-29.2z"/>
		<path style="fill:#FFFFFF;" d="M-10.2,1.1c1.2,0,2.2-1,2.2-2.2s-1-2.2-2.2-2.2s-2.2,1-2.2,2.2S-11.4,1.1-10.2,1.1z"/>
		<path style="fill:#FFFFFF;" d="M0.3,1.1c1.2,0,2.2-1,2.2-2.2s-1-2.2-2.2-2.2s-2.2,1-2.2,2.2S-0.9,1.1,0.3,1.1z"/>
		<path style="fill:#FFFFFF;" d="M10.8,1.1c1.2,0,2.2-1,2.2-2.2s-1-2.2-2.2-2.2s-2.2,1-2.2,2.2S9.5,1.1,10.8,1.1z"/>
		<path style="fill:#FFFFFF;" d="M-7.2-4.1h-6c-0.8,0-1.5-0.7-1.5-1.6v-8c0-0.7,0.5-1.4,1.1-1.5V-25c0-0.8,0.7-1.5,1.5-1.5    s1.5,0.7,1.5,1.5v9.7h0.7V-25c0-0.8,0.7-1.5,1.5-1.5c0.8,0,1.5,0.7,1.5,1.5v9.8c0.6,0.2,1.1,0.8,1.1,1.5v8    C-5.7-4.9-6.3-4.1-7.2-4.1z"/>
		<path style="fill:#FFFFFF;" d="M3.3-4.1h-6c-0.8,0-1.5-0.7-1.5-1.6v-8c0-0.7,0.5-1.4,1.1-1.5V-25c0-0.8,0.7-1.5,1.5-1.5    s1.5,0.7,1.5,1.5v9.7h0.7V-25c0-0.8,0.7-1.5,1.5-1.5s1.5,0.7,1.5,1.5v9.8c0.6,0.2,1.1,0.8,1.1,1.5v8C4.8-4.9,4.1-4.1,3.3-4.1z"/>
		<path style="fill:#FFFFFF;" d="M13.7-4.1h-6c-0.8,0-1.5-0.7-1.5-1.6v-8c0-0.7,0.5-1.4,1.1-1.5V-25c0-0.8,0.7-1.5,1.5-1.5    s1.5,0.7,1.5,1.5v9.7h0.7V-25c0-0.8,0.7-1.5,1.5-1.5c0.8,0,1.5,0.7,1.5,1.5v9.8c0.6,0.2,1.1,0.8,1.1,1.5v8    C15.2-4.9,14.6-4.1,13.7-4.1z"/>
		<path style="fill:#FFFFFF;" d="M-2.1,28.6l-7.5,7.5c-1.2,1.2-3.1,1.2-4.2,0c0,0,0,0,0,0l-7.5-7.5c-1.2-1.2-1.2-3.1,0-4.2    c1.2-1.2,3.1-1.2,4.2,0l2.4,2.4V16c0-1.6,1.3-3,3-3c1.6,0,3,1.3,3,3v10.7l2.4-2.4c1.2-1.2,3.1-1.2,4.2,0S-0.9,27.4-2.1,28.6z"/>
		<path style="fill:#FFFFFF;" d="M21.8,25.6c-1.2,1.2-3.1,1.2-4.2,0l-2.4-2.4v10.7c0,1.6-1.3,3-3,3c-1.6,0-3-1.3-3-3V23.2l-2.4,2.4    c-1.2,1.2-3.1,1.2-4.2,0c-1.2-1.2-1.2-3.1,0-4.2l7.5-7.5l0,0c0.2-0.2,0.5-0.4,0.7-0.5c1.1-0.6,2.6-0.4,3.5,0.5l0,0l7.5,7.5    C23,22.5,23,24.4,21.8,25.6z"/>
	</g>
</symbol>
<symbol id="escalier" viewBox="-61 -61 122 122">
	<path style="fill:#009393;" d="M61,0c0-33.7-27.3-61-61-61S-61-33.7-61,0s27.3,61,61,61S61,33.7,61,0z"/>
	<path style="fill:#009393;" d="M0,61c-33.7,0-61-27.3-61-61s27.3-61,61-61S61-33.7,61,0S33.7,61,0,61z M0-52.1   c-28.8,0-52.1,23.3-52.1,52.1S-28.8,52.1,0,52.1c28.8,0,52.1-23.3,52.1-52.1S28.8-52.1,0-52.1z"/>
	<path style="fill:#009393;stroke:#FFFFFF;stroke-width:8;stroke-miterlimit:10;" d="M52.1,0c0-28.8-23.3-52.1-52.1-52.1   S-52.1-28.8-52.1,0S-28.8,52.1,0,52.1S52.1,28.8,52.1,0z"/>
	<path style="fill:#FFFFFF;" d="M31.1,21.8c0-1.1-0.9-2-2-2h-9.4v-9.4c0-1.1-0.9-2-2-2H8.3l0-9.3C8.3-2,7.3-3,6.2-3h-9.3v-9.4   c0-1.1-0.9-2-2-2h-9.4v-9.4c0-1.1-0.9-2-2-2h-13.1c-1.1,0-2,0.9-2,2v1.7c0,1.1,0.9,2,2,2h9.4v9.4c0,1.1,0.9,2,2,2h9.4v9.4   c0,1.1,0.9,2,2,2h9.4v9.4c0,1.1,0.9,2,2,2H14v9.4c0,1.1,0.9,2,2,2h13.1c1.1,0,2-0.9,2-2V21.8z"/>
</symbol>
<defs id="defs_6_1">
<style type="text/css" id="polygons_css_6_1">
</style>
</defs>
</svg>
