<?xml version="1.0" encoding="utf-8"?>
<!-- Generator: Adobe Illustrator 20.0.0, SVG Export Plug-In . SVG Version: 6.00 Build 0)  -->
<svg xmlns:cc="http://creativecommons.org/ns#" xmlns:dc="http://purl.org/dc/elements/1.1/" xmlns:rdf="http://www.w3.org/1999/02/22-rdf-syntax-ns#" xmlns="http://www.w3.org/2000/svg" xmlns:svg="http://www.w3.org/2000/svg" xmlns:xlink="http://www.w3.org/1999/xlink" version="1.1" id="mapsvg_1_6_3_0_1" x="0px" y="0px" viewBox="0 0 12700 7500" xml:space="preserve">





<g id="Z_6_3">
	<g id="Z_6_3_B">
		<path id="Z_6_3_B52" d="M11618,2748.9l-649.5-579.1    l-8.5,10.2l-286.9-253.9l9.1-10.2l-470.7-419.6L9986.1,1764l37.9,32.9l-505.2,604.1l-293.9-243.1l12.4-15.2l-535.9-499.8    l-219.5,239.2l816.3,696.7l7-8.4l45.1,37.6l-19.6,25l257.1,212.6l10.5-12.7l401.8,336.7l-8.8,14.3l96,51l200.5,115.8l158.9,220.8    l-104,115.4l-384-320.8l-188,217.9l72.1,62l-26.4,31.8l451.4,381.8l120.1,100.7l193.2,206.2l258.7-236.2l-64-70l-166.8-144    l788-888.9l-12.7-10.7l222.6-254.3L11618,2748.9z M10161.8,2865.8l-346.8-288l102.5-122.7l352-426.2l235.4,209.9L10161.8,2865.8z     M11022.7,2918l-217.9,241.2l-121.6,140.9l-253.8-211.7l88.8-162.3l157-288.5l90.2-167.7l365.4,328.6L11022.7,2918z" class="P6_3_0"/>
		<path id="Z_6_3_B51" d="M11618,2748.9l-649.5-579.1l-8.5,10.2l-286.9-253.9l9.1-10.2l-470.7-419.6    L9986.1,1764l37.9,32.9l-505.2,604.1l-293.9-243.1l12.4-15.2l-535.9-499.8l-219.5,239.2l816.3,696.7l7-8.4l45.1,37.6l-19.6,25    l257.1,212.6l10.5-12.7l401.8,336.7l-8.8,14.3l96,51l200.5,115.8l158.9,220.8l-104,115.4l-384-320.8l-188,217.9l72.1,62    l-26.4,31.8l451.4,381.8l120.1,100.7l193.2,206.2l258.7-236.2l-64-70l-166.8-144l788-888.9l-12.7-10.7l222.6-254.3L11618,2748.9z     M10161.8,2865.8l-346.8-288l102.5-122.7l352-426.2l235.4,209.9L10161.8,2865.8z M11022.7,2918l-217.9,241.2l-121.6,140.9    l-253.8-211.7l88.8-162.3l157-288.5l90.2-167.7l365.4,328.6L11022.7,2918z" class="P6_3_1"/>
		<polygon id="Z_6_3_B53" points="10359.3,1822.9 10367.7,1830.3 10370.4,1827.3 10345.6,1805.2     10286.4,1871.4 10302.8,1886   " class="P6_3_2"/>
		<polygon id="Z_6_3_B54" points="10393.8,1848.2 10391.2,1851.1 10420,1876.7 10380.4,1921.1     10448.9,1981.5 10434.4,1997.7 10343.5,1918.1 10341.3,1920.5 10511.6,2072.6 10570.7,2006.4   " class="P6_3_2"/>
		
			<rect id="Z_6_3_B50" x="10903.9" y="2217.1" transform="matrix(0.6663 -0.7456 0.7456 0.6663 1970.7616 8906.8633)" width="67.7" height="68.5" class="P6_3_2"/>
		<polygon id="Z_6_3_B49" points="10111.5,2988.5 10122.3,2997.6 10112.8,3009 10078.2,3050.4     10053.1,3029.4 10093.8,2980.7 10103.9,2989.1 10107.3,2985 9764.8,2698.6 9706.4,2768.5 10095.2,3093.7 10153.7,3023.8   " class="P6_3_2"/>
		<polygon id="Z_6_3_B48" points="8701.9,1841.8 8683.2,1825.9 8646.7,1870.3 8650.3,1873.2 8647.3,1876.7     8662.3,1889.5   " class="P6_3_3"/>
		<polygon id="Z_6_3_B47" points="10107.3,2985 10107.3,2985 10111.5,2988.5   " class="P6_3_3"/>
		<polygon id="Z_6_3_B46" points="10093.8,2980.7 10053.1,3029.4 10078.2,3050.4 10112.8,3009     10122.3,2997.6 10111.5,2988.5 10107.3,2985 10103.9,2989.1   " class="P6_3_2"/>
		<polygon id="Z_6_3_B45" points="9547.6,2517.5 9545.2,2520.3 9548.6,2523.2 9565.9,2537.6 9574.6,2544.9     9575.8,2545.9 9535.9,2593.6 9508.7,2570.9 9538.1,2535.7 9534.7,2532.8 9489.1,2587.4 9663.4,2733.1 9721.8,2663.2   " class="P6_3_2"/>
		<polygon id="Z_6_3_B44" points="9534.7,2532.8 9534.7,2532.8 9541.8,2524.3   " class="P6_3_3"/>
		<polygon id="Z_6_3_B43" points="9508.7,2570.9 9535.9,2593.6 9575.8,2545.9 9574.6,2544.9 9565.9,2537.6     9548.6,2523.2 9545.2,2520.3 9541.8,2524.3 9534.7,2532.8 9538.1,2535.7   " class="P6_3_2"/>
		
			<rect id="Z_6_3_B42" x="9735.2" y="2436.6" transform="matrix(0.6361 -0.7716 0.7716 0.6361 1661.5406 8490.8604)" width="194.3" height="94.7" class="P6_3_4"/>
		<polygon id="Z_6_3_B41" points="10716,1964.2 10673.1,1926 10682.7,1915.2 10439.5,1699.7 10211.5,1496.3     10062,1673.8 10285.2,1872.8 10345.6,1805.2 10607.1,2038.9 10622.5,2018.7 10647.6,2041   " class="P6_3_4"/>
		<polygon id="Z_6_3_B40" points="10526.2,2127 10546.6,2104 10341.4,1920.5 10322.2,1944 10263.5,1891.3     10199,1965.4 10495.4,2230.8 10560.6,2157.9   " class="P6_3_4"/>
		<polygon id="Z_6_3_B39" points="9697.8,2525 9627.6,2466.3 9614.7,2481.8 9639.6,2502.7 9594.4,2556.6     9639.7,2594.5 9686.7,2538.3 9686.7,2538.3   " class="P6_3_2"/>
		
			<rect id="Z_6_3_B38" x="9396.2" y="2645.9" transform="matrix(0.6414 -0.7672 0.7672 0.6414 1329.335 8190.0576)" width="60.7" height="54" class="P6_3_2"/>
		
			<rect id="Z_6_3_B37" x="9978.2" y="1937.2" transform="matrix(0.6414 -0.7672 0.7672 0.6414 2094.3901 8451.5215)" width="221.1" height="95.9" class="P6_3_2"/>
		<polygon id="Z_6_3_B35" points="11232.5,2599.6 11456.4,2797.9 11449.9,2805.1 11449.9,2805.1     11418.5,2840.3 11397.3,2864 11397.3,2864 11385,2877.8 11205.5,2717.5 11217.9,2703.7 11176.2,2666.4   " class="P6_3_2"/>
		<polygon id="Z_6_3_B34" points="11073.4,2574.5 11008.7,2516.7 10996.4,2530.5 10898.2,2442.8     10959.6,2374.1 10959.6,2374.1 10969.7,2362.9 11132.7,2508.5   " class="P6_3_2"/>
		<polygon id="Z_6_3_B33" points="8735.7,1847.9 8879.3,1978.1 8832.4,2034.7 8685.1,1909   " class="P6_3_2"/>
		
			<rect id="Z_6_3_B30" x="10159" y="3077.4" transform="matrix(0.6414 -0.7672 0.7672 0.6414 1260.8993 8949.3428)" width="91.1" height="96.8" class="P6_3_2"/>
		<polygon id="Z_6_3_B29" points="8615.1,1736.7 8557,1799.6 8647.2,1876.7 8650.3,1873.2 8646.7,1870.3     8683.2,1825.9 8701.9,1841.8 8662.2,1889.5 8664.5,1891.4 8715.7,1829.5   " class="P6_3_2"/>
		<polygon id="Z_6_3_B28" points="10172.1,2984 10182.9,2971.3 10209.3,2924.6 10148.1,2890.7 10120,2941.6       " class="P6_3_2"/>
		
			<rect id="Z_6_3_B27" x="10281.4" y="2771.5" transform="matrix(0.4818 -0.8763 0.8763 0.4818 2910.9792 10560.1416)" width="204.5" height="95" class="P6_3_2"/>
		<polygon id="Z_6_3_B26" points="10290.8,3086.3 10364,2953.2 10280.8,2907.4 10217,3023.4   " class="P6_3_2"/>
		<polygon id="Z_6_3_B25" points="10926.3,2324.2 10704.9,2126.3 10649,2191.6 10679.8,2221.9     10665.4,2236.7 10854.9,2404.1   " class="P6_3_2"/>
		<polygon id="Z_6_3_B24" points="10545.9,3652.8 10607.4,3583.8 10676,3644.4 10614.4,3713.5   " class="P6_3_2"/>
		<polygon id="Z_6_3_B23" points="10440.8,3767.7 10468.5,3737.4 10535.3,3802.7 10513,3828.3   " class="P6_3_2"/>
		<polygon id="Z_6_3_B22" points="10823.2,3480.8 10964.7,3322.1 10891.7,3260.8 10752.1,3417.4     10754.2,3419.2 10637.5,3550.1 10691.8,3598.6 10692.3,3597.9 10719.4,3622.1 10782.2,3551.7 10755.1,3527.5 10808.5,3467.7   " class="P6_3_2"/>
		
			<rect id="Z_6_3_B20" x="10473.4" y="3912.5" transform="matrix(0.6412 -0.7674 0.7674 0.6412 665.8084 9525.2461)" width="90.2" height="276.3" class="P6_3_2"/>
		<polygon id="Z_6_3_B19" points="10026.5,3422.6 9958.6,3366 9770.5,3583.9 9820.8,3626.9 9953.8,3468.4     9974.5,3484.8   " class="P6_3_2"/>
		<polygon id="Z_6_3_B21" points="10695.4,4171.5 10740.9,4220.5 10839.6,4130.3 10793,4079.3   " class="P6_3_2"/>
		<polygon id="Z_6_3_B18" points="10658.2,4205.2 10610,4249.1 10593.7,4263.4 10639,4313.5 10702.3,4255.7       " class="P6_3_2"/>
		<polygon id="Z_6_3_B17" points="9367.1,2423.6 9495.4,2531.5 9462,2571.9 9334,2462.7   " class="P6_3_2"/>
		
			<rect id="Z_6_3_B16" x="10548.5" y="3396.1" transform="matrix(0.6656 -0.7463 0.7463 0.6656 968.8436 9061.1895)" width="95.3" height="106.7" class="P6_3_2"/>
		
			<rect id="Z_6_3_B15" x="10933.9" y="3156.7" transform="matrix(0.6656 -0.7463 0.7463 0.6656 1288.801 9285.0654)" width="144.1" height="95.2" class="P6_3_2"/>
		<polygon id="Z_6_3_B14" points="10434.4,1997.7 10448.9,1981.5 10380.4,1921.1 10420,1876.7     10391.2,1851.1 10393.7,1848.2 10371.8,1828.6 10370.3,1827.3 10367.7,1830.3 10359.3,1822.9 10302.8,1886.1 10341.4,1920.5     10343.5,1918.1   " class="P6_3_3"/>
		<polygon id="Z_6_3_B13" points="10002.2,3402.4 9957.7,3365.2 9904.5,3428.6 9971.2,3482.2 9982.6,3468.8     9961.5,3452.4   " class="P6_3_3"/>
		<polygon id="Z_6_3_B12" points="9897.6,3535.2 9848.5,3493 9829.3,3516 9878.4,3558.3   " class="P6_3_3"/>
		
			<rect id="Z_6_3_B10" x="10858.7" y="2354.4" transform="matrix(0.6663 -0.7456 0.7456 0.6663 1863.7117 8931.958)" width="107.2" height="58.1" class="P6_3_3"/>
		
			<rect id="Z_6_3_B9" x="11277.2" y="2666" transform="matrix(0.6663 -0.7456 0.7456 0.6663 1771.1 9316.6152)" width="37.3" height="26.6" class="P6_3_3"/>
		<polygon id="Z_6_3_B7" points="10658.3,4205.2 10702.3,4255.7 10741.2,4220.8 10695.5,4171.5   " class="P6_3_3"/>
		
			<rect id="Z_6_3_B6" x="10970.3" y="2472.2" transform="matrix(0.6663 -0.7456 0.7456 0.6663 1821.0304 9043.4795)" width="90.6" height="29.5" class="P6_3_3"/>
		
			<rect id="Z_6_3_B5" x="10604.9" y="3477.5" transform="matrix(0.6656 -0.7463 0.7463 0.6656 950.1526 9120.1377)" width="95.3" height="44.5" class="P6_3_3"/>
		<polygon id="Z_6_3_B4" points="10093.8,2980.7 10053.1,3029.4 10078.2,3050.4 10112.8,3009 10122.3,2997.6     10111.5,2988.5 10107.3,2985 10103.9,2989.1   " class="P6_3_3"/>
		
			<rect id="Z_6_3_B3" x="10100.4" y="3048.7" transform="matrix(0.6415 -0.7672 0.7672 0.6415 1277.4849 8886.7715)" width="91.1" height="56.1" class="P6_3_3"/>
		
			<rect id="Z_6_3_B2" x="9668.7" y="2688" transform="matrix(0.6415 -0.7672 0.7672 0.6415 1399.4783 8426.0723)" width="90.8" height="55.7" class="P6_3_3"/>
		<polygon id="Z_6_3_B1" points="9508.7,2570.9 9535.9,2593.6 9575.8,2545.9 9574.6,2544.9 9565.9,2537.6     9548.6,2523.2 9545.2,2520.3 9541.8,2524.3 9534.7,2532.8 9538.1,2535.7   " class="P6_3_3"/>
	</g>
	<g id="Z_6_3_A">
		
			<rect id="Z_6_3_A153" x="11228.5" y="2885.2" transform="matrix(0.6656 -0.7463 0.7463 0.6656 1572.7308 9375.7559)" width="41.2" height="95.2" class="P6_3_5"/>
		<polygon id="Z_6_3_A152" points="10622.5,2018.7 10720.3,2106.7 10649,2191.6 10680.4,2220.9     10665.6,2237.6 10831.3,2383.5 10793.3,2424.7 10698.6,2342.2 10505,2238.9 10495.4,2230.8 10560.7,2158 10526.2,2127   " class="P6_3_6"/>
		<polygon id="Z_6_3_A151" points="10161.8,2865.8 10120,2941.6 10100,2925.2 10073.5,2956.7 9868.2,2785.1     9892.5,2753 9872.3,2737.2 9927,2670.9   " class="P6_3_6"/>
		<polygon id="Z_6_3_A150" points="10676,3644.4 10716,3680.7 10731.9,3662.8 10788.6,3713 10608.7,3916.3     10513,3828.3   " class="P6_3_6"/>
		<polygon id="Z_6_3_A149" points="10392.9,3183.6 10314.9,3118.6 10356.3,3064.5 10334.5,3053.7     10348.1,3034.1 10433.4,3081 10428.8,3088.4 10454.7,3109.5   " class="P6_3_5"/>
		
			<rect id="Z_6_3_A148" x="10313.7" y="2874" transform="matrix(0.4818 -0.8763 0.8763 0.4818 2791.9541 10563.8906)" width="27.2" height="95" class="P6_3_5"/>
		
			<rect id="Z_6_3_A147" x="9941.1" y="2088.9" transform="matrix(0.6414 -0.7672 0.7672 0.6414 1935.1853 8409.418)" width="45.9" height="91.1" class="P6_3_7"/>
		<polygon id="Z_6_3_A146" points="9164,2238.2 9275.1,2333.2 9236.2,2379.2 9126.8,2285.9   " class="P6_3_5"/>
		<polygon id="Z_6_3_A145" points="9306.9,2359.5 9342.9,2391.4 9304.1,2437.1     9268.1,2406.4   " class="P6_3_8"/>
		
			<rect id="Z_6_3_A144" x="10315.1" y="3219.2" transform="matrix(0.6415 -0.7672 0.7672 0.6415 1222.548 9107.7783)" width="79.6" height="53.5" class="P6_3_7"/>
		
			<rect id="Z_6_3_A143" x="10374.4" y="3246.4" transform="matrix(0.6414 -0.7672 0.7672 0.6414 1204.869 9173.9736)" width="84.9" height="103.3" class="P6_3_5"/>
		
			<rect id="Z_6_3_A142" x="10546" y="2425.4" transform="matrix(0.4818 -0.8763 0.8763 0.4818 3312.8311 10547.5166)" width="55.6" height="95" class="P6_3_5"/>
		
			<rect id="Z_6_3_A141" x="10514.6" y="2494.8" transform="matrix(0.4818 -0.8763 0.8763 0.4818 3235.0884 10549.9863)" width="45" height="90.1" class="P6_3_7"/>
		
			<rect id="Z_6_3_A140" x="10495.4" y="2531.8" transform="matrix(0.4818 -0.8763 0.8763 0.4818 3189.3132 10551.4004)" width="39.9" height="95" class="P6_3_5"/>
		
			<rect id="Z_6_3_A139" x="11080.6" y="2532.8" transform="matrix(0.6678 -0.7443 0.7443 0.6678 1789.8173 9128.7246)" width="84.1" height="52.6" class="P6_3_7"/>
		
			<rect id="Z_6_3_A138" x="11130.1" y="2564.9" transform="matrix(0.6678 -0.7443 0.7443 0.6678 1772.4694 9182.7012)" width="88.7" height="81.3" class="P6_3_5"/>
		
			<rect id="Z_6_3_A137" x="10240.5" y="3822.7" transform="matrix(0.6412 -0.7674 0.7674 0.6412 732.153 9275.9824)" width="89.3" height="64.8" class="P6_3_5"/>
		
			<rect id="Z_6_3_A136" x="9868.7" y="2307.6" transform="matrix(0.6361 -0.7716 0.7716 0.6361 1799.7433 8525.959)" width="139.9" height="94.7" class="P6_3_5"/>
		
			<rect id="Z_6_3_A135" x="9974.7" y="2235.1" transform="matrix(0.6361 -0.7716 0.7716 0.6361 1877.2887 8545.9248)" width="47.8" height="95.4" class="P6_3_8"/>
		
			<rect id="Z_6_3_A134" x="10005.1" y="2198.2" transform="matrix(0.6361 -0.7716 0.7716 0.6361 1916.8082 8555.9619)" width="47.8" height="95.4" class="P6_3_8"/>
		
			<rect id="Z_6_3_A133" x="10035.5" y="2161.3" transform="matrix(0.6361 -0.7716 0.7716 0.6361 1956.3276 8565.999)" width="47.8" height="95.4" class="P6_3_8"/>
		
			<rect id="Z_6_3_A132" x="10065.9" y="2124.4" transform="matrix(0.6361 -0.7716 0.7716 0.6361 1995.847 8576.0352)" width="47.8" height="95.4" class="P6_3_8"/>
		
			<rect id="Z_6_3_A131" x="10096.6" y="2088.1" transform="matrix(0.6361 -0.7716 0.7716 0.6361 2034.8036 8585.9287)" width="46.4" height="95.4" class="P6_3_8"/>
		
			<rect id="Z_6_3_A130" x="10126.1" y="2052.3" transform="matrix(0.6361 -0.7716 0.7716 0.6361 2073.1973 8595.6797)" width="46.4" height="95.4" class="P6_3_8"/>
		
			<rect id="Z_6_3_A129" x="10155.2" y="2015.6" transform="matrix(0.6361 -0.7716 0.7716 0.6361 2112.5181 8605.666)" width="48.7" height="95.4" class="P6_3_8"/>
		<polygon id="Z_6_3_A128" points="10158.3,2014.1 10199,1965.4 10269.6,2029     10231.8,2074.8   " class="P6_3_8"/>
		
			<rect id="Z_6_3_A127" x="9889.6" y="1941.9" transform="matrix(0.6414 -0.7672 0.7672 0.6414 2032.1003 8327.6611)" width="70.9" height="95.9" class="P6_3_5"/>
		
			<rect id="Z_6_3_A126" x="9522.7" y="2313.2" transform="matrix(0.6414 -0.7672 0.7672 0.6414 1635.9473 8222.6191)" width="184" height="95.9" class="P6_3_5"/>
		
			<rect id="Z_6_3_A125" x="9665" y="2224.2" transform="matrix(0.6414 -0.7672 0.7672 0.6414 1730.9393 8247.8115)" width="48.1" height="95.9" class="P6_3_8"/>
		
			<rect id="Z_6_3_A124" x="9695.9" y="2187.3" transform="matrix(0.6414 -0.7672 0.7672 0.6414 1770.307 8258.25)" width="48.1" height="95.9" class="P6_3_8"/>
		
			<rect id="Z_6_3_A123" x="9726.7" y="2150.4" transform="matrix(0.6414 -0.7672 0.7672 0.6414 1809.6748 8268.6885)" width="48.1" height="95.9" class="P6_3_8"/>
		
			<rect id="Z_6_3_A122" x="9757.6" y="2113.5" transform="matrix(0.6414 -0.7672 0.7672 0.6414 1849.0425 8279.126)" width="48.1" height="95.9" class="P6_3_8"/>
		
			<rect id="Z_6_3_A121" x="9788.4" y="2076.6" transform="matrix(0.6414 -0.7672 0.7672 0.6414 1888.4102 8289.5645)" width="48.1" height="95.9" class="P6_3_8"/>
		
			<rect id="Z_6_3_A120" x="9864" y="1987.1" transform="matrix(0.6414 -0.7672 0.7672 0.6414 1983.924 8314.8896)" width="46.8" height="95.9" class="P6_3_8"/>
		
			<rect id="Z_6_3_A119" x="9815.5" y="2031.6" transform="matrix(0.6414 -0.7672 0.7672 0.6414 1936.4349 8302.2959)" width="69.3" height="95.9" class="P6_3_8"/>
		<polygon id="Z_6_3_A118" points="9224.9,2157.8 9357.1,2267.2 9306.5,2328.3 9175.6,2216.6   " class="P6_3_5"/>
		
			<rect id="Z_6_3_A117" x="9358.2" y="2266.7" transform="matrix(0.6374 -0.7705 0.7705 0.6374 1594.9241 8094.0493)" width="79.3" height="171.3" class="P6_3_5"/>
		<polygon id="Z_6_3_A116" points="9128.5,2172.4 9175.6,2216.6 9237.3,2142.5     9194,2102.2   " class="P6_3_8"/>
		<polygon id="Z_6_3_A115" points="8535.4,1823.5 8874.4,2111.9 8822.1,2172.5 8481.8,1881.9   " class="P6_3_5"/>
		<polygon id="Z_6_3_A114" points="8910.2,2143.3 8946.1,2173.9 8895.1,2234.9     8859.5,2204.5   " class="P6_3_8"/>
		<polygon id="Z_6_3_A113" points="8946.1,2173.9 8982,2204.5 8930.7,2265.3     8895.1,2234.9   " class="P6_3_8"/>
		<polygon id="Z_6_3_A112" points="8982,2204.5 9199.4,2390 9147.8,2450.7 8930.7,2265.3   " class="P6_3_5"/>
		<polygon id="Z_6_3_A111" points="8874.4,2111.9 8910.2,2143.3 8859.5,2204.5     8822.1,2172.5   " class="P6_3_8"/>
		<polygon id="Z_6_3_A110" points="9199.4,2390 9147.9,2450.5 9297.9,2578.7 9305.3,2570 9350.9,2609     9330.6,2632.8 9388,2680.2 9443,2613.2 9382.4,2561.4 9390.2,2552.7   " class="P6_3_5"/>
		<polygon id="Z_6_3_A109" points="9838.2,3033.7 9596,2831.2 9644.2,2773.5 9711.1,2829.4 9718.5,2820.1     9894.1,2966.9   " class="P6_3_5"/>
		<polygon id="Z_6_3_A108" points="9859.1,2937.7 9859.1,2937.7 9880.4,2955.5   " class="P6_3_5"/>
		<polygon id="Z_6_3_A106" points="10001.9,3057.1 9880.4,2955.5 10001.9,3057.1       " class="P6_3_8"/>
		
			<rect id="Z_6_3_A107" x="10119.3" y="2743.7" transform="matrix(0.4818 -0.8763 0.8763 0.4818 2868.7937 10436.4883)" width="277.4" height="98.3" class="P6_3_5"/>
		<polygon id="Z_6_3_A105" points="10659.4,2666.4 10681.6,2623.9 10597.9,2577.9     10574.8,2619.9   " class="P6_3_8"/>
		
			<rect id="Z_6_3_A104" x="10447.3" y="2863.8" transform="matrix(0.4818 -0.8763 0.8763 0.4818 2874.0784 10684.7529)" width="46.4" height="97.4" class="P6_3_8"/>
		
			<rect id="Z_6_3_A103" x="10614.4" y="2510.3" transform="matrix(0.4818 -0.8763 0.8763 0.4818 3284.5869 10670.0342)" width="97.7" height="95.5" class="P6_3_5"/>
		
			<rect id="Z_6_3_A102" x="10353.9" y="2946.5" transform="matrix(0.4818 -0.8763 0.8763 0.4818 2778.0552 10687.7666)" width="142.3" height="97.4" class="P6_3_5"/>
		
			<rect id="Z_6_3_A101" x="10664.9" y="2430.4" transform="matrix(0.4818 -0.8763 0.8763 0.4818 3377.3865 10667.1182)" width="84.7" height="95.5" class="P6_3_5"/>
		
			<rect id="Z_6_3_A100" x="10300" y="2580.3" transform="matrix(0.4818 -0.8763 0.8763 0.4818 3058.512 10430.5293)" width="95.5" height="98.3" class="P6_3_5"/>
		
			<rect id="Z_6_3_A99" x="10426.6" y="2392.1" transform="matrix(0.4818 -0.8763 0.8763 0.4818 3276.321 10423.2412)" width="47.8" height="99.1" class="P6_3_8"/>
		
			<rect id="Z_6_3_A98" x="10449.6" y="2350.2" transform="matrix(0.4818 -0.8763 0.8763 0.4818 3324.9314 10421.7139)" width="47.8" height="99.1" class="P6_3_8"/>
		
			<rect id="Z_6_3_A97" x="10472.7" y="2308.4" transform="matrix(0.4818 -0.8763 0.8763 0.4818 3373.5415 10420.1855)" width="47.8" height="99.1" class="P6_3_8"/>
		<polygon id="Z_6_3_A96" points="10551.5,2360.9 10592.5,2286.3 10505,2238.9 10464.6,2313.1   " class="P6_3_5"/>
		
			<rect id="Z_6_3_A95" x="10333.6" y="2475.5" transform="matrix(0.4818 -0.8763 0.8763 0.4818 3179.5505 10426.3604)" width="142.4" height="99" class="P6_3_5"/>
		<polygon id="Z_6_3_A94" points="10524.4,2915.6 10659.4,2666.4 10575.5,2620.3 10439,2868.7   " class="P6_3_5"/>
		<polygon id="Z_6_3_A93" points="10062,1673.8 9986.1,1764 10024.5,1796.3 9973.6,1857.1 9973.6,1857.1     9960.9,1872.3 9942.1,1894.7 9942.1,1894.7 9911.1,1931.9 9984.6,1993.4 10047.2,1918.6 10047.2,1918.6 10097.8,1858     10097.8,1858 10173.7,1767.9   " class="P6_3_5"/>
		
			<rect id="Z_6_3_A92" x="11248.3" y="2172.2" transform="matrix(0.6652 -0.7466 0.7466 0.6652 1885.004 9291.6699)" width="111.7" height="743.2" class="P6_3_5"/>
		
			<rect id="Z_6_3_A91" x="10940.3" y="2580.6" transform="matrix(0.6678 -0.7443 0.7443 0.6678 1711.6891 9045.5059)" width="99.9" height="48.7" class="P6_3_8"/>
		<polygon id="Z_6_3_A90" points="11186.9,2735.9 11197.6,2723.9 11041.8,2584.1 10975,2658.5     11111.1,2780.6 11110.9,2780.8 11130.7,2798.5 11102.3,2830.1 11179.9,2899.8 11223,2851.7 11264.5,2805.5   " class="P6_3_5"/>
		<polygon id="Z_6_3_A89" points="11544.5,2832.7 11499.2,2792.3 11336.9,2974.2 11319.8,2958.9     11285.3,2997.5 11362.2,3066.2 11396.7,3027.5 11384,3016.8   " class="P6_3_5"/>
		<polygon id="Z_6_3_A88" points="10974.5,3346 11243.1,3044.8 11320,3113.5 11052.4,3415.5   " class="P6_3_5"/>
		<polygon id="Z_6_3_A87" points="11243.1,3044.8 11285.3,2997.5 11362.2,3066.2     11320,3113.5   " class="P6_3_8"/>
		<polygon id="Z_6_3_A86" points="10694.1,3287.5 11102.3,2830.1 11180,2899.6 10772.1,3357   " class="P6_3_5"/>
		
			<rect id="Z_6_3_A85" x="10974.5" y="3346.1" transform="matrix(0.6633 -0.7484 0.7484 0.6633 1160.0724 9374.9199)" width="46.8" height="104.4" class="P6_3_8"/>
		<polygon id="Z_6_3_A84" points="10946.3,3383.8 10818.6,3528.3 10837,3544.6 10731.9,3662.8 10788.6,3713     11021.4,3450.5   " class="P6_3_5"/>
		
			<rect id="Z_6_3_A83" x="10508.6" y="3132.9" transform="matrix(0.6401 -0.7683 0.7683 0.6401 1296.6798 9282.9893)" width="96.5" height="249.1" class="P6_3_5"/>
		
			<rect id="Z_6_3_A82" x="10394.3" y="3137.8" transform="matrix(0.6401 -0.7683 0.7683 0.6401 1328.7258 9160.832)" width="96.5" height="48.7" class="P6_3_8"/>
		<polygon id="Z_6_3_A81" points="10199.4,3567.1 10138.7,3639.7 10254.5,3736.5 10254.5,3736.5     10301.8,3776 10359.7,3702.4   " class="P6_3_5"/>
		
			<rect id="Z_6_3_A80" x="10103.2" y="3563.8" transform="matrix(0.6412 -0.7674 0.7674 0.6412 888.8725 9076.8213)" width="94.7" height="48.3" class="P6_3_8"/>
		
			<rect id="Z_6_3_A79" x="9887.3" y="3680.5" transform="matrix(0.6412 -0.7674 0.7674 0.6412 713.6058 8957.7168)" width="96.5" height="70.5" class="P6_3_5"/>
		<polygon id="Z_6_3_A78" points="9883.6,3609.5 9852.6,3583.6 9818.1,3624.9     9842.7,3645.4 9815.3,3678.2 9877.5,3730.2 9939.4,3656.1   " class="P6_3_8"/>
		
			<rect id="Z_6_3_A77" x="9932.8" y="3729.8" transform="matrix(0.6412 -0.7674 0.7674 0.6412 700.7529 9006.3037)" width="96.5" height="48.1" class="P6_3_8"/>
		
			<rect id="Z_6_3_A76" x="9969.3" y="3760.2" transform="matrix(0.6412 -0.7674 0.7674 0.6412 690.4611 9045.2012)" width="96.5" height="48.1" class="P6_3_8"/>
		<polygon id="Z_6_3_A75" points="10775.6,4060.3 10669.3,3966.7 10611.2,4036.2 10730.5,4139.6     10793,4079.3   " class="P6_3_5"/>
		
			<rect id="Z_6_3_A74" x="10057.4" y="3514.2" transform="matrix(0.6412 -0.7674 0.7674 0.6412 901.7802 9027.9619)" width="94.6" height="71" class="P6_3_5"/>
		<polygon id="Z_6_3_A73" points="10107.8,3490.6 10006,3405.6 9968,3451.4 9988.7,3467.8 9965.8,3495.3     10047.2,3563.2   " class="P6_3_5"/>
		<polygon id="Z_6_3_A72" points="10593.7,4263.4 10610,4249.1 10512.4,4139.6 10475.7,4108.6     10430.4,4066.4 10066.9,3762.7 10005,3836.7 10387.7,4160.3 10580.9,4366.5 10639,4313.5   " class="P6_3_5"/>
		
			<rect id="Z_6_3_A71" x="10571.4" y="3951" transform="matrix(0.6412 -0.7674 0.7674 0.6412 753.9099 9575.8418)" width="90.6" height="61.5" class="P6_3_8"/>
		
			<rect id="Z_6_3_A70" x="9069.4" y="2036.4" transform="matrix(0.682 -0.7314 0.7314 0.682 1366.1553 7334.7007)" width="96" height="119.9" class="P6_3_5"/>
		
			<rect id="Z_6_3_A69" x="9008.2" y="2015.6" transform="matrix(0.682 -0.7314 0.7314 0.682 1388.4309 7271.8125)" width="96" height="47.4" class="P6_3_8"/>
		
			<rect id="Z_6_3_A68" x="8973.5" y="1983.2" transform="matrix(0.682 -0.7314 0.7314 0.682 1401.0615 7236.1445)" width="96" height="47.4" class="P6_3_8"/>
		
			<rect id="Z_6_3_A67" x="8938.8" y="1950.9" transform="matrix(0.682 -0.7314 0.7314 0.682 1413.6923 7200.4761)" width="96" height="47.4" class="P6_3_8"/>
		
			<rect id="Z_6_3_A66" x="8904.1" y="1918.5" transform="matrix(0.682 -0.7314 0.7314 0.682 1426.3229 7164.8081)" width="96" height="47.4" class="P6_3_8"/>
		
			<rect id="Z_6_3_A65" x="8869.4" y="1886.2" transform="matrix(0.682 -0.7314 0.7314 0.682 1438.9536 7129.1401)" width="96" height="47.4" class="P6_3_8"/>
		
			<rect id="Z_6_3_A64" x="8781.6" y="1804.3" transform="matrix(0.682 -0.7314 0.7314 0.682 1470.9005 7038.9243)" width="96" height="47.4" class="P6_3_8"/>
		
			<rect id="Z_6_3_A63" x="8746.9" y="1772" transform="matrix(0.682 -0.7314 0.7314 0.682 1483.5312 7003.2563)" width="96" height="47.4" class="P6_3_8"/>
		
			<rect id="Z_6_3_A62" x="8712.2" y="1739.6" transform="matrix(0.682 -0.7314 0.7314 0.682 1496.1619 6967.5884)" width="96" height="47.4" class="P6_3_8"/>
		
			<rect id="Z_6_3_A61" x="8677.5" y="1707.2" transform="matrix(0.682 -0.7314 0.7314 0.682 1508.7926 6931.9204)" width="96" height="47.4" class="P6_3_8"/>
		
			<rect id="Z_6_3_A60" x="8640.5" y="1669.6" transform="matrix(0.682 -0.7314 0.7314 0.682 1522.2616 6893.8818)" width="96" height="53.7" class="P6_3_8"/>
		
			<rect id="Z_6_3_A59" x="8825.5" y="1832.7" transform="matrix(0.682 -0.7314 0.7314 0.682 1454.9249 7084.0293)" width="96" height="72.6" class="P6_3_5"/>
		
			<rect id="Z_6_3_A58" x="9840.8" y="2991.8" transform="matrix(0.6415 -0.7672 0.7672 0.6415 1230.6248 8664.1094)" width="87.1" height="47.4" class="P6_3_8"/>
		
			<rect id="Z_6_3_A57" x="9877.1" y="3022.2" transform="matrix(0.6415 -0.7672 0.7672 0.6415 1220.3446 8702.8809)" width="87.1" height="47.4" class="P6_3_8"/>
		
			<rect id="Z_6_3_A56" x="9912.9" y="3052.9" transform="matrix(0.6415 -0.7672 0.7672 0.6415 1210.2297 8741.0273)" width="87.1" height="45.8" class="P6_3_8"/>
		<line id="Z_6_3_A55" style="fill:#B6D7DD;" x1="10304.1" y1="3373.2" x2="10341.6" y2="3328.3"/>
		<polygon id="Z_6_3_A54" points="10474.4,3463.3 10487.5,3448 10341.6,3328.3 10304.1,3373.2     10413.2,3524.8 10446.6,3571.3 10460.1,3556.2 10464.3,3559.9 10517.4,3500.4   " class="P6_3_5"/>
		<polygon id="Z_6_3_A53" points="10281,3280.3 10049.9,3097.2 10001.9,3057.1 9946.1,3123.9 9824.5,3022.3     9994.1,3164 10000.1,3169.5 9991.3,3183.8 10244.7,3325.6 10244.7,3325.6 10287.7,3350.5 10304.1,3373.2 10341.6,3328.3   " class="P6_3_5"/>
		
			<rect id="Z_6_3_A52" x="10104.7" y="3717.6" transform="matrix(0.6412 -0.7674 0.7674 0.6412 770.5832 9129.2725)" width="85.6" height="46" class="P6_3_7"/>
		
			<rect id="Z_6_3_A51" x="10069.4" y="3688.1" transform="matrix(0.6412 -0.7674 0.7674 0.6412 780.5529 9091.5918)" width="85.6" height="46" class="P6_3_7"/>
		
			<rect id="Z_6_3_A50" x="10140" y="3747.1" transform="matrix(0.6412 -0.7674 0.7674 0.6412 760.6172 9166.9395)" width="85.6" height="46" class="P6_3_7"/>
		
			<rect id="Z_6_3_A49" x="9903" y="3549.2" transform="matrix(0.6412 -0.7674 0.7674 0.6412 827.4269 8914.1875)" width="85.8" height="46.1" class="P6_3_7"/>
		
			<rect id="Z_6_3_A48" x="9807.1" y="2597.1" transform="matrix(0.6361 -0.7716 0.7716 0.6361 1530.2109 8567.5908)" width="81.8" height="128.9" class="P6_3_9"/>
		<polygon id="Z_6_3_A47" points="9695.7,2589     9740.8,2534.4 9806.2,2588.3 9813.4,2579.9 9824.4,2589.1 9772.3,2652.1   " class="P6_3_9"/>
		
			<rect id="Z_6_3_A45" x="9697.5" y="2378.8" transform="matrix(0.6414 -0.7672 0.7672 0.6414 1625.7971 8327.3701)" width="48.3" height="91.1" class="P6_3_7"/>
		
			<rect id="Z_6_3_A44" x="9728.5" y="2341.8" transform="matrix(0.6414 -0.7672 0.7672 0.6414 1665.3115 8337.8477)" width="48.3" height="91.1" class="P6_3_7"/>
		
			<rect id="Z_6_3_A43" x="9759.4" y="2304.8" transform="matrix(0.6414 -0.7672 0.7672 0.6414 1704.8259 8348.3242)" width="48.3" height="91.1" class="P6_3_7"/>
		
			<rect id="Z_6_3_A46" x="9650.6" y="2423.3" transform="matrix(0.6414 -0.7672 0.7672 0.6414 1578.3256 8314.7812)" width="67.7" height="91.1" class="P6_3_9"/>
		
			<rect id="Z_6_3_A42" x="9880.2" y="2160.2" transform="matrix(0.6414 -0.7672 0.7672 0.6414 1859.0135 8389.2207)" width="48.3" height="91.1" class="P6_3_7"/>
		
			<rect id="Z_6_3_A41" x="9911.7" y="2124.1" transform="matrix(0.6414 -0.7672 0.7672 0.6414 1897.589 8399.4492)" width="45.9" height="91.1" class="P6_3_7"/>
		
			<rect id="Z_6_3_A40" x="9970.1" y="2044.6" transform="matrix(0.6414 -0.7672 0.7672 0.6414 1979.8811 8421.376)" width="58.3" height="95.9" class="P6_3_5"/>
		
			<rect id="Z_6_3_A39" x="10169.4" y="1811.2" transform="matrix(0.6414 -0.7672 0.7672 0.6414 2228.7856 8487.1611)" width="49.4" height="95.9" class="P6_3_7"/>
		
			<rect id="Z_6_3_A38" x="9473.9" y="2384.7" transform="matrix(0.6374 -0.7705 0.7705 0.6374 1571.48 8205.9844)" width="62.3" height="97" class="P6_3_9"/>
		<polygon id="Z_6_3_A37" points="8959.7,2051.2 8995.7,2084.5 8953.8,2138.3     8917,2106.9   " class="P6_3_8"/>
		<polygon id="Z_6_3_A36" points="8879.3,1978.1 8959.7,2051.2 8917,2106.9 8832.4,2034.7   " class="P6_3_5"/>
		<polygon id="Z_6_3_A35" points="8995.7,2084.5 9033.1,2118.5 8991,2170     8953.8,2138.3   " class="P6_3_8"/>
		<polygon id="Z_6_3_A34" points="9275.1,2333.2 9306.9,2359.5 9268.1,2406.4     9236.2,2379.2   " class="P6_3_8"/>
		<polygon id="Z_6_3_A33" points="9342.9,2391.4 9373.2,2416.5 9334,2462.7 9304.1,2437.1   " class="P6_3_5"/>
		
			<rect id="Z_6_3_A32" x="9546" y="2755.1" transform="matrix(0.6374 -0.7705 0.7705 0.6374 1329.7151 8400.4209)" width="89.4" height="64.4" class="P6_3_9"/>
		
			<rect id="Z_6_3_A31" x="10435.6" y="3324.8" transform="matrix(0.6415 -0.7672 0.7672 0.6415 1187.9846 9236.8984)" width="80.3" height="45.5" class="P6_3_7"/>
		
			<rect id="Z_6_3_A30" x="10471.5" y="3353.5" transform="matrix(0.6415 -0.7672 0.7672 0.6415 1177.8289 9275.2031)" width="80.3" height="48.1" class="P6_3_7"/>
		
			<rect id="Z_6_3_A29" x="10659.7" y="1990.3" transform="matrix(0.6652 -0.7466 0.7466 0.6652 2072.0574 8674.1318)" width="98.6" height="72.3" class="P6_3_9"/>
		
			<rect id="Z_6_3_A28" x="10713.7" y="2038.3" transform="matrix(0.6652 -0.7466 0.7466 0.6652 2054.2229 8730.5234)" width="98.6" height="72.3" class="P6_3_9"/>
		
			<rect id="Z_6_3_A27" x="10807" y="2068.8" transform="matrix(0.6652 -0.7466 0.7466 0.6652 2023.3834 8828.0566)" width="98.6" height="177.7" class="P6_3_9"/>
		
			<rect id="Z_6_3_A26" x="10845" y="2482.3" transform="matrix(0.6678 -0.7443 0.7443 0.6678 1735.9703 8935.6152)" width="68.7" height="81" class="P6_3_9"/>
		
			<rect id="Z_6_3_A25" x="10901.3" y="2538.2" transform="matrix(0.6678 -0.7443 0.7443 0.6678 1717.0408 8994.3984)" width="68.7" height="70.5" class="P6_3_9"/>
		<polygon id="Z_6_3_A24" points="11230.5,2885.3     11283.9,2825.3 11352,2885.7 11298.5,2945.7   " class="P6_3_9"/>
		
			<rect id="Z_6_3_A23" x="11178.6" y="2929.9" transform="matrix(0.6656 -0.7463 0.7463 0.6656 1528.7837 9361.7637)" width="65.8" height="89.9" class="P6_3_9"/>
		
			<rect id="Z_6_3_A22" x="11151.9" y="2973.1" transform="matrix(0.6656 -0.7463 0.7463 0.6656 1483.332 9346.7754)" width="40.4" height="89.9" class="P6_3_7"/>
		
			<rect id="Z_6_3_A21" x="11064.3" y="3067.4" transform="matrix(0.6656 -0.7463 0.7463 0.6656 1384.5314 9315.4121)" width="46.7" height="90.6" class="P6_3_7"/>
		<polygon id="Z_6_3_A20" points="10465.8,3740.3     10542.6,3653.7 10611.1,3714 10535.4,3798.9   " class="P6_3_9"/>
		<polygon id="Z_6_3_A19" points="10346.7,3686.9     10461.9,3557.8 10554.8,3639.6 10440.8,3767.7   " class="P6_3_9"/>
		<polygon id="Z_6_3_A18" points="10461.9,3557.8     10513.5,3499.9 10575.9,3555.5 10524.6,3613   " class="P6_3_9"/>
		<polygon id="Z_6_3_A17" points="10381.1,3841.1     10440.8,3767.7 10509.8,3828.3 10450.2,3900.9   " class="P6_3_9"/>
		<polygon id="Z_6_3_A16" points="10672.6,3451     10606.5,3391.9 10694.1,3291.1 10760.3,3350.1   " class="P6_3_9"/>
		<polygon id="Z_6_3_A15" points="10416.2,3746.5     10363.7,3701.6 10301.8,3776 10354.7,3820.1   " class="P6_3_9"/>
		<polygon id="Z_6_3_A14" points="9488.5,2645.6     9594.4,2732.3 9537.4,2801.2 9431.3,2712.8   " class="P6_3_9"/>
		
			<rect id="Z_6_3_A13" x="10224.4" y="3143.6" transform="matrix(0.6415 -0.7672 0.7672 0.6415 1242.397 9019.1162)" width="91.1" height="73.7" class="P6_3_5"/>
		
			<rect id="Z_6_3_A12" x="10573.8" y="2376.6" transform="matrix(0.4818 -0.8763 0.8763 0.4818 3372.3584 10545.6709)" width="56.5" height="90.1" class="P6_3_7"/>
		<polygon id="Z_6_3_A11" points="10502.3,2701.7 10524.1,2663.3 10440.8,2617.5 10419,2655.9   " class="P6_3_5"/>
		
			<rect id="Z_6_3_A10" x="10470.7" y="2572.5" transform="matrix(0.4818 -0.8763 0.8763 0.4818 3144.928 10552.8193)" width="47.4" height="90.1" class="P6_3_7"/>
		
			<rect id="Z_6_3_A9" x="10419.7" y="2658" transform="matrix(0.4818 -0.8763 0.8763 0.4818 3045.6064 10555.9404)" width="55.3" height="90.1" class="P6_3_7"/>
		
			<rect id="Z_6_3_A8" x="10514.8" y="2031.3" transform="matrix(0.6678 -0.7443 0.7443 0.6678 1977.376 8542.1211)" width="88.8" height="48.6" class="P6_3_5"/>
		
			<rect id="Z_6_3_A7" x="9794.2" y="2268.8" transform="matrix(0.6414 -0.7672 0.7672 0.6414 1740.6091 8357.7275)" width="34.7" height="95.9" class="P6_3_5"/>
		
			<rect id="Z_6_3_A6" x="11091.7" y="3016.5" transform="matrix(0.6656 -0.7463 0.7463 0.6656 1435.2013 9331.4893)" width="78.4" height="95.2" class="P6_3_5"/>
		<polygon id="Z_6_3_A5" points="9033.1,2118.5 9164,2238.2 9126.8,2285.9 8991,2170   " class="P6_3_5"/>
		
			<rect id="Z_6_3_A4" x="9983.3" y="3559.1" transform="matrix(0.6412 -0.7674 0.7674 0.6412 804.1823 9002.2617)" width="90.2" height="164.2" class="P6_3_5"/>
		
			<rect id="Z_6_3_A3" x="10186" y="3772.9" transform="matrix(0.6412 -0.7674 0.7674 0.6412 746.9636 9218.5303)" width="90.2" height="75.2" class="P6_3_5"/>
		
			<rect id="Z_6_3_A2" x="10328.4" y="3878.7" transform="matrix(0.6412 -0.7674 0.7674 0.6412 706.7455 9370.5312)" width="90.2" height="101.6" class="P6_3_5"/>
		<polygon id="Z_6_3_A1" points="10622.1,3927.3 10533.7,3847.3 10472.6,3920.4 10564,3996.8   " class="P6_3_5"/>
	</g>
	<g id="Z_6_3_I">
		
			<use xlink:href="#cafe" width="132.7" height="132.6" id="sZ_6_3_A152" x="-66.4" y="-66.3" transform="matrix(0.3767 0 0 -0.3767 10603.3721 2160.3137)" style="overflow:visible;"/>
		
			<use xlink:href="#cafe" width="132.7" height="132.6" id="sZ_6_3_A151" x="-66.4" y="-66.3" transform="matrix(0.3767 0 0 -0.3767 10007.4375 2813.2502)" style="overflow:visible;"/>
		
			<use xlink:href="#ascenseur" width="132.7" height="132.6" id="sZ_6_3_I34" x="-66.4" y="-66.3" transform="matrix(0.3767 0 0 -0.3767 10658.2949 4233.2925)" style="overflow:visible;"/>
		
			<use xlink:href="#ascenseur" width="132.7" height="132.6" id="sZ_6_3_I32" x="-66.4" y="-66.3" transform="matrix(0.3767 0 0 -0.3767 10912.2725 2383.4995)" style="overflow:visible;"/>
		
			<use xlink:href="#WC" width="132.7" height="132.6" id="sZ_6_3_I31" x="-66.4" y="-66.3" transform="matrix(0.3767 0 0 -0.3767 10278.3984 1799.9739)" style="overflow:visible;"/>
		
			<use xlink:href="#WC" width="132.7" height="132.6" id="sZ_6_3_I30" x="-66.4" y="-66.3" transform="matrix(0.3767 0 0 -0.3767 10082.9238 1990.5156)" style="overflow:visible;"/>
		
			<use xlink:href="#WC" width="132.7" height="132.6" id="sZ_6_3_I29" x="-66.4" y="-66.3" transform="matrix(0.3767 0 0 -0.3767 10382.8623 2813.2502)" style="overflow:visible;"/>
		
			<use xlink:href="#WC" width="132.7" height="132.6" id="sZ_6_3_I28" x="-66.4" y="-66.3" transform="matrix(0.3767 0 0 -0.3767 9902.9844 2873.563)" style="overflow:visible;"/>
		
			<use xlink:href="#WC" width="132.7" height="132.6" id="sZ_6_3_I27" x="-66.4" y="-66.3" transform="matrix(0.3767 0 0 -0.3767 8784.4004 1946.35)" style="overflow:visible;"/>
		
			<use xlink:href="#WC" width="132.7" height="132.6" id="sZ_6_3_I26" x="-66.4" y="-66.3" transform="matrix(0.3767 0 0 -0.3767 10518.5146 4043.3679)" style="overflow:visible;"/>
		
			<use xlink:href="#WC" width="132.7" height="132.6" id="sZ_6_3_I25" x="-66.4" y="-66.3" transform="matrix(0.3767 0 0 -0.3767 11003.9248 3208.1033)" style="overflow:visible;"/>
		
			<use xlink:href="#WC" width="132.7" height="132.6" id="sZ_6_3_I24" x="-66.4" y="-66.3" transform="matrix(0.3767 0 0 -0.3767 11388.4053 2793.613)" style="overflow:visible;"/>
		
			<use xlink:href="#WC" width="132.7" height="132.6" id="sZ_6_3_I23" x="-66.4" y="-66.3" transform="matrix(0.3767 0 0 -0.3767 11228.4541 2656.551)" style="overflow:visible;"/>
		
			<use xlink:href="#WC" width="132.7" height="132.6" id="sZ_6_3_I22" x="-66.4" y="-66.3" transform="matrix(0.3767 0 0 -0.3767 10824.5459 2305.9573)" style="overflow:visible;"/>
		
			<use xlink:href="#escalier" width="132.7" height="132.6" id="sZ_6_3_I21" x="-66.4" y="-66.3" transform="matrix(0.3767 0 0 -0.3767 10048.4717 2980.6611)" style="overflow:visible;"/>
		
			<use xlink:href="#escalier" width="132.7" height="132.6" id="sZ_6_3_I20" x="-66.4" y="-66.3" transform="matrix(0.3767 0 0 -0.3767 9587.2617 2597.7439)" style="overflow:visible;"/>
		
			<use xlink:href="#escalier" width="132.7" height="132.6" id="sZ_6_3_I19" x="-66.4" y="-66.3" transform="matrix(0.3767 0 0 -0.3767 8659.2188 1832.8699)" style="overflow:visible;"/>
		
			<use xlink:href="#escalier" width="132.7" height="132.6" id="sZ_6_3_I18" x="-66.4" y="-66.3" transform="matrix(0.3767 0 0 -0.3767 10841.5703 3378.3547)" style="overflow:visible;"/>
		
			<use xlink:href="#escalier" width="132.7" height="132.6" id="sZ_6_3_I17" x="-66.4" y="-66.3" transform="matrix(0.3767 0 0 -0.3767 11308.7627 2724.2964)" style="overflow:visible;"/>
		
			<use xlink:href="#escalier" width="132.7" height="132.6" id="sZ_6_3_I16" x="-66.4" y="-66.3" transform="matrix(0.3767 0 0 -0.3767 11078.4375 2521.2063)" style="overflow:visible;"/>
		
			<use xlink:href="#escalier" width="132.7" height="132.6" id="sZ_6_3_I15" x="-66.4" y="-66.3" transform="matrix(0.3767 0 0 -0.3767 10393.043 1938.8724)" style="overflow:visible;"/>
		
			<use xlink:href="#ascenseur" width="132.7" height="132.6" id="sZ_6_3_I13" x="-66.4" y="-66.3" transform="matrix(0.3767 0 0 -0.3767 10649.7881 3499.9238)" style="overflow:visible;"/>
		
			<use xlink:href="#ascenseur" width="132.7" height="132.6" id="sZ_6_3_I11" x="-66.4" y="-66.3" transform="matrix(0.3767 0 0 -0.3767 10145.957 3076.7114)" style="overflow:visible;"/>
		
			<use xlink:href="#ascenseur" width="132.7" height="132.6" id="sZ_6_3_I9" x="-66.4" y="-66.3" transform="matrix(0.3767 0 0 -0.3767 9714.0908 2715.8511)" style="overflow:visible;"/>
		
			<use xlink:href="#escalier" width="132.7" height="132.6" id="sZ_6_3_I8" x="-66.4" y="-66.3" transform="matrix(0.3767 0 0 -0.3767 10774.7422 4139.3696)" style="overflow:visible;"/>
		
			<use xlink:href="#escalier" width="132.7" height="132.6" id="sZ_6_3_I7" x="-66.4" y="-66.3" transform="matrix(0.3767 0 0 -0.3767 9904.5449 3474.4224)" style="overflow:visible;"/>
		
			<use xlink:href="#cafe" width="132.7" height="132.6" id="sZ_6_3_A150" x="-66.4" y="-66.3" transform="matrix(0.3767 0 0 -0.3767 10648.0645 3775.9741)" style="overflow:visible;"/>
		
			<use xlink:href="#escalier" width="132.7" height="132.6" id="sZ_6_3_I2" x="-66.4" y="-66.3" transform="matrix(0.3767 0 0 -0.3767 9831.917 3567.5793)" style="overflow:visible;"/>
	</g>
	<g id="Z_6_3_R">
		
		
	</g>
</g>

<symbol id="WC" viewBox="-61 -61 122 122">
	<path style="fill:#009393;" d="M61,0c0-33.7-27.3-61-61-61S-61-33.7-61,0s27.3,61,61,61S61,33.7,61,0z"/>
	<path style="fill:#009393;" d="M0,61c-33.7,0-61-27.3-61-61s27.3-61,61-61c33.7,0,61,27.3,61,61S33.7,61,0,61z M0-52.1   c-28.8,0-52.1,23.3-52.1,52.1S-28.8,52.1,0,52.1c28.8,0,52.1-23.3,52.1-52.1S28.8-52.1,0-52.1z"/>
	<path style="fill:#009393;stroke:#FFFFFF;stroke-width:8;stroke-miterlimit:10;" d="M52.1,0c0-28.8-23.3-52.1-52.1-52.1   S-52.1-28.8-52.1,0S-28.8,52.1,0,52.1S52.1,28.8,52.1,0z"/>
	<g>
		<polygon style="fill:#FFFFFF;" points="4.8,32.5 4.8,-32.7 -1.3,-32.7 -1.3,32.5   "/>
		<path style="fill:#FFFFFF;" d="M1.7-0.1"/>
		<path style="fill:#FFFFFF;" d="M-20.7,22.3c3,0,5.4,2.4,5.4,5.4c0,3-2.4,5.4-5.4,5.4c-3,0-5.4-2.4-5.4-5.4    C-26,24.7-23.6,22.3-20.7,22.3L-20.7,22.3z"/>
		<path style="fill:#FFFFFF;" d="M-20.7,27.7"/>
		<path style="fill:#FFFFFF;" d="M-21.5-11.8v-18.8c0-3.4-5-3.4-5,0v18.8h-6.7l7.2,24.9h-1.2l-4.2-14.2c-1-3.1-5.3-1.8-4.3,1.5    l4.7,15.5c0.5,1.8,2.7,4.9,6.6,4.9h3.5l0,0h3.9c3.8,0,6.1-3.1,6.6-4.9l4.7-15.4C-4.7-2.9-9-4.2-10-1l-4.2,14.2h-1.2l7.2-24.9h-6.7    v-18.8c0-3.3-5-3.3-5,0v18.8L-21.5-11.8L-21.5-11.8z"/>
		<path style="fill:#FFFFFF;" d="M17.7,20.8c-3.8,0-6.8-3.1-6.8-7V-2.8c0-3.2,4.6-3.2,4.7,0v15.2h1.1v-42.1c0-4.3,6.2-4.2,6.2,0    v24.6h1.1v-24.6c0-4.2,6.2-4.3,6.2,0v42.1h1.1V-2.8c0-3.3,4.6-3.3,4.6,0v16.5c0,3.6-2.7,7.1-6.9,7.1L17.7,20.8L17.7,20.8z"/>
		<path style="fill:#FFFFFF;" d="M23.3,22.3c2.9,0,5.4,2.4,5.4,5.4c0,3-2.4,5.4-5.4,5.4c-3,0-5.4-2.4-5.4-5.4    C18,24.7,20.4,22.3,23.3,22.3L23.3,22.3z"/>
		<path style="fill:#FFFFFF;" d="M23.3,27.7"/>
	</g>
</symbol>
<symbol id="ascenseur" viewBox="-61 -61 122 122">
	<path style="fill:#009393;" d="M61,0c0-33.7-27.3-61-61-61S-61-33.7-61,0s27.3,61,61,61S61,33.7,61,0z"/>
	<path style="fill:#009393;" d="M0,61c-33.7,0-61-27.3-61-61s27.3-61,61-61c33.7,0,61,27.3,61,61S33.7,61,0,61z M0-52.1   c-28.8,0-52.1,23.3-52.1,52.1S-28.8,52.1,0,52.1c28.8,0,52.1-23.3,52.1-52.1S28.8-52.1,0-52.1z"/>
	<path style="fill:#009393;stroke:#FFFFFF;stroke-width:8;stroke-miterlimit:10;" d="M52.1,0c0-28.8-23.3-52.1-52.1-52.1   S-52.1-28.8-52.1,0S-28.8,52.1,0,52.1S52.1,28.8,52.1,0z"/>
	<g>
		<path style="fill:#FFFFFF;" d="M18.6,10.1H-18c-3.1,0-5.6-2.5-5.6-5.6v-33.6c0-3.1,2.5-5.6,5.6-5.6h36.6c3.1,0,5.6,2.5,5.6,5.6    V4.5C24.2,7.5,21.7,10.1,18.6,10.1z M19.7-29.2c0-0.6-0.5-1.1-1.1-1.1H-18c-0.6,0-1.1,0.5-1.1,1.1V4.5c0,0.6,0.5,1.1,1.1,1.1h36.6    c0.6,0,1.1-0.5,1.1-1.1V-29.2z"/>
		<path style="fill:#FFFFFF;" d="M-10.2,1.1c1.2,0,2.2-1,2.2-2.2s-1-2.2-2.2-2.2s-2.2,1-2.2,2.2S-11.4,1.1-10.2,1.1z"/>
		<path style="fill:#FFFFFF;" d="M0.3,1.1c1.2,0,2.2-1,2.2-2.2s-1-2.2-2.2-2.2s-2.2,1-2.2,2.2S-0.9,1.1,0.3,1.1z"/>
		<path style="fill:#FFFFFF;" d="M10.8,1.1c1.2,0,2.2-1,2.2-2.2s-1-2.2-2.2-2.2s-2.2,1-2.2,2.2S9.5,1.1,10.8,1.1z"/>
		<path style="fill:#FFFFFF;" d="M-7.2-4.1h-6c-0.8,0-1.5-0.7-1.5-1.6v-8c0-0.7,0.5-1.4,1.1-1.5V-25c0-0.8,0.7-1.5,1.5-1.5    s1.5,0.7,1.5,1.5v9.7h0.7V-25c0-0.8,0.7-1.5,1.5-1.5c0.8,0,1.5,0.7,1.5,1.5v9.8c0.6,0.2,1.1,0.8,1.1,1.5v8    C-5.7-4.9-6.3-4.1-7.2-4.1z"/>
		<path style="fill:#FFFFFF;" d="M3.3-4.1h-6c-0.8,0-1.5-0.7-1.5-1.6v-8c0-0.7,0.5-1.4,1.1-1.5V-25c0-0.8,0.7-1.5,1.5-1.5    s1.5,0.7,1.5,1.5v9.7h0.7V-25c0-0.8,0.7-1.5,1.5-1.5s1.5,0.7,1.5,1.5v9.8c0.6,0.2,1.1,0.8,1.1,1.5v8C4.8-4.9,4.1-4.1,3.3-4.1z"/>
		<path style="fill:#FFFFFF;" d="M13.7-4.1h-6c-0.8,0-1.5-0.7-1.5-1.6v-8c0-0.7,0.5-1.4,1.1-1.5V-25c0-0.8,0.7-1.5,1.5-1.5    s1.5,0.7,1.5,1.5v9.7h0.7V-25c0-0.8,0.7-1.5,1.5-1.5c0.8,0,1.5,0.7,1.5,1.5v9.8c0.6,0.2,1.1,0.8,1.1,1.5v8    C15.2-4.9,14.6-4.1,13.7-4.1z"/>
		<path style="fill:#FFFFFF;" d="M-2.1,28.6l-7.5,7.5c-1.2,1.2-3.1,1.2-4.2,0c0,0,0,0,0,0l-7.5-7.5c-1.2-1.2-1.2-3.1,0-4.2    c1.2-1.2,3.1-1.2,4.2,0l2.4,2.4V16c0-1.6,1.3-3,3-3c1.6,0,3,1.3,3,3v10.7l2.4-2.4c1.2-1.2,3.1-1.2,4.2,0S-0.9,27.4-2.1,28.6z"/>
		<path style="fill:#FFFFFF;" d="M21.8,25.6c-1.2,1.2-3.1,1.2-4.2,0l-2.4-2.4v10.7c0,1.6-1.3,3-3,3c-1.6,0-3-1.3-3-3V23.2l-2.4,2.4    c-1.2,1.2-3.1,1.2-4.2,0c-1.2-1.2-1.2-3.1,0-4.2l7.5-7.5l0,0c0.2-0.2,0.5-0.4,0.7-0.5c1.1-0.6,2.6-0.4,3.5,0.5l0,0l7.5,7.5    C23,22.5,23,24.4,21.8,25.6z"/>
	</g>
</symbol>
<symbol id="cafe" viewBox="-61 -61 122 122">
	<path style="fill:#009393;" d="M61,0c0-33.7-27.3-61-61-61S-61-33.7-61,0s27.3,61,61,61S61,33.7,61,0z"/>
	<path style="fill:#009393;" d="M0,61c-33.7,0-61-27.3-61-61s27.3-61,61-61S61-33.7,61,0S33.7,61,0,61z M0-52.1   c-28.8,0-52.1,23.3-52.1,52.1S-28.8,52.1,0,52.1c28.8,0,52.1-23.3,52.1-52.1S28.8-52.1,0-52.1z"/>
	<path style="fill:none;stroke:#FFFFFF;stroke-width:8;stroke-miterlimit:10;" d="M52.1,0c0-28.8-23.3-52.1-52.1-52.1   S-52.1-28.8-52.1,0S-28.8,52.1,0,52.1S52.1,28.8,52.1,0z"/>
	<g>
		<g>
			<g>
				<path style="fill:#FFFFFF;" d="M-7.8,11.2c-0.3,0-0.6,0.1-0.9,0.4c-0.5,0.5-0.5,1.3,0,1.8c1.6,1.5,1.8,3.6,0.5,5.4      c-2.1,3.3-2,6.4,0.4,8.8c0.5,0.5,1.3,0.5,1.8,0c0.5-0.5,0.5-1.3,0-1.8c-0.6-0.6-2.3-2.3-0.1-5.8c1.8-2.8,1.5-6.2-0.9-8.5      C-7.2,11.3-7.5,11.2-7.8,11.2L-7.8,11.2z"/>
			</g>
		</g>
		<g>
			<g>
				<path style="fill:#FFFFFF;" d="M-1.9,11.2c-0.3,0-0.6,0.1-0.9,0.4c-0.5,0.5-0.5,1.3,0,1.8c1.6,1.5,1.8,3.6,0.5,5.4      c-2.1,3.3-2,6.4,0.4,8.8c0.5,0.5,1.3,0.5,1.8,0c0.5-0.5,0.5-1.3,0-1.8c-0.6-0.6-2.3-2.3-0.1-5.8c1.8-2.8,1.5-6.2-0.9-8.5      C-1.3,11.3-1.6,11.2-1.9,11.2L-1.9,11.2z"/>
			</g>
		</g>
		<g>
			<g>
				<path style="fill:#FFFFFF;" d="M4,11.2c-0.3,0-0.6,0.1-0.9,0.4c-0.5,0.5-0.5,1.3,0,1.8c1.6,1.5,1.8,3.6,0.5,5.4      c-2.1,3.3-2,6.4,0.4,8.8c0.5,0.5,1.3,0.5,1.8,0s0.5-1.3,0-1.8c-0.6-0.6-2.3-2.3-0.1-5.8c1.8-2.8,1.5-6.2-0.9-8.5      C4.6,11.3,4.3,11.2,4,11.2L4,11.2z"/>
			</g>
		</g>
		<path style="fill:#FFFFFF;" d="M-26.6-23.1v-0.8c0-2.1,1.7-3.7,3.7-3.7h42.9c2.1,0,3.7,1.7,3.7,3.7v0.8H-26.6z"/>
		<path style="fill:#FFFFFF;" d="M24.8,6.6h-7.2c-0.1,0-0.1,0-0.2,0c-0.1,0-0.1,0-0.2,0h-38.6c-1.4,0-2.5-1.1-2.5-2.5v-7.8    c0-8.9,6-15.3,14.5-18.1H5.2C13-19.2,18.7-13.7,19.6-6h5.2c2.4,0,4.3,1.9,4.3,4.3v4C29.1,4.7,27.1,6.6,24.8,6.6z M25.8-1.6    c0-0.6-0.5-1.1-1.1-1.1h-5v6.1h5c0.6,0,1.1-0.5,1.1-1.1V-1.6z"/>
	</g>
</symbol>
<symbol id="escalier" viewBox="-61 -61 122 122">
	<path style="fill:#009393;" d="M61,0c0-33.7-27.3-61-61-61S-61-33.7-61,0s27.3,61,61,61S61,33.7,61,0z"/>
	<path style="fill:#009393;" d="M0,61c-33.7,0-61-27.3-61-61s27.3-61,61-61S61-33.7,61,0S33.7,61,0,61z M0-52.1   c-28.8,0-52.1,23.3-52.1,52.1S-28.8,52.1,0,52.1c28.8,0,52.1-23.3,52.1-52.1S28.8-52.1,0-52.1z"/>
	<path style="fill:#009393;stroke:#FFFFFF;stroke-width:8;stroke-miterlimit:10;" d="M52.1,0c0-28.8-23.3-52.1-52.1-52.1   S-52.1-28.8-52.1,0S-28.8,52.1,0,52.1S52.1,28.8,52.1,0z"/>
	<path style="fill:#FFFFFF;" d="M31.1,21.8c0-1.1-0.9-2-2-2h-9.4v-9.4c0-1.1-0.9-2-2-2H8.3l0-9.3C8.3-2,7.3-3,6.2-3h-9.3v-9.4   c0-1.1-0.9-2-2-2h-9.4v-9.4c0-1.1-0.9-2-2-2h-13.1c-1.1,0-2,0.9-2,2v1.7c0,1.1,0.9,2,2,2h9.4v9.4c0,1.1,0.9,2,2,2h9.4v9.4   c0,1.1,0.9,2,2,2h9.4v9.4c0,1.1,0.9,2,2,2H14v9.4c0,1.1,0.9,2,2,2h13.1c1.1,0,2-0.9,2-2V21.8z"/>
</symbol>
<defs id="defs_6_3">
<style type="text/css" id="polygons_css_6_3">.P6_3_0{fill:#6CAFBC;stroke:#888888;stroke-width:10;stroke-linecap:square;}
.P6_3_1{fill:#6CAFBC;}
.P6_3_2{fill:#C0C0C0;}
.P6_3_3{fill:#95B5B7;}
.P6_3_4{fill:#E88B8B;}
.P6_3_5{fill:#DAEBEE;}
.P6_3_6{fill:#FFED47;}
.P6_3_7{fill:#B6D7DD;stroke:#B6D7DD;stroke-width:5;stroke-miterlimit:10;}
.P6_3_8{fill:#B6D7DD;}
.P6_3_9{fill:#E260E6;stroke:#D931DF;stroke-width:5;stroke-linecap:square;}
.P6_3_10{fill:#FF0000;}
.P6_3_11{fill:#E53225;}
</style>
</defs>
</svg>
