{
	"0": {
		"a": 0,
		"b": 0,
		"c": 1,
		"d": 0,
		"e": 0,
		"f": 1,
		"angle": 53,
		"scale": 7.7593362236982255,
		"zone": 0,
		"floor": 0,
		"LonX": 343113.58966681943,
		"LatX": -689101.709750585,
		"LonY": -456658.065383401,
		"LatY": -520793.2609723027,
		"OffsetX": 32918448.81074864,
		"OffsetY": 26349064.366463456,

		"OffsetLat" : 48.792890568330414,
		"OffsetLon" : 2.054175424078797,
		"YLat" : -6.954416435895748e-07,
		"XLat" : -9.255798811613759e-07,
		"YLon" : -1.396709544774048e-06,
		"XLon" : 1.055572650831606e-06,
		"scale_svg_to_georeferenced_map" : 0.5
	}
}

