{
  "Ui": {
    "refMapWidth": 9600,
    "refMapHeight": 6716,
    "thumbnailMobileWidth": 120,
    "thumbnailMobileHeight": 84,
    "thumbnailTabletWidth": 240,
    "thumbnailTabletHeight": 168,
    "initialRotation": 0,
    "initialZoom": 1,
    "nbZoomLevels": 5,
    "maxRefreshZoomLevel": 4,
    "iPhoneZoomLevelMode": ["3D", "3D", "3D", "3D", "3D", "3D", "3D", "2D"],
    "androidZoomLevelMode": ["3D", "3D", "3D", "3D", "3D", "3D", "3D", "2D"],
    "androidNonTranslatePixels": 5,
    "viewportMargin": 0.5,
    "mapScale": 2,
    "mapTitle": true,
    "itiDirections": false,
    "itiComputingModalDelay": 800,
    "legend": false,
    "zoneIdPattern": "^Z_0_0_Z([1-9]{1}[0-9]*)$",
    "activeRootZonePolygonsPattern":"^Z_0_0_A(7[0-9]*)$",
    "zoneIdFloorIdFromTag": "^Z_(\\d*)_([^_]*)_.*$",
    "zoomRatio": 1,
    "zoomMinZoneToMapRatio":20,
    "minimumBuildingZoom": 2,
    "zoomLevelForFocusOnPosition": 5,
    "iconScale": {
      "desktop": {
        "initial": 1,
        "ratio": 0.3,
        "min": 1,
        "max": 1.3,
        "indoorRatio": 0.8
      },
      "mobile": {
        "initial": 0.8,
        "ratio": 0.3,
        "min": 0,
        "max": 1.3,
        "indoorRatio": 0.4
      }
    },
    "useWillChange": true,
    "useRequestAnimationFrame": true,
    "options": {
      "enableRotation"  : true,
      "showHomeButton"  : false,
      "showBackButton"  : false,
      "showClearButton" : true,
      "showZoomButton"  : true,
      "showLegendButton": true,
      "showRouteButton" : false,
      "gradientStrength": 0.16,
      "buttonsBackgroundColor": "#006348",
      "buttonsLightBackgroundColor": "#119470",
      "elevatorCurrentBackgroundColor": "#4EC5A5",
      "elevatorWithPOIBackgroundColor": "#E0C62E",
      "elevatorWithPositionBackgroundColor": "#4498EF",
      "itineraryLegendBackgroundColor": "#006348",
      "titleBackgroundColor": "#e61616",
      "buttonsSize": 36
    }
  },
  "siteName": "SQYPARK",
  "siteId": 0,
  "axeRotationAngleInSetNeighbours":30,
  "zones": [
    {
      "id": 0,
      "parentZone": 0,
      "name": {
        "fr": "SQYPARK hors-site",
        "en": "Out of SQYPARK"
      },
      "floors": [
        {
          "order": 0,
          "id": "0",
          "altitude": 0
        }
      ],
      "mainFloor": 0,
      "defaultLongLabel": {
        "fr": "",
        "en": ""
      },
      "perimeter": {
        "points": [
          {
            "x": 1404,
            "y": 2363.9
          },
          {
            "x": 1143.2,
            "y": 2756.4
          },
          {
            "x": 1066.5,
            "y": 3151.8
          },
          {
            "x": 1066.5,
            "y": 4868.5
          },
          {
            "x": 8101.6,
            "y": 4868.5
          },
          {
            "x": 8145.9,
            "y": 670.9
          },
          {
            "x": 7654.9,
            "y": 672.9
          },
          {
            "x": 7380.6,
            "y": 765.4
          },
          {
            "x": 6135.3,
            "y": 1564.3
          },
          {
            "x": 5991.2,
            "y": 1862.5
          },
          {
            "x": 5767.9,
            "y": 1965.7
          },
          {
            "x": 5500.3,
            "y": 1960.4
          },
          {
            "x": 3124.1,
            "y": 1587.3
          },
          {
            "x": 2953.8,
            "y": 1626.5
          },
          {
            "x": 1785.5,
            "y": 2112.3
          }
        ],
        "center": {
          "x": 4606.2,
          "y": 2769.7
        },
        "boundingBox": {
          "xMin": 1066.5,
          "yMin": 670.9,
          "xMax": 8145.9,
          "yMax": 4868.5
        }
      }
    }
  ]
}
