<?xml version="1.0" encoding="UTF-8" standalone="no"?>
<!-- Created with Inkscape (http://www.inkscape.org/) -->

<svg
   xmlns:dc="http://purl.org/dc/elements/1.1/"
   xmlns:cc="http://creativecommons.org/ns#"
   xmlns:rdf="http://www.w3.org/1999/02/22-rdf-syntax-ns#"
   xmlns:svg="http://www.w3.org/2000/svg"
   xmlns="http://www.w3.org/2000/svg"
   xmlns:sodipodi="http://sodipodi.sourceforge.net/DTD/sodipodi-0.dtd"
   xmlns:inkscape="http://www.inkscape.org/namespaces/inkscape"
   id="svg2"
   version="1.1"
   inkscape:version="0.48.4 r9939"
   width="200"
   height="200"
   sodipodi:docname="flag-arrival.svg">
  <metadata
     id="metadata8">
    <rdf:RDF>
      <cc:Work
         rdf:about="">
        <dc:format>image/svg+xml</dc:format>
        <dc:type
           rdf:resource="http://purl.org/dc/dcmitype/StillImage" />
        <dc:title />
      </cc:Work>
    </rdf:RDF>
  </metadata>
  <defs
     id="defs6" />
  <sodipodi:namedview
     pagecolor="#ffffff"
     bordercolor="#666666"
     borderopacity="1"
     objecttolerance="10"
     gridtolerance="10"
     guidetolerance="10"
     inkscape:pageopacity="0"
     inkscape:pageshadow="2"
     inkscape:window-width="1678"
     inkscape:window-height="1004"
     id="namedview4"
     showgrid="false"
     inkscape:zoom="2.6074563"
     inkscape:cx="103.74888"
     inkscape:cy="112.45281"
     inkscape:window-x="0"
     inkscape:window-y="0"
     inkscape:window-maximized="1"
     inkscape:current-layer="svg2"
     showguides="true"
     inkscape:guide-bbox="true">
    <sodipodi:guide
       orientation="1,0"
       position="99.79661,75.389831"
       id="guide3080" />
  </sodipodi:namedview>
  <path
     style="fill:#000000"
     d="m 94.247935,183.15323 c -3.850851,-0.78205 -5.599706,-1.96746 -5.599706,-3.7956 0,-1.85599 3.333529,-4.14714 6.713027,-4.61389 l 1.374958,-0.18989 0,-57.90688 0,-57.906889 -1.129386,-0.594053 c -2.530993,-1.331303 -3.158955,-4.10115 -1.57303,-6.938389 2.86242,-5.120918 11.166282,-3.816735 11.692132,1.836338 0.19652,2.112616 -0.36464,3.403577 -2.05662,4.731331 l -1.43327,1.124731 0,57.826611 0,57.82661 1.53672,0.18441 c 3.38823,0.40662 6.55127,2.45496 6.55127,4.24256 0,1.33571 -1.70773,2.75301 -4.36751,3.62473 -2.83045,0.92766 -8.526971,1.1944 -11.708581,0.54827 z"
     id="path3043"
     inkscape:connector-curvature="0" />
  <path
     style="fill:#000000;fill-rule:evenodd;stroke:#000000;stroke-width:5;stroke-miterlimit:4;stroke-dasharray:none"
     d="m 109.90787,101.51946 0,26.69292 c 13.21142,-5.2433 27.33598,-4.79342 37.5125,-0.61315 22.16612,9.50771 37.51249,0 37.51249,0 l 0,-60.852814 c 0,0 -15.34153,9.720493 -37.51249,0 -1.85276,-0.812315 -3.65784,-1.488864 -5.41026,-2.046666 -19.21766,-6.117075 -32.10224,2.046666 -32.10224,2.046666 z"
     id="path3062"
     inkscape:connector-curvature="0"
     sodipodi:nodetypes="cccccsscc" />
  <path
     style="fill:#ffffff;fill-rule:evenodd;stroke:none"
     d="m 159.01826,72.41174 c -3.77605,-0.677703 -7.689,-1.702097 -11.89244,-3.580488 -4.10109,-1.832652 -8.00169,-3.017327 -11.54304,-3.739019 l 0,0 0,18.597609 c -13.04805,-2.32616 -23.53075,1.094075 -23.53135,1.094275 l 0,19.563413 0,0 c 3.2e-4,-2.3e-4 9.22701,-4.676169 23.53135,-1.73016 l 0.076,20.09404 c 3.78387,0.66727 4.77504,0.0259 11.47729,2.76508 4.25502,1.73903 8.17157,2.93262 11.78629,3.6702 l 0,-0.0739 0.19176,-18.93883 c 13.5933,2.44292 23.53079,-1.52254 23.53136,-1.52277 l 0.0827,0 0,-19.228079 -0.0827,0.06749 c -3.2e-4,2.26e-4 -9.2977,4.745855 -23.53136,1.836202 l -0.0479,-18.923002 z"
     id="path3064"
     inkscape:connector-curvature="0"
     sodipodi:nodetypes="csccccccccscccccccccc" />
  <path
     style="fill:#000000;fill-rule:evenodd;stroke:none"
     d="m 135.58278,83.792284 0,18.722646 c 3.7713,0.67233 7.75692,1.82471 11.76568,3.67848 4.19415,1.93948 8.14007,3.17733 11.76568,3.91848 l 0,-18.80324 c -3.78725,-0.680627 -7.85829,-1.858704 -12.07726,-3.758578 -4.08566,-1.839842 -7.92446,-3.030849 -11.4541,-3.757788 l 0,0 0,0 z"
     id="checkered-flag"
     inkscape:connector-curvature="0" />
</svg>
