<?xml version="1.0" encoding="utf-8"?>
<!-- Generator: Adobe Illustrator 18.0.0, SVG Export Plug-In . SVG Version: 6.00 Build 0)  -->
<!DOCTYPE svg PUBLIC "-//W3C//DTD SVG 1.1//EN" "http://www.w3.org/Graphics/SVG/1.1/DTD/svg11.dtd">
<svg version="1.1" id="Calque_1" xmlns="http://www.w3.org/2000/svg" xmlns:xlink="http://www.w3.org/1999/xlink" x="0px" y="0px"
	 viewBox="0 0 132.7 132.6" style="enable-background:new 0 0 132.7 132.6;" xml:space="preserve">
<style type="text/css">
	.st0{fill:#404040;}
	.st1{fill:#909090;stroke:#FFFFFF;stroke-width:8;stroke-miterlimit:10;}
	.st2{fill:#FFFFFF;}
</style>
<g>
	<circle class="st0" cx="66.4" cy="66.3" r="61"/>
	<path class="st0" d="M66.4,5.3c-33.7,0-61,27.3-61,61s27.3,61,61,61s61-27.3,61-61S100.1,5.3,66.4,5.3z M66.4,118.4
		c-28.8,0-52.1-23.3-52.1-52.1s23.3-52.1,52.1-52.1s52.1,23.3,52.1,52.1S95.2,118.4,66.4,118.4z"/>
	<circle class="st1" cx="66.4" cy="66.3" r="52.1"/>
	<g>
		<path class="st2" d="M85,56.3H48.4c-3.1,0-5.6,2.5-5.6,5.6v33.6c0,3.1,2.5,5.6,5.6,5.6H85c3.1,0,5.6-2.5,5.6-5.6V61.9
			C90.6,58.8,88.1,56.3,85,56.3z M86.1,95.5c0,0.6-0.5,1.1-1.1,1.1H48.4c-0.6,0-1.1-0.5-1.1-1.1V61.9c0-0.6,0.5-1.1,1.1-1.1H85
			c0.6,0,1.1,0.5,1.1,1.1V95.5z"/>
		<circle class="st2" cx="56.2" cy="67.5" r="2.2"/>
		<circle class="st2" cx="66.7" cy="67.5" r="2.2"/>
		<circle class="st2" cx="77.1" cy="67.5" r="2.2"/>
		<path class="st2" d="M59.2,70.4h-6c-0.8,0-1.5,0.7-1.5,1.6v8c0,0.7,0.5,1.4,1.1,1.5v9.8c0,0.8,0.7,1.5,1.5,1.5
			c0.8,0,1.5-0.7,1.5-1.5v-9.7h0.7v9.7c0,0.8,0.7,1.5,1.5,1.5s1.5-0.7,1.5-1.5v-9.8c0.6-0.2,1.1-0.8,1.1-1.5v-8
			C60.7,71.2,60,70.4,59.2,70.4z"/>
		<path class="st2" d="M69.7,70.4h-6c-0.8,0-1.5,0.7-1.5,1.6v8c0,0.7,0.5,1.4,1.1,1.5v9.8c0,0.8,0.7,1.5,1.5,1.5
			c0.8,0,1.5-0.7,1.5-1.5v-9.7H67v9.7c0,0.8,0.7,1.5,1.5,1.5s1.5-0.7,1.5-1.5v-9.8c0.6-0.2,1.1-0.8,1.1-1.5v-8
			C71.1,71.2,70.5,70.4,69.7,70.4z"/>
		<path class="st2" d="M80.1,70.4h-6c-0.8,0-1.5,0.7-1.5,1.6v8c0,0.7,0.5,1.4,1.1,1.5v9.8c0,0.8,0.7,1.5,1.5,1.5s1.5-0.7,1.5-1.5
			v-9.7h0.7v9.7c0,0.8,0.7,1.5,1.5,1.5s1.5-0.7,1.5-1.5v-9.8c0.6-0.2,1.1-0.8,1.1-1.5v-8C81.6,71.2,80.9,70.4,80.1,70.4z"/>
		<path class="st2" d="M64.3,37.7l-7.5-7.5c-1.2-1.2-3.1-1.2-4.2,0c0,0,0,0,0,0l-7.5,7.5c-1.2,1.2-1.2,3.1,0,4.2s3.1,1.2,4.2,0
			l2.4-2.4v10.7c0,1.6,1.3,3,3,3c1.6,0,3-1.3,3-3V39.6l2.4,2.4c1.2,1.2,3.1,1.2,4.2,0C65.5,40.8,65.5,38.9,64.3,37.7z"/>
		<path class="st2" d="M88.2,40.7c-1.2-1.2-3.1-1.2-4.2,0l-2.4,2.4V32.4c0-1.6-1.3-3-3-3c-1.6,0-3,1.3-3,3v10.7l-2.4-2.4
			c-1.2-1.2-3.1-1.2-4.2,0s-1.2,3.1,0,4.2l7.5,7.5l0,0c0.2,0.2,0.5,0.4,0.7,0.5c1.1,0.6,2.6,0.4,3.5-0.5l0,0l7.5-7.5
			C89.4,43.8,89.4,41.9,88.2,40.7z"/>
	</g>
</g>
</svg>
