<?xml version="1.0" encoding="utf-8"?>
<!-- Generator: Adobe Illustrator 17.1.0, SVG Export Plug-In . SVG Version: 6.00 Build 0)  -->
<!DOCTYPE svg PUBLIC "-//W3C//DTD SVG 1.1//EN" "http://www.w3.org/Graphics/SVG/1.1/DTD/svg11.dtd">
<svg version="1.1" id="Calque_1" xmlns="http://www.w3.org/2000/svg" xmlns:xlink="http://www.w3.org/1999/xlink" x="0px" y="0px"
	 viewBox="0 0 132.7 132.6" style="enable-background:new 0 0 132.7 132.6;" xml:space="preserve">
<style type="text/css">
	.st0{fill:#009497;}
	.st1{fill:none;stroke:#FFFFFF;stroke-width:8;stroke-miterlimit:10;}
	.st2{fill:#FFFFFF;}
</style>
<g>
	<circle class="st0" cx="66.4" cy="66.3" r="61"/>
	<path class="st0" d="M66.4,5.3c-33.7,0-61,27.3-61,61s27.3,61,61,61s61-27.3,61-61S100.1,5.3,66.4,5.3z M66.4,118.4
		c-28.8,0-52.1-23.3-52.1-52.1s23.3-52.1,52.1-52.1s52.1,23.3,52.1,52.1S95.2,118.4,66.4,118.4z"/>
	<circle class="st1" cx="66.4" cy="66.3" r="52.1"/>
	<g>
		<path class="st2" d="M66.7,40.6c-2.8,0-5,2.2-5,5c0,2.8,2.3,5,5,5c2.8,0,5-2.3,5-5C71.7,42.9,69.5,40.6,66.7,40.6z"/>
		<rect x="50.7" y="42" class="st2" width="3" height="19.8"/>
		<path class="st2" d="M83.2,61.9C81.8,58.5,78,51.7,70,52c-4.8,0.2-5.7,6.9-5.8,10H83.2z"/>
		<polygon class="st2" points="97.5,41.9 97.5,87.9 90.1,87.9 90.1,64.1 42.6,64.1 42.6,87.9 35.2,87.9 35.2,41.9 31.6,41.9 
			31.6,91.6 35.2,91.6 35.2,91.5 97.5,91.5 97.5,91.6 101.1,91.6 101.1,41.9 		"/>
		<path class="st2" d="M62.8,61.9C62.8,61.9,62.8,61.9,62.8,61.9c0-1.7-1.5-3-3.3-3c-1.8,0-3.3,1.3-3.3,3c0,0,0,0,0,0H62.8z"/>
	</g>
</g>
</svg>
