<?xml version="1.0" encoding="utf-8"?>
<!-- Generator: Adobe Illustrator 17.1.0, SVG Export Plug-In . SVG Version: 6.00 Build 0)  -->
<!DOCTYPE svg PUBLIC "-//W3C//DTD SVG 1.1//EN" "http://www.w3.org/Graphics/SVG/1.1/DTD/svg11.dtd">
<svg version="1.1" id="Calque_1" xmlns="http://www.w3.org/2000/svg" xmlns:xlink="http://www.w3.org/1999/xlink" x="0px" y="0px"
	 viewBox="0 0 132.7 132.6" style="enable-background:new 0 0 132.7 132.6;" xml:space="preserve">
<g>
	<circle style="fill:#404040;" cx="66.4" cy="66.3" r="61"/>
	<path style="fill:#404040;" d="M66.4,5.3c-33.7,0-61,27.3-61,61s27.3,61,61,61s61-27.3,61-61S100.1,5.3,66.4,5.3z M66.4,118.4
		c-28.8,0-52.1-23.3-52.1-52.1s23.3-52.1,52.1-52.1s52.1,23.3,52.1,52.1S95.2,118.4,66.4,118.4z"/>
	<circle style="fill:#909090;stroke:#FFFFFF;stroke-width:8;stroke-miterlimit:10;" cx="66.4" cy="66.3" r="52.1"/>
	<g>
		<polygon style="fill:#FFFFFF;" points="54.1,75.4 54.6,75.4 55.2,75.3 56.5,75.1 57.9,74.8 59.3,74.5 60.8,74.1 62.3,73.6 
			63.7,73.1 64.9,72.8 65.3,72.5 65.8,72.3 66.2,71.9 66.5,71.5 66.8,71.1 73.9,56.1 85.3,84.5 85.4,84.8 85.6,85.1 85.9,85.4 
			86.1,85.6 86.5,85.8 86.8,85.9 87.2,86 87.5,86 97.2,86.1 79.5,48 69,48 		"/>
		<polygon style="fill:#FFFFFF;" points="103.8,50.3 103.8,43.5 86.5,52.9 86.3,53 85.9,53.1 85.6,53.2 85.2,53.2 84.9,53.2 
			84.6,53.1 84.3,53 84.2,52.9 84.3,53.3 84.6,54.2 85,55.1 85.4,56 86,56.8 86.5,57.5 87.1,58 87.6,58.3 88.1,58.4 88.5,58.4 
			89,58.4 89.3,58.2 89.6,58.1 89.7,58.1 		"/>
		<polygon style="fill:#FFFFFF;" points="103.8,61.8 103.8,53.7 98.1,56.9 92.6,60 87.4,62.9 82.7,65.4 78.5,67.7 74.7,69.6 
			71.2,71.3 68.1,72.7 65.2,73.9 62.5,74.9 59.7,75.8 57,76.6 54.4,77.2 51.8,77.8 49.4,78.2 47.1,78.5 45,78.7 43.2,78.9 
			41.6,78.9 40.3,78.9 38.2,78.7 36.8,78.3 35.8,77.9 35,77.4 34.3,76.7 33.8,76 33.5,75.2 33.4,74.2 33.5,73.1 33.9,71.8 
			34.6,70.3 35.5,68.9 36.6,67.4 37.8,66 39.1,64.7 40.4,63.6 41.8,62.5 43.3,61.3 44.9,60.3 46.5,59.3 48.1,58.4 49.8,57.5 
			51.5,56.8 53.2,56.1 54.8,55.6 56.3,55.1 57.6,54.8 58.9,54.6 60.1,54.5 61.4,54.7 62.1,54.7 61.7,53.5 61.1,51.3 60.6,49.8 
			60.2,48.9 59.9,48.4 59.6,48.1 59.3,47.9 58.8,47.7 58,47.6 56.8,47.7 55.3,47.9 53.6,48.2 51.9,48.7 50.1,49.4 48.3,50.1 
			46.6,50.9 45,51.7 43.4,52.6 41.8,53.7 40.1,54.8 38.5,56 37,57.1 35.7,58.2 34.6,59.3 33.5,60.5 32.4,61.7 31.5,63.1 30.6,64.4 
			29.9,65.8 29.4,67.3 29.1,68.8 28.9,70.2 29,71.8 29.3,73.4 29.8,75 30.3,76.5 31,77.9 31.8,79.2 32.7,80.4 33.7,81.5 34.8,82.4 
			36,83.3 37.4,83.9 39,84.5 40.9,85 42.9,85.4 45,85.6 47.1,85.6 49,85.5 50.8,85.4 52.5,85.1 54.2,84.8 55.9,84.5 57.5,84.1 
			59.1,83.7 60.7,83.3 62.4,82.8 64.1,82.2 65.9,81.6 67.6,80.9 69.3,80.3 71,79.5 72.8,78.7 74.7,77.8 75.7,77.2 77.1,76.5 
			79.1,75.4 81.9,73.9 85.7,71.8 90.9,69 97,65.5 		"/>
	</g>
</g>
</svg>
