<?xml version="1.0" encoding="utf-8"?>
<!-- Generator: Adobe Illustrator 17.1.0, SVG Export Plug-In . SVG Version: 6.00 Build 0)  -->
<!DOCTYPE svg PUBLIC "-//W3C//DTD SVG 1.1//EN" "http://www.w3.org/Graphics/SVG/1.1/DTD/svg11.dtd">
<svg version="1.1" id="Calque_1" xmlns="http://www.w3.org/2000/svg" xmlns:xlink="http://www.w3.org/1999/xlink" x="0px" y="0px"
	 viewBox="0 0 132.7 132.6" style="enable-background:new 0 0 132.7 132.6;" xml:space="preserve">
<style type="text/css">
	.st0{fill:#009497;}
	.st1{fill:#009497;stroke:#FFFFFF;stroke-width:8;stroke-miterlimit:10;}
	.st2{fill:#FFFFFF;}
</style>
<g>
	<circle class="st0" cx="66.4" cy="66.3" r="61"/>
	<path class="st0" d="M66.4,5.3c-33.7,0-61,27.3-61,61s27.3,61,61,61s61-27.3,61-61S100.1,5.3,66.4,5.3z M66.4,118.4
		c-28.8,0-52.1-23.3-52.1-52.1s23.3-52.1,52.1-52.1s52.1,23.3,52.1,52.1S95.2,118.4,66.4,118.4z"/>
	<circle class="st1" cx="66.4" cy="66.3" r="52.1"/>
	<g>
		<path class="st2" d="M64.3,54.6c0,2.3-2.1,4.7-4.8,4.7v38.4c0,5.5-7.4,5.5-7.4,0V59.3c-2.6,0-4.9-2-4.9-5V33.1
			c0-1.8,2.7-1.9,2.7,0.1v15.6H52V33c0-1.7,2.6-1.8,2.6,0.1v15.7h2.3V33.1c0-1.8,2.5-1.8,2.5,0.1v15.7h2.3V33.1
			c0-1.8,2.6-1.8,2.6,0.1L64.3,54.6L64.3,54.6z"/>
		<path class="st2" d="M84.1,38v59.6c0,5.3-7.4,5.2-7.4,0V74h-4V38C72.7,29.6,84.1,29.6,84.1,38L84.1,38z"/>
	</g>
</g>
</svg>
